<?xml version="1.0" encoding="UTF-8" standalone="no"?>
<!-- Created with Inkscape (http://www.inkscape.org/) -->

<svg
   xmlns:dc="http://purl.org/dc/elements/1.1/"
   xmlns:cc="http://creativecommons.org/ns#"
   xmlns:rdf="http://www.w3.org/1999/02/22-rdf-syntax-ns#"
   xmlns:svg="http://www.w3.org/2000/svg"
   xmlns="http://www.w3.org/2000/svg"
   xmlns:sodipodi="http://sodipodi.sourceforge.net/DTD/sodipodi-0.dtd"
   xmlns:inkscape="http://www.inkscape.org/namespaces/inkscape"
   width="787.5"
   height="1012.5"
   id="svg2"
   version="1.1"
   inkscape:version="0.48.0 r9654"
   sodipodi:docname="Booklet-FUDconPA-BarCamp-SPA-v2-right.svg"
   inkscape:export-filename="/home/ianweller/fudcon-tempe-booklet/template-left.png"
   inkscape:export-xdpi="90"
   inkscape:export-ydpi="90"
   sodipodi:version="0.32"
   inkscape:output_extension="org.inkscape.output.svg.inkscape">
  <defs
     id="defs4">
    <inkscape:perspective
       sodipodi:type="inkscape:persp3d"
       inkscape:vp_x="0 : 506.25 : 1"
       inkscape:vp_y="0 : 1000 : 0"
       inkscape:vp_z="787.5 : 506.25 : 1"
       inkscape:persp3d-origin="393.75 : 337.5 : 1"
       id="perspective67" />
  </defs>
  <sodipodi:namedview
     id="base"
     pagecolor="#ffffff"
     bordercolor="#666666"
     borderopacity="1.0"
     inkscape:pageopacity="0.0"
     inkscape:pageshadow="2"
     inkscape:zoom="1.2345679"
     inkscape:cx="306.76692"
     inkscape:cy="768.123"
     inkscape:document-units="in"
     inkscape:current-layer="layer1"
     showgrid="true"
     units="in"
     inkscape:window-width="1440"
     inkscape:window-height="853"
     inkscape:window-x="-2"
     inkscape:window-y="-3"
     inkscape:window-maximized="1"
     showguides="true"
     inkscape:guide-bbox="true"
     inkscape:snap-bbox="true"
     inkscape:snap-page="false"
     inkscape:snap-nodes="true">
    <sodipodi:guide
       position="0,11.25"
       orientation="0,1"
       id="guide2985" />
    <sodipodi:guide
       position="776.25,0"
       orientation="1,0"
       id="guide2987" />
    <sodipodi:guide
       position="787.5,1001.25"
       orientation="0,1"
       id="guide2989" />
    <sodipodi:guide
       position="11.25,1012.5"
       orientation="1,0"
       id="guide2991" />
    <sodipodi:guide
       orientation="1,0"
       position="753.75,824"
       id="guide3872" />
    <sodipodi:guide
       orientation="1,0"
       position="33.75,762"
       id="guide3878" />
    <sodipodi:guide
       orientation="0,1"
       position="257,928.17"
       id="guide3884" />
    <sodipodi:guide
       orientation="0,1"
       position="297,33.75"
       id="guide3970" />
    <sodipodi:guide
       orientation="0,1"
       position="287,855"
       id="guide3972" />
    <sodipodi:guide
       orientation="0,1"
       position="35.753906,953.73"
       id="guide3017" />
    <sodipodi:guide
       orientation="0,1"
       position="311,990"
       id="guide3810" />
    <sodipodi:guide
       position="0,0"
       orientation="0,787.5"
       id="guide3812" />
    <sodipodi:guide
       position="787.5,0"
       orientation="-1012.5,0"
       id="guide3814" />
    <sodipodi:guide
       position="787.5,1012.5"
       orientation="0,-787.5"
       id="guide3816" />
    <sodipodi:guide
       position="0,1012.5"
       orientation="1012.5,0"
       id="guide3818" />
    <sodipodi:guide
       orientation="0,1"
       position="341,832.5"
       id="guide3820" />
    <inkscape:grid
       type="xygrid"
       id="grid3088" />
  </sodipodi:namedview>
  <metadata
     id="metadata7">
    <rdf:RDF>
      <cc:Work
         rdf:about="">
        <dc:format>image/svg+xml</dc:format>
        <dc:type
           rdf:resource="http://purl.org/dc/dcmitype/StillImage" />
        <dc:title></dc:title>
      </cc:Work>
    </rdf:RDF>
  </metadata>
  <g
     inkscape:groupmode="layer"
     id="layer2"
     inkscape:label="bounding"
     sodipodi:insensitive="true">
    <rect
       style="fill:#ffffff;fill-opacity:1;stroke:none"
       id="rect3010"
       width="787.5"
       height="1012.5"
       x="0"
       y="0" />
  </g>
  <g
     inkscape:label="Layer 1"
     inkscape:groupmode="layer"
     id="layer1"
     transform="translate(0,-39.862)">
    <rect
       style="fill:#79db32;fill-opacity:1;stroke:none"
       id="rect3876"
       width="787.5"
       height="125"
       x="8.629919e-15"
       y="72.362" />
    <rect
       style="fill:#3c6eb4;fill-opacity:1;stroke:none"
       id="rect2988"
       width="787.50006"
       height="58.77"
       x="0"
       y="39.862" />
    <path
       inkscape:connector-curvature="0"
       d="m 762.5156,74.862599 c 0,-6.90384 -5.59636,-12.5006 -12.49996,-12.5006 -6.90039,0 -12.49455,5.59215 -12.49955,12.49179 l -4.4e-4,-4.3e-4 0,9.67339 4.4e-4,4.3e-4 c 0.004,1.56658 1.2742,2.83482 2.84173,2.83482 0.004,0 0.009,-2.9e-4 0.0134,-2.9e-4 l 7.4e-4,2.9e-4 9.64842,0 0,0 c 6.90159,-0.003 12.49515,-5.59756 12.49515,-12.4994 l 7e-5,0 z"
       id="path3471"
       style="fill:#294172;fill-opacity:1" />
    <text
       xml:space="preserve"
       style="font-size:16px;font-style:normal;font-variant:normal;font-weight:bold;font-stretch:expanded;text-align:center;line-height:125%;letter-spacing:0px;word-spacing:0px;writing-mode:lr-tb;text-anchor:middle;fill:#ffffff;fill-opacity:1;stroke:none;font-family:Comfortaa;-inkscape-font-specification:Comfortaa Bold Expanded"
       x="750.14062"
       y="80.428406"
       id="text3860"
       sodipodi:linespacing="125%"><tspan
         sodipodi:role="line"
         id="tspan3862"
         x="750.14062"
         y="80.428406"
         style="text-align:center;text-anchor:middle">7</tspan></text>
    <text
       sodipodi:linespacing="125%"
       id="text3864"
       y="80.428406"
       x="33.75"
       style="font-size:16px;font-style:normal;font-variant:normal;font-weight:normal;font-stretch:normal;text-align:start;line-height:125%;letter-spacing:0px;word-spacing:0px;writing-mode:lr-tb;text-anchor:start;fill:#ffffff;fill-opacity:1;stroke:none;font-family:Comfortaa;-inkscape-font-specification:Comfortaa"
       xml:space="preserve"><tspan
         y="80.428406"
         x="33.75"
         id="tspan3866"
         sodipodi:role="line">Ciudad del Saber, Panamá, PA, PANAMA</tspan></text>
    <flowRoot
       xml:space="preserve"
       id="flowRoot3090"
       style="fill:black;stroke:none;stroke-opacity:1;stroke-width:1px;stroke-linejoin:miter;stroke-linecap:butt;fill-opacity:1;font-family:Sans;font-style:normal;font-weight:normal;font-size:40px;line-height:125%;letter-spacing:0px;word-spacing:0px"><flowRegion
         id="flowRegion3092"><rect
           id="rect3094"
           width="482.76001"
           height="53.459999"
           x="38.880001"
           y="158.75999" /></flowRegion><flowPara
         id="flowPara3096" /></flowRoot>    <text
       xml:space="preserve"
       style="font-size:40px;font-style:normal;font-weight:normal;line-height:125%;letter-spacing:0px;word-spacing:0px;fill:#000000;fill-opacity:1;stroke:none;font-family:Sans"
       x="51.84"
       y="226.8"
       id="text3098"
       sodipodi:linespacing="125%"
       transform="translate(0,39.862)"><tspan
         sodipodi:role="line"
         id="tspan3100"
         x="51.84"
         y="226.8" /></text>
    <text
       xml:space="preserve"
       style="font-size:40px;font-style:normal;font-weight:normal;line-height:125%;letter-spacing:0px;word-spacing:0px;fill:#000000;fill-opacity:1;stroke:none;font-family:Sans"
       x="46.98"
       y="217.08"
       id="text3102"
       sodipodi:linespacing="125%"
       transform="translate(0,39.862)"><tspan
         sodipodi:role="line"
         id="tspan3104"
         x="46.98"
         y="217.08"
         style="-inkscape-font-specification:Sans;font-family:Sans;font-weight:normal;font-style:normal;font-stretch:normal;font-variant:normal;font-size:18px;text-anchor:start;text-align:start;writing-mode:lr;line-height:125%" /></text>
    <text
       xml:space="preserve"
       style="font-size:40px;font-style:normal;font-weight:normal;line-height:125%;letter-spacing:0px;word-spacing:0px;fill:#000000;fill-opacity:1;stroke:none;font-family:Sans"
       x="40"
       y="242.362"
       id="text3106"
       sodipodi:linespacing="125%"><tspan
         sodipodi:role="line"
         id="tspan3110"
         style="font-size:18px;font-style:normal;font-variant:normal;font-weight:bold;font-stretch:normal;text-align:start;line-height:125%;writing-mode:lr-tb;text-anchor:start;font-family:Bitstream Charter;-inkscape-font-specification:Bitstream Charter Bold"
         x="40"
         y="242.362">Qué es la Conferencia BarCamp?</tspan></text>
    <flowRoot
       xml:space="preserve"
       id="flowRoot3112"
       style="fill:black;stroke:none;stroke-opacity:1;stroke-width:1px;stroke-linejoin:miter;stroke-linecap:butt;fill-opacity:1;font-family:Sans;font-style:normal;font-weight:normal;font-size:40px;line-height:125%;letter-spacing:0px;word-spacing:0px"><flowRegion
         id="flowRegion3114"><rect
           id="rect3116"
           width="714.41998"
           height="782.46002"
           x="40.5"
           y="192.78" /></flowRegion><flowPara
         id="flowPara3118" /></flowRoot>    <flowRoot
       xml:space="preserve"
       id="flowRoot3120"
       style="font-size:12px;font-style:normal;font-variant:normal;font-weight:normal;font-stretch:normal;text-align:start;line-height:125%;letter-spacing:0px;word-spacing:0px;writing-mode:lr-tb;text-anchor:start;fill:#000000;fill-opacity:1;stroke:none;font-family:Sans;-inkscape-font-specification:Sans"
       transform="matrix(0.9390003,0,0,1.0029101,35.022239,77.86455)"><flowRegion
         id="flowRegion3122"><rect
           id="rect3124"
           width="717.65997"
           height="785.70001"
           x="37.259998"
           y="196.02"
           style="font-size:12px;font-style:normal;font-variant:normal;font-weight:normal;font-stretch:normal;text-align:start;line-height:125%;writing-mode:lr-tb;text-anchor:start;font-family:Sans;-inkscape-font-specification:Sans" /></flowRegion><flowPara
         id="flowPara3162" /><flowPara
         id="flowPara2940"
         style="font-size:12px">Nuestras presentaciones y talleres se organizan en una modalidad ad-hoc, inspirados por los eventos BarCamp (www.barcamp.org) </flowPara><flowPara
         id="flowPara2908"
         style="font-size:12px"> </flowPara><flowPara
         id="flowPara2910"
         style="font-size:12px">El sábado en la mañana, después de la introducción, en CDS &lt;Edif. nnn&gt;, iniciaremos los ofrecimientos de charlas para el evento. En las paginas de la wiki (ur1.ca/2sn33), los participantes han agregado descripciones breves de sus ofrecimientos de charlas. Sienta la libertad de agregar ofrecimientos en la pagina de la wiki hasta el inicio de las presentaciones de los ofrecimientos de charlas. Cuando se inician los ofrecimientos cada participante tendrá la oportunidad de explicar en que consiste su sesión  en aproximadamente 20 segundos o menos. </flowPara><flowPara
         id="flowPara2912"
         style="font-size:12px"> </flowPara><flowPara
         id="flowPara2914"
         style="font-size:12px">Los BarCamps son eventos impulsados por los mismos participantes y cualquiera que quiera establecer una sesión esta invitado a hacer un ofrecimiento. Su ofrecimiento es el anuncio de su charla y debe convencer a las otras personas para que voten por este ofrecimiento y asistan a la charla. </flowPara><flowPara
         id="flowPara2916"
         style="font-size:12px"> </flowPara><flowPara
         id="flowPara2918"
         style="font-size:12px">Después de los ofrecimientos, los participantes de la conferencia rápidamente votaran basados en los ofrecimientos que ellos mas prefieran ver. Los títulos de las sesiones se colocaran en el tablero sobre piezas de papel. Cada participante debiera hacer una marca para llevar la cuenta del puntaje sobre las propuestas de sesión que  mas les interesen, marcando tantas propuestas como deseen. Los conteos de las marcas permiten a los organizadores y participantes reducir conflictos, combinar dos asuntos preferidos, o remover sesiones de bajo interés. </flowPara><flowPara
         id="flowPara2920"
         style="font-size:12px"> </flowPara><flowPara
         id="flowPara2922"
         style="font-size:12px">La programación de las sesiones también es un esfuerzo de colaboración. Los expositores y asistentes a las charlas trabajan con cada uno para eliminar conflictos y producir una programación lógica. Una vez se completa el programa, se transcribe a la wiki para la referencia de todos. </flowPara><flowPara
         id="flowPara2924"
         style="font-size:12px"> </flowPara><flowPara
         id="flowPara2926"
         style="font-size:12px">Solo tenemos 90 minutos para la introducción, ofrecimientos y programación, así que es increíblemente importante que se inicie en tiempo a las 9:00 a.m. y que permanezcamos enfocados en el tema y sobre la programación. </flowPara><flowPara
         id="flowPara2928"
         style="font-size:12px"> </flowPara><flowPara
         id="flowPara2930"
         style="font-size:12px">Aunque la sesión de apertura y la programación ocurrirá en el CDS Edificio nnnn (CDS nnnn), todas las otras sesiones tendrán lugar en &lt;xxx, nnn&gt; ( XXX ). </flowPara><flowPara
         id="flowPara2932"
         style="font-size:12px"> </flowPara><flowPara
         id="flowPara2934"
         style="font-size:12px">Se anima La Regla de Los Dos Pies. Esta es una regla simple: No se le solicita permanecer en una sesión para la cual usted ya ha perdido interés en la misma. Si encuentra que la presentación no es lo que pensaba que seria, use sus pies para encontrar una sesión alterna de su interés. Si deseara que el líder de la sesión cubra un tipo diferente de material, dígaselo. ( De manera amable, por supuesto. Valoramos la cortesía junto a la flexibilidad.) </flowPara><flowPara
         id="flowPara2936"
         style="font-size:12px"> </flowPara><flowPara
         id="flowPara2938"
         style="font-size:12px">Confuso ? Al principio, podría ser. Aunque en la practica, este proceso resulta en un evento dinámico, de participación y lleno de información. La combinación de colaboración, flexibilidad y contenidos impulsados por el usuario hace casi imposible abandonar la conferencia insatisfecho. Una vez que haya tenido la experiencia de un evento estilo BarCamp, puede que disfrute mas este estilo que cualquier otro formato !</flowPara></flowRoot>  </g>
</svg>
