<?xml version="1.0" encoding="UTF-8" standalone="no"?>
<!-- Created with Inkscape (http://www.inkscape.org/) -->
<svg
   xmlns:dc="http://purl.org/dc/elements/1.1/"
   xmlns:cc="http://creativecommons.org/ns#"
   xmlns:rdf="http://www.w3.org/1999/02/22-rdf-syntax-ns#"
   xmlns:svg="http://www.w3.org/2000/svg"
   xmlns="http://www.w3.org/2000/svg"
   xmlns:sodipodi="http://sodipodi.sourceforge.net/DTD/sodipodi-0.dtd"
   xmlns:inkscape="http://www.inkscape.org/namespaces/inkscape"
   width="787.5"
   height="1012.5"
   id="svg2"
   version="1.1"
   inkscape:version="0.46"
   sodipodi:docname="page05-map-right-spa.svg"
   inkscape:export-filename="/home/ianweller/fudcon-tempe-booklet/template-left.png"
   inkscape:export-xdpi="90"
   inkscape:export-ydpi="90"
   sodipodi:version="0.32"
   inkscape:output_extension="org.inkscape.output.svg.inkscape">
  <defs
     id="defs4">
    <inkscape:perspective
       sodipodi:type="inkscape:persp3d"
       inkscape:vp_x="0 : 506.25 : 1"
       inkscape:vp_y="0 : 1000 : 0"
       inkscape:vp_z="787.5 : 506.25 : 1"
       inkscape:persp3d-origin="393.75 : 337.5 : 1"
       id="perspective2835" />
  </defs>
  <sodipodi:namedview
     id="base"
     pagecolor="#ffffff"
     bordercolor="#666666"
     borderopacity="1.0"
     inkscape:pageopacity="0.0"
     inkscape:pageshadow="2"
     inkscape:zoom="1"
     inkscape:cx="324.82545"
     inkscape:cy="140.95805"
     inkscape:document-units="in"
     inkscape:current-layer="layer1"
     showgrid="false"
     units="in"
     inkscape:window-width="1022"
     inkscape:window-height="783"
     inkscape:window-x="0"
     inkscape:window-y="0"
     inkscape:window-maximized="0"
     showguides="false"
     inkscape:guide-bbox="true"
     inkscape:snap-bbox="true"
     inkscape:snap-page="false"
     inkscape:snap-nodes="false">
    <sodipodi:guide
       position="0,11.25"
       orientation="0,1"
       id="guide2985" />
    <sodipodi:guide
       position="776.25,0"
       orientation="1,0"
       id="guide2987" />
    <sodipodi:guide
       position="787.5,1001.25"
       orientation="0,1"
       id="guide2989" />
    <sodipodi:guide
       position="11.25,1012.5"
       orientation="1,0"
       id="guide2991" />
    <sodipodi:guide
       orientation="1,0"
       position="753.75,824"
       id="guide3872" />
    <sodipodi:guide
       orientation="1,0"
       position="33.75,762"
       id="guide3878" />
    <sodipodi:guide
       orientation="0,1"
       position="257,928.17"
       id="guide3884" />
    <sodipodi:guide
       orientation="0,1"
       position="297,33.75"
       id="guide3970" />
    <sodipodi:guide
       orientation="0,1"
       position="287,855"
       id="guide3972" />
    <sodipodi:guide
       orientation="0,1"
       position="35.753906,953.73"
       id="guide3017" />
    <sodipodi:guide
       orientation="0,1"
       position="311,990"
       id="guide3810" />
    <sodipodi:guide
       position="0,0"
       orientation="0,787.5"
       id="guide3812" />
    <sodipodi:guide
       position="787.5,0"
       orientation="-1012.5,0"
       id="guide3814" />
    <sodipodi:guide
       position="787.5,1012.5"
       orientation="0,-787.5"
       id="guide3816" />
    <sodipodi:guide
       position="0,1012.5"
       orientation="1012.5,0"
       id="guide3818" />
    <sodipodi:guide
       orientation="0,1"
       position="341,832.5"
       id="guide3820" />
    <sodipodi:guide
       orientation="1,0"
       position="393.75,377.59502"
       id="guide3107" />
    <sodipodi:guide
       orientation="1,0"
       position="371.25,391.73716"
       id="guide3109" />
    <sodipodi:guide
       orientation="1,0"
       position="416.25,312.5412"
       id="guide3111" />
  </sodipodi:namedview>
  <metadata
     id="metadata7">
    <rdf:RDF>
      <cc:Work
         rdf:about="">
        <dc:format>image/svg+xml</dc:format>
        <dc:type
           rdf:resource="http://purl.org/dc/dcmitype/StillImage" />
        <dc:title />
      </cc:Work>
    </rdf:RDF>
  </metadata>
  <g
     inkscape:groupmode="layer"
     id="layer2"
     inkscape:label="bounding"
     sodipodi:insensitive="true">
    <rect
       style="fill:#ffffff;fill-opacity:1;stroke:none"
       id="rect3010"
       width="787.5"
       height="1012.5"
       x="0"
       y="0" />
  </g>
  <g
     inkscape:label="Layer 1"
     inkscape:groupmode="layer"
     id="layer1"
     transform="translate(0, -39.862)">
    <rect
       style="fill:#db3279;fill-opacity:1;stroke:none"
       id="rect3876"
       width="787.5"
       height="125"
       x="8.629919e-15"
       y="72.362" />
    <rect
       style="fill:#3c6eb4;fill-opacity:1;stroke:none"
       id="rect2988"
       width="787.50006"
       height="58.77"
       x="0"
       y="39.862" />
    <path
       inkscape:connector-curvature="0"
       d="m 762.5156,74.862599 c 0,-6.90384 -5.59636,-12.5006 -12.49996,-12.5006 -6.90039,0 -12.49455,5.59215 -12.49955,12.49179 l -4.4e-4,-4.3e-4 0,9.67339 4.4e-4,4.3e-4 c 0.004,1.56658 1.2742,2.83482 2.84173,2.83482 0.004,0 0.009,-2.9e-4 0.0134,-2.9e-4 l 7.4e-4,2.9e-4 9.64842,0 0,0 c 6.90159,-0.003 12.49515,-5.59756 12.49515,-12.4994 l 7e-5,0 z"
       id="path3471"
       style="fill:#294172;fill-opacity:1" />
    <text
       xml:space="preserve"
       style="font-size:16px;font-style:normal;font-variant:normal;font-weight:bold;font-stretch:expanded;text-align:center;line-height:125%;letter-spacing:0px;word-spacing:0px;writing-mode:lr-tb;text-anchor:middle;fill:#ffffff;fill-opacity:1;stroke:none;font-family:Comfortaa;-inkscape-font-specification:Comfortaa Bold Expanded"
       x="750.14062"
       y="80.428406"
       id="text3860"
       sodipodi:linespacing="125%"><tspan
         sodipodi:role="line"
         id="tspan3862"
         x="750.14062"
         y="80.428406"
         style="text-align:center;text-anchor:middle">5</tspan></text>
    <text
       sodipodi:linespacing="125%"
       id="text3864"
       y="80.428406"
       x="33.75"
       style="font-size:16px;font-style:normal;font-variant:normal;font-weight:normal;font-stretch:normal;text-align:start;line-height:125%;letter-spacing:0px;word-spacing:0px;writing-mode:lr-tb;text-anchor:start;fill:#ffffff;fill-opacity:1;stroke:none;font-family:Comfortaa;-inkscape-font-specification:Comfortaa"
       xml:space="preserve"><tspan
         y="80.428406"
         x="33.75"
         id="tspan3866"
         sodipodi:role="line">Ciudad del Saber, Panamá, PA, PANAMA</tspan></text>
    <g
       transform="translate(-43.6353, 179.323)"
       id="g20142">
      <path
         sodipodi:type="arc"
         style="fill:#3c6eb4;fill-opacity:1;stroke:none"
         id="path20133"
         sodipodi:cx="262.5"
         sodipodi:cy="-316.25"
         sodipodi:rx="13.5"
         sodipodi:ry="13.75"
         d="m 276,-316.25 c 0,7.59392 -6.04416,13.75 -13.5,13.75 -7.45584,0 -13.5,-6.15608 -13.5,-13.75 0,-7.59392 6.04416,-13.75 13.5,-13.75 7.45584,0 13.5,6.15608 13.5,13.75 z"
         transform="matrix(0.695, 0, 0, 0.682364, 74.445, 21.277)" />
      <text
         sodipodi:linespacing="125%"
         id="text20135"
         y="-189.81633"
         x="256.53879"
         style="font-size:13.5px;font-style:normal;font-variant:normal;font-weight:bold;font-stretch:expanded;text-align:center;line-height:125%;letter-spacing:0px;word-spacing:0px;writing-mode:lr-tb;text-anchor:middle;fill:#ffffff;fill-opacity:1;stroke:none;font-family:Comfortaa;-inkscape-font-specification:Comfortaa Bold Expanded"
         xml:space="preserve"><tspan
           style="font-size:13.5px;font-style:normal;font-variant:normal;font-weight:bold;font-stretch:expanded;text-align:center;line-height:125%;writing-mode:lr-tb;text-anchor:middle;font-family:Comfortaa;-inkscape-font-specification:Comfortaa Bold Expanded"
           y="-189.81633"
           x="256.53879"
           id="tspan20137"
           sodipodi:role="line">#</tspan></text>
    </g>
    <g
       transform="translate(-43.6353, 179.323)"
       id="g20147">
      <path
         transform="matrix(0.695, 0, 0, 0.682364, 74.445, 21.277)"
         d="m 276,-316.25 c 0,7.59392 -6.04416,13.75 -13.5,13.75 -7.45584,0 -13.5,-6.15608 -13.5,-13.75 0,-7.59392 6.04416,-13.75 13.5,-13.75 7.45584,0 13.5,6.15608 13.5,13.75 z"
         sodipodi:ry="13.75"
         sodipodi:rx="13.5"
         sodipodi:cy="-316.25"
         sodipodi:cx="262.5"
         id="path20149"
         style="fill:#3c6eb4;fill-opacity:1;stroke:none"
         sodipodi:type="arc" />
      <text
         xml:space="preserve"
         style="font-size:13.5px;font-style:normal;font-variant:normal;font-weight:bold;font-stretch:expanded;text-align:center;line-height:125%;letter-spacing:0px;word-spacing:0px;writing-mode:lr-tb;text-anchor:middle;fill:#ffffff;fill-opacity:1;stroke:none;font-family:Comfortaa;-inkscape-font-specification:Comfortaa Bold Expanded"
         x="256.53879"
         y="-189.81633"
         id="text20151"
         sodipodi:linespacing="125%"><tspan
           sodipodi:role="line"
           id="tspan20153"
           x="256.53879"
           y="-189.81633"
           style="font-size:13.5px;font-style:normal;font-variant:normal;font-weight:bold;font-stretch:expanded;text-align:center;line-height:125%;writing-mode:lr-tb;text-anchor:middle;font-family:Comfortaa;-inkscape-font-specification:Comfortaa Bold Expanded">#</tspan></text>
    </g>
    <g
       transform="translate(-62.7272, 184.852)"
       id="g19987">
      <path
         transform="matrix(0.926667, 0, 0, 0.909818, 16.76, 45.082)"
         d="m 276,-316.25 c 0,7.59392 -6.04416,13.75 -13.5,13.75 -7.45584,0 -13.5,-6.15608 -13.5,-13.75 0,-7.59392 6.04416,-13.75 13.5,-13.75 7.45584,0 13.5,6.15608 13.5,13.75 z"
         sodipodi:ry="13.75"
         sodipodi:rx="13.5"
         sodipodi:cy="-316.25"
         sodipodi:cx="262.5"
         id="path19985"
         style="fill:#db3279;fill-opacity:1;stroke:none"
         sodipodi:type="arc" />
      <text
         xml:space="preserve"
         style="font-size:18px;font-style:normal;font-variant:normal;font-weight:bold;font-stretch:expanded;text-align:center;line-height:125%;letter-spacing:0px;word-spacing:0px;writing-mode:lr-tb;text-anchor:middle;fill:#ffffff;fill-opacity:1;stroke:none;font-family:Comfortaa;-inkscape-font-specification:Comfortaa Bold Expanded"
         x="259.55173"
         y="-236.37578"
         id="text19978"
         sodipodi:linespacing="125%"><tspan
           sodipodi:role="line"
           id="tspan19980"
           x="259.55173"
           y="-236.37578"
           style="font-size:18px;font-style:normal;font-variant:normal;font-weight:bold;font-stretch:expanded;text-align:center;line-height:125%;writing-mode:lr-tb;text-anchor:middle;font-family:Comfortaa;-inkscape-font-specification:Comfortaa Bold Expanded">#</tspan></text>
    </g>
    <g
       id="g3180"
       transform="translate(0, -8.03345e-05)">
      <text
         sodipodi:linespacing="125%"
         id="text3862"
         y="239.48116"
         x="33.75"
         style="font-size:28px;font-style:normal;font-variant:normal;font-weight:normal;font-stretch:normal;text-align:start;line-height:125%;letter-spacing:0px;word-spacing:0px;writing-mode:lr-tb;text-anchor:start;fill:#000000;fill-opacity:1;stroke:none;font-family:Comfortaa;-inkscape-font-specification:Comfortaa"
         xml:space="preserve"><tspan
           y="239.48116"
           x="33.75"
           id="tspan3864"
           sodipodi:role="line">Valley METRO Light Rail</tspan></text>
      <g
         id="g3170">
        <g
           id="g55655"
           transform="translate(0, 1.12182e-05)">
          <text
             sodipodi:linespacing="125%"
             id="text3868"
             y="273.78668"
             x="65.234375"
             style="font-size:16px;font-style:normal;font-variant:normal;font-weight:500;font-stretch:normal;text-align:start;line-height:125%;letter-spacing:0px;word-spacing:0px;writing-mode:lr-tb;text-anchor:start;fill:#000000;fill-opacity:1;stroke:none;font-family:Cantarell;-inkscape-font-specification:Cantarell Medium"
             xml:space="preserve"><tspan
               id="tspan48518"
               y="273.78668"
               x="65.234375"
               sodipodi:role="line"
               style="font-weight:bold;-inkscape-font-specification:Cantarell Bold">Mill Ave and 3rd St</tspan><tspan
               id="tspan48547"
               y="293.90051"
               x="65.234375"
               sodipodi:role="line"
               style="font-weight:500;-inkscape-font-specification:Cantarell Medium">0.2 mi to Courtyard, 0.3 mi to Brickyard</tspan></text>
          <g
             transform="translate(-13.137, -18.5052)"
             id="g37349">
            <path
               sodipodi:type="arc"
               style="fill:#db3279;fill-opacity:1;stroke:none"
               id="path19985-5"
               sodipodi:cx="262.5"
               sodipodi:cy="-316.25"
               sodipodi:rx="13.5"
               sodipodi:ry="13.75"
               d="m 276,-316.25 c 0,7.59392 -6.04416,13.75 -13.5,13.75 -7.45584,0 -13.5,-6.15608 -13.5,-13.75 0,-7.59392 6.04416,-13.75 13.5,-13.75 7.45584,0 13.5,6.15608 13.5,13.75 z"
               transform="matrix(0.926667, 0, 0, 0.909818, -183.853, 574.295)" />
            <text
               sodipodi:linespacing="125%"
               id="text19978-1"
               y="292.84073"
               x="59.467285"
               style="font-size:18px;font-style:normal;font-variant:normal;font-weight:bold;font-stretch:expanded;text-align:center;line-height:125%;letter-spacing:0px;word-spacing:0px;writing-mode:lr-tb;text-anchor:middle;fill:#ffffff;fill-opacity:1;stroke:none;font-family:Comfortaa;-inkscape-font-specification:Comfortaa Bold Expanded"
               xml:space="preserve"><tspan
                 style="font-size:18px;font-style:normal;font-variant:normal;font-weight:bold;font-stretch:expanded;text-align:center;line-height:125%;writing-mode:lr-tb;text-anchor:middle;font-family:Comfortaa;-inkscape-font-specification:Comfortaa Bold Expanded"
                 y="292.84073"
                 x="59.467285"
                 id="tspan19980-6"
                 sodipodi:role="line">A</tspan></text>
          </g>
        </g>
      </g>
      <g
         transform="translate(382.5, -54.5425)"
         id="g3161">
        <text
           sodipodi:linespacing="125%"
           id="text42976"
           y="328.32916"
           x="65.234375"
           style="font-size:16px;font-style:normal;font-variant:normal;font-weight:500;font-stretch:normal;text-align:start;line-height:125%;letter-spacing:0px;word-spacing:0px;writing-mode:lr-tb;text-anchor:start;fill:#000000;fill-opacity:1;stroke:none;font-family:Cantarell;-inkscape-font-specification:Cantarell Medium"
           xml:space="preserve"><tspan
             y="328.32916"
             x="65.234375"
             sodipodi:role="line"
             style="font-weight:bold;-inkscape-font-specification:Cantarell Bold"
             id="tspan42994">University Dr and Rural Rd</tspan><tspan
             y="348.44299"
             x="65.234375"
             sodipodi:role="line"
             style="font-weight:500;-inkscape-font-specification:Cantarell Medium"
             id="tspan42998">0.5 mi to Sheraton, 0.6 mi to Mem. Union</tspan></text>
        <g
           id="g43003"
           transform="translate(-382.5, 54.5425)">
          <path
             sodipodi:type="arc"
             style="fill:#db3279;fill-opacity:1;stroke:none"
             id="path42982"
             sodipodi:cx="262.5"
             sodipodi:cy="-316.25"
             sodipodi:rx="13.5"
             sodipodi:ry="13.75"
             d="m 276,-316.25 c 0,7.59392 -6.04416,13.75 -13.5,13.75 -7.45584,0 -13.5,-6.15608 -13.5,-13.75 0,-7.59392 6.04416,-13.75 13.5,-13.75 7.45584,0 13.5,6.15608 13.5,13.75 z"
             transform="matrix(0.926667, 0, 0, 0.909818, 185.51, 555.79)" />
          <text
             sodipodi:linespacing="125%"
             id="text42984"
             y="274.37506"
             x="428.98413"
             style="font-size:18px;font-style:normal;font-variant:normal;font-weight:bold;font-stretch:expanded;text-align:center;line-height:125%;letter-spacing:0px;word-spacing:0px;writing-mode:lr-tb;text-anchor:middle;fill:#ffffff;fill-opacity:1;stroke:none;font-family:Comfortaa;-inkscape-font-specification:Comfortaa Bold Expanded"
             xml:space="preserve"><tspan
               style="font-size:18px;font-style:normal;font-variant:normal;font-weight:bold;font-stretch:expanded;text-align:center;line-height:125%;writing-mode:lr-tb;text-anchor:middle;font-family:Comfortaa;-inkscape-font-specification:Comfortaa Bold Expanded"
               y="274.37506"
               x="428.98413"
               id="tspan42986"
               sodipodi:role="line">B</tspan></text>
        </g>
      </g>
      <text
         xml:space="preserve"
         style="font-size:16px;font-style:normal;font-variant:normal;font-weight:500;font-stretch:normal;text-align:start;line-height:125%;letter-spacing:0px;word-spacing:0px;writing-mode:lr-tb;text-anchor:start;fill:#000000;fill-opacity:1;stroke:none;font-family:Cantarell;-inkscape-font-specification:Cantarell Medium"
         x="32.734375"
         y="332.35611"
         id="text48502"
         sodipodi:linespacing="125%"><tspan
           id="tspan55607"
           style="font-weight:500;-inkscape-font-specification:Cantarell Medium"
           sodipodi:role="line"
           x="32.734375"
           y="332.35611">A one-ride fare costs $1.75 USD and may be purchased at any light rail station with cash or a</tspan><tspan
           id="tspan55637"
           style="font-weight:500;-inkscape-font-specification:Cantarell Medium"
           sodipodi:role="line"
           x="32.734375"
           y="352.35611">credit card. Take the westbound train to 44th St and Washington St for a free airport shuttle.<tspan
   id="tspan48551"
   style="font-size:16px;font-style:normal;font-variant:normal;font-weight:normal;font-stretch:normal;text-align:start;line-height:125%;writing-mode:lr-tb;text-anchor:start;fill:#3c6eb4;fill-opacity:1;font-family:Liberation Mono;-inkscape-font-specification:Liberation Mono" /></tspan><tspan
           id="tspan3211"
           style="font-weight:500;-inkscape-font-specification:Cantarell Medium"
           sodipodi:role="line"
           x="32.734375"
           y="372.3317"><tspan
             id="tspan3213"
             style="font-size:16px;font-style:normal;font-variant:normal;font-weight:normal;font-stretch:normal;text-align:start;line-height:125%;writing-mode:lr-tb;text-anchor:start;fill:#3c6eb4;fill-opacity:1;font-family:Liberation Mono;-inkscape-font-specification:Liberation Mono">www.valleymetro.org</tspan></tspan></text>
    </g>
    <g
       id="g21993"
       transform="translate(0, 8.828)">
      <text
         xml:space="preserve"
         style="font-size:28px;font-style:normal;font-variant:normal;font-weight:normal;font-stretch:normal;text-align:start;line-height:125%;letter-spacing:0px;word-spacing:0px;writing-mode:lr-tb;text-anchor:start;fill:#000000;fill-opacity:1;stroke:none;font-family:Comfortaa;-inkscape-font-specification:Comfortaa"
         x="33.75"
         y="406.63342"
         id="text49140"
         sodipodi:linespacing="125%"><tspan
           sodipodi:role="line"
           id="tspan49142"
           x="33.75"
           y="406.63342">Conference hotels</tspan></text>
      <g
         transform="translate(0, -160.419)"
         id="g55778">
        <text
           sodipodi:linespacing="125%"
           id="text49144"
           y="601.3584"
           x="65.234375"
           style="font-size:16px;font-style:normal;font-variant:normal;font-weight:500;font-stretch:normal;text-align:start;line-height:125%;letter-spacing:0px;word-spacing:0px;writing-mode:lr-tb;text-anchor:start;fill:#000000;fill-opacity:1;stroke:none;font-family:Cantarell;-inkscape-font-specification:Cantarell Medium"
           xml:space="preserve"><tspan
             id="tspan49148"
             y="601.3584"
             x="65.234375"
             sodipodi:role="line"
             style="font-weight:bold;-inkscape-font-specification:Cantarell Bold">Courtyard Tempe Downtown</tspan><tspan
             y="621.47223"
             x="65.234375"
             sodipodi:role="line"
             style="font-size:16px;font-style:normal;font-variant:normal;font-weight:500;font-stretch:normal;text-align:start;line-height:125%;writing-mode:lr-tb;text-anchor:start;fill:#000000;fill-opacity:1;font-family:Cantarell;-inkscape-font-specification:Cantarell Medium"
             id="tspan49207">601 S Ash Ave</tspan><tspan
             y="641.47223"
             x="65.234375"
             sodipodi:role="line"
             style="font-size:16px;font-style:normal;font-variant:normal;font-weight:normal;font-stretch:normal;text-align:start;line-height:125%;writing-mode:lr-tb;text-anchor:start;fill:#3c6eb4;fill-opacity:1;font-family:Liberation Mono;-inkscape-font-specification:Liberation Mono"
             id="tspan49209"><tspan
   style="font-size:16px;font-style:normal;font-variant:normal;font-weight:500;font-stretch:normal;text-align:start;line-height:125%;writing-mode:lr-tb;text-anchor:start;fill:#000000;fill-opacity:1;font-family:Cantarell;-inkscape-font-specification:Cantarell Medium"
   id="tspan49342">(480) 966-2800 — </tspan>ur1.ca/2qlrd</tspan></text>
        <g
           transform="translate(-13.137, 309.066)"
           id="g49150">
          <path
             sodipodi:type="arc"
             style="fill:#db3279;fill-opacity:1;stroke:none"
             id="path49152"
             sodipodi:cx="262.5"
             sodipodi:cy="-316.25"
             sodipodi:rx="13.5"
             sodipodi:ry="13.75"
             d="m 276,-316.25 c 0,7.59392 -6.04416,13.75 -13.5,13.75 -7.45584,0 -13.5,-6.15608 -13.5,-13.75 0,-7.59392 6.04416,-13.75 13.5,-13.75 7.45584,0 13.5,6.15608 13.5,13.75 z"
             transform="matrix(0.926667, 0, 0, 0.909818, -183.853, 574.295)" />
          <text
             sodipodi:linespacing="125%"
             id="text49154"
             y="292.84073"
             x="59.467285"
             style="font-size:18px;font-style:normal;font-variant:normal;font-weight:bold;font-stretch:expanded;text-align:center;line-height:125%;letter-spacing:0px;word-spacing:0px;writing-mode:lr-tb;text-anchor:middle;fill:#ffffff;fill-opacity:1;stroke:none;font-family:Comfortaa;-inkscape-font-specification:Comfortaa Bold Expanded"
             xml:space="preserve"><tspan
               style="font-size:18px;font-style:normal;font-variant:normal;font-weight:bold;font-stretch:expanded;text-align:center;line-height:125%;writing-mode:lr-tb;text-anchor:middle;font-family:Comfortaa;-inkscape-font-specification:Comfortaa Bold Expanded"
               y="292.84073"
               x="59.467285"
               id="tspan49156"
               sodipodi:role="line">C</tspan></text>
        </g>
      </g>
      <g
         transform="translate(382.5, -234.264)"
         id="g55814">
        <text
           xml:space="preserve"
           style="font-size:16px;font-style:normal;font-variant:normal;font-weight:500;font-stretch:normal;text-align:start;line-height:125%;letter-spacing:0px;word-spacing:0px;writing-mode:lr-tb;text-anchor:start;fill:#000000;fill-opacity:1;stroke:none;font-family:Cantarell;-inkscape-font-specification:Cantarell Medium"
           x="65.234375"
           y="675.20251"
           id="text49158"
           sodipodi:linespacing="125%"><tspan
             id="tspan49162"
             style="font-weight:bold;-inkscape-font-specification:Cantarell Bold"
             sodipodi:role="line"
             x="65.234375"
             y="675.20251">Four Points Sheraton Tempe</tspan><tspan
             style="font-weight:500;-inkscape-font-specification:Cantarell Medium"
             sodipodi:role="line"
             x="65.234375"
             y="695.31635"
             id="tspan49213">1333 Rural Rd</tspan><tspan
             style="font-size:16px;font-style:normal;font-variant:normal;font-weight:normal;font-stretch:normal;text-align:start;line-height:125%;writing-mode:lr-tb;text-anchor:start;fill:#3c6eb4;fill-opacity:1;font-family:Liberation Mono;-inkscape-font-specification:Liberation Mono"
             sodipodi:role="line"
             x="65.234375"
             y="715.31635"
             id="tspan49215"><tspan
   id="tspan49356"
   style="font-weight:500;fill:#000000;font-family:Cantarell;-inkscape-font-specification:Cantarell Medium">(480) 968-3451 — </tspan>ur1.ca/2qls0</tspan></text>
        <g
           id="g49164"
           transform="translate(-382.5, 401.416)">
          <path
             transform="matrix(0.926667, 0, 0, 0.909818, 185.51, 555.79)"
             d="m 276,-316.25 c 0,7.59392 -6.04416,13.75 -13.5,13.75 -7.45584,0 -13.5,-6.15608 -13.5,-13.75 0,-7.59392 6.04416,-13.75 13.5,-13.75 7.45584,0 13.5,6.15608 13.5,13.75 z"
             sodipodi:ry="13.75"
             sodipodi:rx="13.5"
             sodipodi:cy="-316.25"
             sodipodi:cx="262.5"
             id="path49166"
             style="fill:#db3279;fill-opacity:1;stroke:none"
             sodipodi:type="arc" />
          <text
             xml:space="preserve"
             style="font-size:18px;font-style:normal;font-variant:normal;font-weight:bold;font-stretch:expanded;text-align:center;line-height:125%;letter-spacing:0px;word-spacing:0px;writing-mode:lr-tb;text-anchor:middle;fill:#ffffff;fill-opacity:1;stroke:none;font-family:Comfortaa;-inkscape-font-specification:Comfortaa Bold Expanded"
             x="428.98413"
             y="274.37506"
             id="text49168"
             sodipodi:linespacing="125%"><tspan
               sodipodi:role="line"
               id="tspan49170"
               x="428.98413"
               y="274.37506"
               style="font-size:18px;font-style:normal;font-variant:normal;font-weight:bold;font-stretch:expanded;text-align:center;line-height:125%;writing-mode:lr-tb;text-anchor:middle;font-family:Comfortaa;-inkscape-font-specification:Comfortaa Bold Expanded">D</tspan></text>
        </g>
      </g>
    </g>
    <text
       xml:space="preserve"
       style="font-size:14px;font-style:normal;font-variant:normal;font-weight:500;font-stretch:normal;text-align:start;line-height:125%;letter-spacing:0px;word-spacing:0px;writing-mode:lr-tb;text-anchor:start;fill:#000000;fill-opacity:1;stroke:none;font-family:Cantarell;-inkscape-font-specification:Cantarell Medium"
       x="31.767578"
       y="977.32709"
       id="text55859"
       sodipodi:linespacing="125%"><tspan
         sodipodi:role="line"
         id="tspan55861"
         x="31.767578"
         y="977.32709">Map data © OpenStreetMap contributors (<tspan
   style="font-size:14px;font-style:normal;font-variant:normal;font-weight:normal;font-stretch:normal;text-align:start;line-height:125%;writing-mode:lr-tb;text-anchor:start;fill:#3c6eb4;fill-opacity:1;font-family:Liberation Mono;-inkscape-font-specification:Liberation Mono"
   id="tspan55865">www.openstreetmap.org</tspan>).</tspan><tspan
         sodipodi:role="line"
         x="31.767578"
         y="996.12042"
         id="tspan55890">Licensed under the Creative Commons Attribution-ShareAlike 2.0 license (<tspan
   style="font-size:14px;font-style:normal;font-variant:normal;font-weight:normal;font-stretch:normal;text-align:start;line-height:125%;writing-mode:lr-tb;text-anchor:start;fill:#3c6eb4;fill-opacity:1;font-family:Liberation Mono;-inkscape-font-specification:Liberation Mono"
   id="tspan55892">ur1.ca/akxm</tspan>).</tspan><tspan
         sodipodi:role="line"
         x="31.767578"
         y="1014.9137"
         id="tspan21869">Parking information based on ASU website and subject to change. Refer to posted signs and regulations.</tspan></text>
    <g
       id="g3266"
       transform="translate(0, -197.892)">
      <text
         sodipodi:linespacing="125%"
         id="text12178"
         y="730.9024"
         x="33.75"
         style="font-size:28px;font-style:normal;font-variant:normal;font-weight:normal;font-stretch:normal;text-align:start;line-height:125%;letter-spacing:0px;word-spacing:0px;writing-mode:lr-tb;text-anchor:start;fill:#000000;fill-opacity:1;stroke:none;font-family:Comfortaa;-inkscape-font-specification:Comfortaa"
         xml:space="preserve"><tspan
           y="730.9024"
           x="33.75"
           id="tspan12180"
           sodipodi:role="line">On the ASU campus</tspan></text>
      <g
         transform="translate(-382.5, 491.394)"
         id="g3132">
        <text
           xml:space="preserve"
           style="font-size:16px;font-style:normal;font-variant:normal;font-weight:500;font-stretch:normal;text-align:start;line-height:125%;letter-spacing:0px;word-spacing:0px;writing-mode:lr-tb;text-anchor:start;fill:#000000;fill-opacity:1;stroke:none;font-family:Cantarell;-inkscape-font-specification:Cantarell Medium"
           x="447.73438"
           y="273.81403"
           id="text12184"
           sodipodi:linespacing="125%"><tspan
             style="font-weight:bold;-inkscape-font-specification:Cantarell Bold"
             sodipodi:role="line"
             x="447.73438"
             y="273.81403"
             id="tspan12186">Art Building (ART)</tspan><tspan
             id="tspan12188"
             style="font-size:16px;font-style:normal;font-variant:normal;font-weight:500;font-stretch:normal;text-align:start;line-height:125%;writing-mode:lr-tb;text-anchor:start;fill:#000000;fill-opacity:1;font-family:Cantarell;-inkscape-font-specification:Cantarell Medium"
             sodipodi:role="line"
             x="447.73438"
             y="293.92786">900 S Forest Mall — <tspan
   style="font-size:16px;font-style:normal;font-variant:normal;font-weight:normal;font-stretch:normal;text-align:start;line-height:125%;writing-mode:lr-tb;text-anchor:start;fill:#3c6eb4;fill-opacity:1;font-family:Liberation Mono;-inkscape-font-specification:Liberation Mono"
   id="tspan13184">ur1.ca/2r5yc</tspan></tspan><tspan
             id="tspan12190"
             style="font-size:16px;font-style:oblique;font-variant:normal;font-weight:500;font-stretch:normal;text-align:start;line-height:125%;writing-mode:lr-tb;text-anchor:start;fill:#000000;fill-opacity:1;font-family:Cantarell;-inkscape-font-specification:Cantarell Medium Oblique"
             sodipodi:role="line"
             x="447.73438"
             y="315.40594">Session pitches and voting, Saturday</tspan></text>
        <g
           id="g12395">
          <path
             transform="matrix(0.926667, 0, 0, 0.909818, 185.51, 555.817)"
             d="m 276,-316.25 c 0,7.59392 -6.04416,13.75 -13.5,13.75 -7.45584,0 -13.5,-6.15608 -13.5,-13.75 0,-7.59392 6.04416,-13.75 13.5,-13.75 7.45584,0 13.5,6.15608 13.5,13.75 z"
             sodipodi:ry="13.75"
             sodipodi:rx="13.5"
             sodipodi:cy="-316.25"
             sodipodi:cx="262.5"
             id="path12196"
             style="fill:#db3279;fill-opacity:1;stroke:none"
             sodipodi:type="arc" />
          <text
             xml:space="preserve"
             style="font-size:18px;font-style:normal;font-variant:normal;font-weight:bold;font-stretch:expanded;text-align:center;line-height:125%;letter-spacing:0px;word-spacing:0px;writing-mode:lr-tb;text-anchor:middle;fill:#ffffff;fill-opacity:1;stroke:none;font-family:Comfortaa;-inkscape-font-specification:Comfortaa Bold Expanded"
             x="428.95776"
             y="274.45511"
             id="text12198"
             sodipodi:linespacing="125%"><tspan
               sodipodi:role="line"
               id="tspan12200"
               x="428.95776"
               y="274.45511"
               style="font-size:18px;font-style:normal;font-variant:normal;font-weight:bold;font-stretch:expanded;text-align:center;line-height:125%;writing-mode:lr-tb;text-anchor:middle;font-family:Comfortaa;-inkscape-font-specification:Comfortaa Bold Expanded">E</tspan></text>
        </g>
      </g>
      <g
         transform="translate(-8.3e-07, 417.55)"
         id="g3121">
        <text
           sodipodi:linespacing="125%"
           id="text12204"
           y="347.65814"
           x="447.73438"
           style="font-size:16px;font-style:normal;font-variant:normal;font-weight:500;font-stretch:normal;text-align:start;line-height:125%;letter-spacing:0px;word-spacing:0px;writing-mode:lr-tb;text-anchor:start;fill:#000000;fill-opacity:1;stroke:none;font-family:Cantarell;-inkscape-font-specification:Cantarell Medium"
           xml:space="preserve"><tspan
             y="347.65814"
             x="447.73438"
             sodipodi:role="line"
             style="font-weight:bold;letter-spacing:-0.25px;-inkscape-font-specification:Cantarell Bold"
             id="tspan12206">Artisan Court at the Brickyard (BYAC)</tspan><tspan
             id="tspan12210"
             y="367.77197"
             x="447.73438"
             sodipodi:role="line"
             style="font-size:16px;font-style:normal;font-variant:normal;font-weight:500;font-stretch:normal;text-align:start;line-height:125%;writing-mode:lr-tb;text-anchor:start;fill:#000000;fill-opacity:1;font-family:Cantarell;-inkscape-font-specification:Cantarell Medium">30 E 7th St — <tspan
   style="font-size:16px;font-style:normal;font-variant:normal;font-weight:normal;font-stretch:normal;text-align:start;line-height:125%;writing-mode:lr-tb;text-anchor:start;fill:#3c6eb4;fill-opacity:1;font-family:Liberation Mono;-inkscape-font-specification:Liberation Mono"
   id="tspan13190">ur1.ca/2r5zu</tspan></tspan><tspan
             y="389.25006"
             x="447.73438"
             sodipodi:role="line"
             style="font-size:16px;font-style:oblique;font-variant:normal;font-weight:500;font-stretch:normal;text-align:start;line-height:125%;writing-mode:lr-tb;text-anchor:start;fill:#000000;fill-opacity:1;font-family:Cantarell;-inkscape-font-specification:Cantarell Medium Oblique"
             id="tspan13188">Sessions and hackfests, Sat. and Sun.</tspan></text>
        <g
           id="g12403">
          <path
             sodipodi:type="arc"
             style="fill:#db3279;fill-opacity:1;stroke:none"
             id="path12216"
             sodipodi:cx="262.5"
             sodipodi:cy="-316.25"
             sodipodi:rx="13.5"
             sodipodi:ry="13.75"
             d="m 276,-316.25 c 0,7.59392 -6.04416,13.75 -13.5,13.75 -7.45584,0 -13.5,-6.15608 -13.5,-13.75 0,-7.59392 6.04416,-13.75 13.5,-13.75 7.45584,0 13.5,6.15608 13.5,13.75 z"
             transform="matrix(0.926667, 0, 0, 0.909818, 185.51, 629.662)" />
          <text
             sodipodi:linespacing="125%"
             id="text12218"
             y="348.29919"
             x="428.64575"
             style="font-size:18px;font-style:normal;font-variant:normal;font-weight:bold;font-stretch:expanded;text-align:center;line-height:125%;letter-spacing:0px;word-spacing:0px;writing-mode:lr-tb;text-anchor:middle;fill:#ffffff;fill-opacity:1;stroke:none;font-family:Comfortaa;-inkscape-font-specification:Comfortaa Bold Expanded"
             xml:space="preserve"><tspan
               style="font-size:18px;font-style:normal;font-variant:normal;font-weight:bold;font-stretch:expanded;text-align:center;line-height:125%;writing-mode:lr-tb;text-anchor:middle;font-family:Comfortaa;-inkscape-font-specification:Comfortaa Bold Expanded"
               y="348.29919"
               x="428.64575"
               id="tspan12220"
               sodipodi:role="line">F</tspan></text>
        </g>
      </g>
      <g
         transform="translate(-382.5, 417.539)"
         id="g3110">
        <text
           xml:space="preserve"
           style="font-size:16px;font-style:normal;font-variant:normal;font-weight:500;font-stretch:normal;text-align:start;line-height:125%;letter-spacing:0px;word-spacing:0px;writing-mode:lr-tb;text-anchor:start;fill:#000000;fill-opacity:1;stroke:none;font-family:Cantarell;-inkscape-font-specification:Cantarell Medium"
           x="447.73438"
           y="421.50226"
           id="text12278"
           sodipodi:linespacing="125%"><tspan
             id="tspan12280"
             style="font-weight:bold;-inkscape-font-specification:Cantarell Bold"
             sodipodi:role="line"
             x="447.73438"
             y="421.50226">Memorial Union (MU)</tspan><tspan
             style="font-size:16px;font-style:normal;font-variant:normal;font-weight:500;font-stretch:normal;text-align:start;line-height:125%;writing-mode:lr-tb;text-anchor:start;fill:#000000;fill-opacity:1;font-family:Cantarell;-inkscape-font-specification:Cantarell Medium"
             sodipodi:role="line"
             x="447.73438"
             y="441.61609"
             id="tspan12284">301 E Orange Mall — <tspan
   style="font-size:16px;font-style:normal;font-variant:normal;font-weight:normal;font-stretch:normal;text-align:start;line-height:125%;writing-mode:lr-tb;text-anchor:start;fill:#3c6eb4;font-family:Liberation Mono;-inkscape-font-specification:Liberation Mono"
   id="tspan13196">ur1.ca/2r605</tspan></tspan><tspan
             style="font-size:16px;font-style:oblique;font-variant:normal;font-weight:500;font-stretch:normal;text-align:start;line-height:125%;writing-mode:lr-tb;text-anchor:start;fill:#000000;fill-opacity:1;font-family:Cantarell;-inkscape-font-specification:Cantarell Medium Oblique"
             sodipodi:role="line"
             x="447.73438"
             y="463.09418"
             id="tspan13194">FUDPub, Saturday; hackfests, Monday</tspan></text>
        <g
           id="g12411">
          <path
             transform="matrix(0.926667, 0, 0, 0.909818, 185.51, 703.506)"
             d="m 276,-316.25 c 0,7.59392 -6.04416,13.75 -13.5,13.75 -7.45584,0 -13.5,-6.15608 -13.5,-13.75 0,-7.59392 6.04416,-13.75 13.5,-13.75 7.45584,0 13.5,6.15608 13.5,13.75 z"
             sodipodi:ry="13.75"
             sodipodi:rx="13.5"
             sodipodi:cy="-316.25"
             sodipodi:cx="262.5"
             id="path12290"
             style="fill:#db3279;fill-opacity:1;stroke:none"
             sodipodi:type="arc" />
          <text
             xml:space="preserve"
             style="font-size:18px;font-style:normal;font-variant:normal;font-weight:bold;font-stretch:expanded;text-align:center;line-height:125%;letter-spacing:0px;word-spacing:0px;writing-mode:lr-tb;text-anchor:middle;fill:#ffffff;fill-opacity:1;stroke:none;font-family:Comfortaa;-inkscape-font-specification:Comfortaa Bold Expanded"
             x="428.9314"
             y="422.08618"
             id="text12292"
             sodipodi:linespacing="125%"><tspan
               sodipodi:role="line"
               id="tspan12294"
               x="428.9314"
               y="422.08618"
               style="font-size:18px;font-style:normal;font-variant:normal;font-weight:bold;font-stretch:expanded;text-align:center;line-height:125%;writing-mode:lr-tb;text-anchor:middle;font-family:Comfortaa;-inkscape-font-specification:Comfortaa Bold Expanded">G</tspan></text>
        </g>
      </g>
    </g>
    <g
       id="g21919"
       transform="translate(0, -4.07999)">
      <text
         xml:space="preserve"
         style="font-size:28px;font-style:normal;font-variant:normal;font-weight:normal;font-stretch:normal;text-align:start;line-height:125%;letter-spacing:0px;word-spacing:0px;writing-mode:lr-tb;text-anchor:start;fill:#000000;fill-opacity:1;stroke:none;font-family:Comfortaa;-inkscape-font-specification:Comfortaa"
         x="33.75"
         y="730.79346"
         id="text3302"
         sodipodi:linespacing="125%"><tspan
           sodipodi:role="line"
           id="tspan3304"
           x="33.75"
           y="730.79346">Parking near the Memorial Union</tspan></text>
      <g
         transform="translate(0, -25.9912)"
         id="g21273">
        <g
           transform="translate(-351.542, -82.2793)"
           style="display:inline"
           id="g20185">
          <path
             transform="matrix(0.695, 0, 0, 0.682364, 218.492, 1083.44)"
             d="m 276,-316.25 c 0,7.59392 -6.04416,13.75 -13.5,13.75 -7.45584,0 -13.5,-6.15608 -13.5,-13.75 0,-7.59392 6.04416,-13.75 13.5,-13.75 7.45584,0 13.5,6.15608 13.5,13.75 z"
             sodipodi:ry="13.75"
             sodipodi:rx="13.5"
             sodipodi:cy="-316.25"
             sodipodi:cx="262.5"
             id="path20149-3"
             style="fill:#3c6eb4;fill-opacity:1;stroke:none"
             sodipodi:type="arc" />
          <text
             xml:space="preserve"
             style="font-size:13.5px;font-style:normal;font-variant:normal;font-weight:bold;font-stretch:expanded;text-align:center;line-height:125%;letter-spacing:0px;word-spacing:0px;writing-mode:lr-tb;text-anchor:middle;fill:#ffffff;fill-opacity:1;stroke:none;font-family:Comfortaa;-inkscape-font-specification:Comfortaa Bold Expanded"
             x="401.08774"
             y="872.38239"
             id="text20151-7"
             sodipodi:linespacing="125%"><tspan
               sodipodi:role="line"
               id="tspan20153-1"
               x="401.08774"
               y="872.38239"
               style="font-size:13.5px;font-style:normal;font-variant:normal;font-weight:bold;font-stretch:expanded;text-align:center;line-height:125%;writing-mode:lr-tb;text-anchor:middle;font-family:Comfortaa;-inkscape-font-specification:Comfortaa Bold Expanded">AP</tspan></text>
        </g>
        <text
           sodipodi:linespacing="125%"
           id="text3308"
           y="791.09021"
           x="65.234375"
           style="font-size:16px;font-style:normal;font-variant:normal;font-weight:500;font-stretch:normal;text-align:start;line-height:125%;letter-spacing:0px;word-spacing:0px;writing-mode:lr-tb;text-anchor:start;fill:#000000;fill-opacity:1;stroke:none;font-family:Cantarell;-inkscape-font-specification:Cantarell Medium"
           xml:space="preserve"><tspan
             y="791.09021"
             x="65.234375"
             sodipodi:role="line"
             style="font-size:16px;font-style:normal;font-variant:normal;font-weight:bold;font-stretch:normal;text-align:start;line-height:125%;writing-mode:lr-tb;text-anchor:start;fill:#000000;fill-opacity:1;font-family:Cantarell;-inkscape-font-specification:Cantarell Bold"
             id="tspan3312">Apache Blvd Parking Structure</tspan><tspan
             y="811.20404"
             x="65.234375"
             sodipodi:role="line"
             style="font-size:16px;font-style:normal;font-variant:normal;font-weight:500;font-stretch:normal;text-align:start;line-height:125%;writing-mode:lr-tb;text-anchor:start;fill:#000000;fill-opacity:1;font-family:Cantarell;-inkscape-font-specification:Cantarell Medium"
             id="tspan3316">Pay M–F, 6a–10:30p. $2/hr, max fee $8</tspan><tspan
             y="831.20404"
             x="65.234375"
             sodipodi:role="line"
             style="font-size:16px;font-style:normal;font-variant:normal;font-weight:500;font-stretch:normal;text-align:start;line-height:125%;letter-spacing:-0.40000001px;writing-mode:lr-tb;text-anchor:start;fill:#000000;fill-opacity:1;font-family:Cantarell;-inkscape-font-specification:Cantarell Medium"
             id="tspan21252">Cash, credit accepted. No overnight parking</tspan></text>
      </g>
      <g
         transform="translate(0, -29.1229)"
         id="g21330">
        <g
           id="g21325">
          <path
             sodipodi:type="arc"
             style="fill:#3c6eb4;fill-opacity:1;stroke:none"
             id="path21298"
             sodipodi:cx="262.5"
             sodipodi:cy="-316.25"
             sodipodi:rx="13.5"
             sodipodi:ry="13.75"
             d="m 276,-316.25 c 0,7.59392 -6.04416,13.75 -13.5,13.75 -7.45584,0 -13.5,-6.15608 -13.5,-13.75 0,-7.59392 6.04416,-13.75 13.5,-13.75 7.45584,0 13.5,6.15608 13.5,13.75 z"
             transform="matrix(0.695, 0, 0, 0.682364, -133.05, 1075)" />
          <text
             sodipodi:linespacing="125%"
             id="text21300"
             y="863.93408"
             x="49.265553"
             style="font-size:13.5px;font-style:normal;font-variant:normal;font-weight:bold;font-stretch:expanded;text-align:center;line-height:125%;letter-spacing:0px;word-spacing:0px;writing-mode:lr-tb;text-anchor:middle;fill:#ffffff;fill-opacity:1;stroke:none;font-family:Comfortaa;-inkscape-font-specification:Comfortaa Bold Expanded"
             xml:space="preserve"><tspan
               style="font-size:13.5px;font-style:normal;font-variant:normal;font-weight:bold;font-stretch:expanded;text-align:center;line-height:125%;writing-mode:lr-tb;text-anchor:middle;font-family:Comfortaa;-inkscape-font-specification:Comfortaa Bold Expanded"
               y="863.93408"
               x="49.265553"
               id="tspan21302"
               sodipodi:role="line">17</tspan></text>
        </g>
        <text
           xml:space="preserve"
           style="font-size:16px;font-style:normal;font-variant:normal;font-weight:500;font-stretch:normal;text-align:start;line-height:125%;letter-spacing:0px;word-spacing:0px;writing-mode:lr-tb;text-anchor:start;fill:#000000;fill-opacity:1;stroke:none;font-family:Cantarell;-inkscape-font-specification:Cantarell Medium"
           x="65.234375"
           y="864.9245"
           id="text21304"
           sodipodi:linespacing="125%"><tspan
             id="tspan21306"
             style="font-size:16px;font-style:normal;font-variant:normal;font-weight:bold;font-stretch:normal;text-align:start;line-height:125%;letter-spacing:0px;writing-mode:lr-tb;text-anchor:start;fill:#000000;fill-opacity:1;font-family:Cantarell;-inkscape-font-specification:Cantarell Bold"
             sodipodi:role="line"
             x="65.234375"
             y="864.9245">Lot 17 (one-day pass parking)</tspan><tspan
             id="tspan21373"
             style="font-size:16px;font-style:normal;font-variant:normal;font-weight:500;font-stretch:normal;text-align:start;line-height:125%;letter-spacing:0px;writing-mode:lr-tb;text-anchor:start;fill:#000000;fill-opacity:1;font-family:Cantarell;-inkscape-font-specification:Cantarell Medium"
             sodipodi:role="line"
             x="65.234375"
             y="885.03833">Pass bought online (<tspan
   id="tspan21375"
   style="font-size:16px;font-style:normal;font-variant:normal;font-weight:normal;font-stretch:normal;text-align:start;line-height:125%;letter-spacing:0px;writing-mode:lr-tb;text-anchor:start;fill:#3c6eb4;font-family:Liberation Mono;-inkscape-font-specification:Liberation Mono">ur1.ca/2snjh</tspan>) and</tspan><tspan
             id="tspan21795"
             style="font-size:16px;font-style:normal;font-variant:normal;font-weight:500;font-stretch:normal;text-align:start;line-height:125%;letter-spacing:-0.1px;writing-mode:lr-tb;text-anchor:start;fill:#000000;fill-opacity:1;font-family:Cantarell;-inkscape-font-specification:Cantarell Medium"
             sodipodi:role="line"
             x="65.234375"
             y="906.51642">printed by you for that day. No rental cars</tspan></text>
      </g>
      <g
         transform="translate(382.455, -25.9912)"
         id="g21340">
        <g
           id="g21342"
           style="display:inline"
           transform="translate(-351.542, -82.2793)">
          <path
             sodipodi:type="arc"
             style="fill:#3c6eb4;fill-opacity:1;stroke:none"
             id="path21344"
             sodipodi:cx="262.5"
             sodipodi:cy="-316.25"
             sodipodi:rx="13.5"
             sodipodi:ry="13.75"
             d="m 276,-316.25 c 0,7.59392 -6.04416,13.75 -13.5,13.75 -7.45584,0 -13.5,-6.15608 -13.5,-13.75 0,-7.59392 6.04416,-13.75 13.5,-13.75 7.45584,0 13.5,6.15608 13.5,13.75 z"
             transform="matrix(0.695, 0, 0, 0.682364, 218.492, 1083.44)" />
          <text
             sodipodi:linespacing="125%"
             id="text21346"
             y="872.37909"
             x="400.89328"
             style="font-size:13.5px;font-style:normal;font-variant:normal;font-weight:bold;font-stretch:expanded;text-align:center;line-height:125%;letter-spacing:0px;word-spacing:0px;writing-mode:lr-tb;text-anchor:middle;fill:#ffffff;fill-opacity:1;stroke:none;font-family:Comfortaa;-inkscape-font-specification:Comfortaa Bold Expanded"
             xml:space="preserve"><tspan
               style="font-size:13.5px;font-style:normal;font-variant:normal;font-weight:bold;font-stretch:expanded;text-align:center;line-height:125%;writing-mode:lr-tb;text-anchor:middle;font-family:Comfortaa;-inkscape-font-specification:Comfortaa Bold Expanded"
               y="872.37909"
               x="400.89328"
               id="tspan21348"
               sodipodi:role="line">13</tspan></text>
        </g>
        <text
           xml:space="preserve"
           style="font-size:16px;font-style:normal;font-variant:normal;font-weight:500;font-stretch:normal;text-align:start;line-height:125%;letter-spacing:0px;word-spacing:0px;writing-mode:lr-tb;text-anchor:start;fill:#000000;fill-opacity:1;stroke:none;font-family:Cantarell;-inkscape-font-specification:Cantarell Medium"
           x="65.234375"
           y="791.09021"
           id="text21350"
           sodipodi:linespacing="125%"><tspan
             id="tspan21356"
             style="font-size:16px;font-style:normal;font-variant:normal;font-weight:bold;font-stretch:normal;text-align:start;line-height:125%;writing-mode:lr-tb;text-anchor:start;fill:#000000;fill-opacity:1;font-family:Cantarell;-inkscape-font-specification:Cantarell Bold"
             sodipodi:role="line"
             x="65.234375"
             y="791.09021">Lot 13 (metered)</tspan><tspan
             id="tspan21363"
             style="font-size:16px;font-style:normal;font-variant:normal;font-weight:500;font-stretch:normal;text-align:start;line-height:125%;writing-mode:lr-tb;text-anchor:start;fill:#000000;fill-opacity:1;font-family:Cantarell;-inkscape-font-specification:Cantarell Medium"
             sodipodi:role="line"
             x="65.234375"
             y="811.20404">Pay M–Sa, 7a–10p. $1.50/hr, limits vary</tspan><tspan
             id="tspan21365"
             style="font-size:16px;font-style:normal;font-variant:normal;font-weight:500;font-stretch:normal;text-align:start;line-height:125%;writing-mode:lr-tb;text-anchor:start;fill:#000000;fill-opacity:1;font-family:Cantarell;-inkscape-font-specification:Cantarell Medium"
             sodipodi:role="line"
             x="65.234375"
             y="831.20404">Nickels, dimes, quarters accepted</tspan></text>
      </g>
      <g
         id="g21771"
         transform="translate(382.455, 44.7115)">
        <g
           transform="translate(-351.542, -82.2793)"
           style="display:inline"
           id="g21773">
          <path
             transform="matrix(0.695, 0, 0, 0.682364, 218.492, 1083.44)"
             d="m 276,-316.25 c 0,7.59392 -6.04416,13.75 -13.5,13.75 -7.45584,0 -13.5,-6.15608 -13.5,-13.75 0,-7.59392 6.04416,-13.75 13.5,-13.75 7.45584,0 13.5,6.15608 13.5,13.75 z"
             sodipodi:ry="13.75"
             sodipodi:rx="13.5"
             sodipodi:cy="-316.25"
             sodipodi:cx="262.5"
             id="path21775"
             style="fill:#3c6eb4;fill-opacity:1;stroke:none"
             sodipodi:type="arc" />
          <text
             xml:space="preserve"
             style="font-size:13.5px;font-style:normal;font-variant:normal;font-weight:bold;font-stretch:expanded;text-align:center;line-height:125%;letter-spacing:0px;word-spacing:0px;writing-mode:lr-tb;text-anchor:middle;fill:#ffffff;fill-opacity:1;stroke:none;font-family:Comfortaa;-inkscape-font-specification:Comfortaa Bold Expanded"
             x="400.97568"
             y="872.37909"
             id="text21777"
             sodipodi:linespacing="125%"><tspan
               sodipodi:role="line"
               id="tspan21779"
               x="400.97568"
               y="872.37909"
               style="font-size:13.5px;font-style:normal;font-variant:normal;font-weight:bold;font-stretch:expanded;text-align:center;line-height:125%;writing-mode:lr-tb;text-anchor:middle;font-family:Comfortaa;-inkscape-font-specification:Comfortaa Bold Expanded">19</tspan></text>
        </g>
        <text
           sodipodi:linespacing="125%"
           id="text21781"
           y="791.09021"
           x="65.234375"
           style="font-size:16px;font-style:normal;font-variant:normal;font-weight:500;font-stretch:normal;text-align:start;line-height:125%;letter-spacing:0px;word-spacing:0px;writing-mode:lr-tb;text-anchor:start;fill:#000000;fill-opacity:1;stroke:none;font-family:Cantarell;-inkscape-font-specification:Cantarell Medium"
           xml:space="preserve"><tspan
             y="791.09021"
             x="65.234375"
             sodipodi:role="line"
             style="font-size:16px;font-style:normal;font-variant:normal;font-weight:bold;font-stretch:normal;text-align:start;line-height:125%;writing-mode:lr-tb;text-anchor:start;fill:#000000;fill-opacity:1;font-family:Cantarell;-inkscape-font-specification:Cantarell Bold"
             id="tspan21783">Lot 19 (pay machine)</tspan><tspan
             y="811.20404"
             x="65.234375"
             sodipodi:role="line"
             style="font-size:16px;font-style:normal;font-variant:normal;font-weight:500;font-stretch:normal;text-align:start;line-height:125%;writing-mode:lr-tb;text-anchor:start;fill:#000000;fill-opacity:1;font-family:Cantarell;-inkscape-font-specification:Cantarell Medium"
             id="tspan21785">Pay M–Sa, 7a–10p. $2/hr, max 12 hours</tspan><tspan
             y="831.20404"
             x="65.234375"
             sodipodi:role="line"
             style="font-size:16px;font-style:normal;font-variant:normal;font-weight:500;font-stretch:normal;text-align:start;line-height:125%;writing-mode:lr-tb;text-anchor:start;fill:#000000;fill-opacity:1;font-family:Cantarell;-inkscape-font-specification:Cantarell Medium"
             id="tspan21787">No overnight parking</tspan></text>
      </g>
      <g
         transform="translate(0, 115.31)"
         id="g21797">
        <g
           id="g21799"
           style="display:inline"
           transform="translate(-351.542, -82.2793)">
          <path
             sodipodi:type="arc"
             style="fill:#3c6eb4;fill-opacity:1;stroke:none"
             id="path21801"
             sodipodi:cx="262.5"
             sodipodi:cy="-316.25"
             sodipodi:rx="13.5"
             sodipodi:ry="13.75"
             d="m 276,-316.25 c 0,7.59392 -6.04416,13.75 -13.5,13.75 -7.45584,0 -13.5,-6.15608 -13.5,-13.75 0,-7.59392 6.04416,-13.75 13.5,-13.75 7.45584,0 13.5,6.15608 13.5,13.75 z"
             transform="matrix(0.695, 0, 0, 0.682364, 218.492, 1083.44)" />
          <text
             sodipodi:linespacing="125%"
             id="text21803"
             y="872.37579"
             x="400.93942"
             style="font-size:13.5px;font-style:normal;font-variant:normal;font-weight:bold;font-stretch:expanded;text-align:center;line-height:125%;letter-spacing:0px;word-spacing:0px;writing-mode:lr-tb;text-anchor:middle;fill:#ffffff;fill-opacity:1;stroke:none;font-family:Comfortaa;-inkscape-font-specification:Comfortaa Bold Expanded"
             xml:space="preserve"><tspan
               style="font-size:13.5px;font-style:normal;font-variant:normal;font-weight:bold;font-stretch:expanded;text-align:center;line-height:125%;writing-mode:lr-tb;text-anchor:middle;font-family:Comfortaa;-inkscape-font-specification:Comfortaa Bold Expanded"
               y="872.37579"
               x="400.93942"
               id="tspan21805"
               sodipodi:role="line">27</tspan></text>
        </g>
        <text
           xml:space="preserve"
           style="font-size:16px;font-style:normal;font-variant:normal;font-weight:500;font-stretch:normal;text-align:start;line-height:125%;letter-spacing:0px;word-spacing:0px;writing-mode:lr-tb;text-anchor:start;fill:#000000;fill-opacity:1;stroke:none;font-family:Cantarell;-inkscape-font-specification:Cantarell Medium"
           x="65.234375"
           y="791.09021"
           id="text21807"
           sodipodi:linespacing="125%"><tspan
             id="tspan21809"
             style="font-size:16px;font-style:normal;font-variant:normal;font-weight:bold;font-stretch:normal;text-align:start;line-height:125%;letter-spacing:0px;writing-mode:lr-tb;text-anchor:start;fill:#000000;fill-opacity:1;font-family:Cantarell;-inkscape-font-specification:Cantarell Bold"
             sodipodi:role="line"
             x="65.234375"
             y="791.09021">Lot 27 (metered)</tspan><tspan
             id="tspan21813"
             style="font-size:16px;font-style:normal;font-variant:normal;font-weight:500;font-stretch:normal;text-align:start;line-height:125%;letter-spacing:0px;writing-mode:lr-tb;text-anchor:start;fill:#000000;fill-opacity:1;font-family:Cantarell;-inkscape-font-specification:Cantarell Medium"
             sodipodi:role="line"
             x="65.234375"
             y="811.20404">Pay M–Sa, 7a–10p. $1.50/hr, limits vary</tspan><tspan
             id="tspan21817"
             style="font-size:16px;font-style:normal;font-variant:normal;font-weight:500;font-stretch:normal;text-align:start;line-height:125%;letter-spacing:0px;writing-mode:lr-tb;text-anchor:start;fill:#000000;fill-opacity:1;font-family:Cantarell;-inkscape-font-specification:Cantarell Medium"
             sodipodi:role="line"
             x="65.234375"
             y="831.20404">Nickels, dimes, quarters accepted</tspan></text>
      </g>
    </g>
  </g>
</svg>
