<?xml version="1.0" encoding="UTF-8" standalone="no"?>
<!-- Created with Inkscape (http://www.inkscape.org/) -->
<svg
   xmlns:dc="http://purl.org/dc/elements/1.1/"
   xmlns:cc="http://creativecommons.org/ns#"
   xmlns:rdf="http://www.w3.org/1999/02/22-rdf-syntax-ns#"
   xmlns:svg="http://www.w3.org/2000/svg"
   xmlns="http://www.w3.org/2000/svg"
   xmlns:sodipodi="http://sodipodi.sourceforge.net/DTD/sodipodi-0.dtd"
   xmlns:inkscape="http://www.inkscape.org/namespaces/inkscape"
   width="787.5"
   height="1012.5"
   id="svg2"
   version="1.1"
   inkscape:version="0.46"
   sodipodi:docname="page10-local-vendors-left-spa.svg"
   inkscape:export-filename="/home/ianweller/fudcon-tempe-booklet/template-left.png"
   inkscape:export-xdpi="90"
   inkscape:export-ydpi="90"
   sodipodi:version="0.32"
   inkscape:output_extension="org.inkscape.output.svg.inkscape">
  <defs
     id="defs4">
    <inkscape:perspective
       sodipodi:type="inkscape:persp3d"
       inkscape:vp_x="0 : 506.25 : 1"
       inkscape:vp_y="0 : 1000 : 0"
       inkscape:vp_z="787.5 : 506.25 : 1"
       inkscape:persp3d-origin="393.75 : 337.5 : 1"
       id="perspective178" />
  </defs>
  <sodipodi:namedview
     id="base"
     pagecolor="#ffffff"
     bordercolor="#666666"
     borderopacity="1.0"
     inkscape:pageopacity="0.0"
     inkscape:pageshadow="2"
     inkscape:zoom="1.0765432"
     inkscape:cx="366.16866"
     inkscape:cy="982.26051"
     inkscape:document-units="in"
     inkscape:current-layer="layer1"
     showgrid="true"
     units="in"
     inkscape:window-width="1022"
     inkscape:window-height="783"
     inkscape:window-x="0"
     inkscape:window-y="0"
     inkscape:window-maximized="0"
     showguides="true"
     inkscape:guide-bbox="true"
     inkscape:snap-bbox="true"
     inkscape:snap-page="false"
     inkscape:snap-nodes="true">
    <sodipodi:guide
       position="0,11.25"
       orientation="0,1"
       id="guide2985" />
    <sodipodi:guide
       position="776.25,0"
       orientation="1,0"
       id="guide2987" />
    <sodipodi:guide
       position="787.5,1001.25"
       orientation="0,1"
       id="guide2989" />
    <sodipodi:guide
       position="11.25,1012.5"
       orientation="1,0"
       id="guide2991" />
    <sodipodi:guide
       orientation="1,0"
       position="753.75,824"
       id="guide3872" />
    <sodipodi:guide
       orientation="1,0"
       position="33.75,762"
       id="guide3878" />
    <sodipodi:guide
       orientation="0,1"
       position="257,928.17"
       id="guide3884" />
    <sodipodi:guide
       orientation="0,1"
       position="297,33.75"
       id="guide3970" />
    <sodipodi:guide
       orientation="0,1"
       position="287,855"
       id="guide3972" />
    <sodipodi:guide
       orientation="0,1"
       position="35.753906,953.73"
       id="guide3017" />
    <sodipodi:guide
       orientation="0,1"
       position="311,990"
       id="guide3810" />
    <sodipodi:guide
       position="0,0"
       orientation="0,787.5"
       id="guide3812" />
    <sodipodi:guide
       position="787.5,0"
       orientation="-1012.5,0"
       id="guide3814" />
    <sodipodi:guide
       position="787.5,1012.5"
       orientation="0,-787.5"
       id="guide3816" />
    <sodipodi:guide
       position="0,1012.5"
       orientation="1012.5,0"
       id="guide3818" />
    <sodipodi:guide
       orientation="0,1"
       position="341,832.5"
       id="guide3820" />
    <sodipodi:guide
       orientation="1,0"
       position="270,675"
       id="guide8723" />
    <sodipodi:guide
       orientation="1,0"
       position="258.75,666"
       id="guide9553" />
    <sodipodi:guide
       orientation="1,0"
       position="281.25,691"
       id="guide9555" />
    <sodipodi:guide
       orientation="0,1"
       position="34.03125,787.5"
       id="guide9557" />
    <sodipodi:guide
       orientation="1,0"
       position="506.25,553"
       id="guide3130" />
    <sodipodi:guide
       orientation="1,0"
       position="517.5,694"
       id="guide3132" />
    <sodipodi:guide
       orientation="1,0"
       position="528.75,719"
       id="guide3134" />
    <inkscape:grid
       type="xygrid"
       id="grid3154" />
  </sodipodi:namedview>
  <metadata
     id="metadata7">
    <rdf:RDF>
      <cc:Work
         rdf:about="">
        <dc:format>image/svg+xml</dc:format>
        <dc:type
           rdf:resource="http://purl.org/dc/dcmitype/StillImage" />
        <dc:title />
      </cc:Work>
    </rdf:RDF>
  </metadata>
  <g
     inkscape:groupmode="layer"
     id="layer2"
     inkscape:label="bounding"
     sodipodi:insensitive="true">
    <rect
       style="fill:#ffffff;fill-opacity:1;stroke:none"
       id="rect3009"
       width="787.5"
       height="1012.5"
       x="0"
       y="0" />
  </g>
  <g
     inkscape:label="Layer 1"
     inkscape:groupmode="layer"
     id="layer1"
     transform="translate(0, -39.862)">
    <text
       xml:space="preserve"
       style="font-size:16px;font-style:normal;font-variant:normal;font-weight:500;font-stretch:normal;text-align:start;line-height:125%;letter-spacing:0px;word-spacing:0px;writing-mode:lr-tb;text-anchor:start;fill:#000000;fill-opacity:1;stroke:none;font-family:Cantarell;-inkscape-font-specification:Cantarell Medium"
       x="33.232384"
       y="694.39227"
       id="text3236"
       sodipodi:linespacing="125%"><tspan
         sodipodi:role="line"
         x="33.232384"
         y="694.39227"
         id="tspan3238"
         style="font-size:18px;font-style:normal;font-variant:normal;font-weight:bold;font-stretch:normal;text-align:start;line-height:125%;writing-mode:lr-tb;text-anchor:start;font-family:Cantarell;-inkscape-font-specification:Cantarell Bold">Domino’s Pizza</tspan><tspan
         sodipodi:role="line"
         x="33.232384"
         y="715.17999"
         id="tspan3240">(480) 894-6600</tspan><tspan
         sodipodi:role="line"
         x="33.232384"
         y="735.17999"
         id="tspan3242"
         style="font-size:16px;font-style:normal;font-variant:normal;font-weight:500;font-stretch:normal;text-align:start;line-height:125%;writing-mode:lr-tb;text-anchor:start;fill:#000000;fill-opacity:1;font-family:Cantarell;-inkscape-font-specification:Cantarell Medium">Open 10a–12a (2a F–Sa)</tspan><tspan
         sodipodi:role="line"
         x="33.232384"
         y="755.15558"
         style="font-size:16px;font-style:normal;font-variant:normal;font-weight:normal;font-stretch:normal;text-align:start;line-height:125%;writing-mode:lr-tb;text-anchor:start;fill:#3c6eb4;fill-opacity:1;font-family:Liberation Mono;-inkscape-font-specification:Liberation Mono"
         id="tspan3244">www.dominos.com</tspan></text>
    <rect
       style="fill:#a07cbc;fill-opacity:1;stroke:none"
       id="rect3876"
       width="787.5"
       height="125"
       x="8.629919e-15"
       y="72.362" />
    <rect
       style="fill:#3c6eb4;fill-opacity:1;stroke:none"
       id="rect2988"
       width="787.50006"
       height="58.77"
       x="0"
       y="39.862" />
    <path
       inkscape:connector-curvature="0"
       d="m 24.9844,74.862599 c 0,-6.90384 5.596359,-12.5006 12.49996,-12.5006 6.900391,0 12.49455,5.59215 12.49955,12.49179 l 4.39e-4,-4.3e-4 0,9.67339 -4.39e-4,4.3e-4 c -0.004,1.56658 -1.2742,2.83482 -2.841729,2.83482 -0.004,0 -0.009,-2.9e-4 -0.0134,-2.9e-4 l -7.39e-4,2.9e-4 -9.648421,0 0,0 c -6.901589,-0.003 -12.49515,-5.59756 -12.49515,-12.4994 l -7e-5,0 z"
       id="path3471"
       style="fill:#294172;fill-opacity:1" />
    <text
       xml:space="preserve"
       style="font-size:16px;font-style:normal;font-variant:normal;font-weight:bold;font-stretch:expanded;text-align:center;line-height:125%;letter-spacing:0px;word-spacing:0px;writing-mode:lr-tb;text-anchor:middle;fill:#ffffff;fill-opacity:1;stroke:none;font-family:Comfortaa;-inkscape-font-specification:Comfortaa Bold Expanded"
       x="37.609375"
       y="80.428406"
       id="text3860"
       sodipodi:linespacing="125%"><tspan
         sodipodi:role="line"
         id="tspan3862"
         x="37.609375"
         y="80.428406"
         style="text-align:center;text-anchor:middle">10</tspan></text>
    <text
       sodipodi:linespacing="125%"
       id="text3864"
       y="80.428406"
       x="753.75"
       style="font-size:16px;font-style:normal;font-variant:normal;font-weight:normal;font-stretch:normal;text-align:end;line-height:125%;letter-spacing:0px;word-spacing:0px;writing-mode:lr-tb;text-anchor:end;fill:#ffffff;fill-opacity:1;stroke:none;font-family:Comfortaa;-inkscape-font-specification:Comfortaa"
       xml:space="preserve"><tspan
         y="80.428406"
         x="753.75"
         id="tspan3866"
         sodipodi:role="line">FUDCon Panamá — Mayo 26–28, 2011</tspan></text>
    <text
       xml:space="preserve"
       style="font-size:36px;font-style:normal;font-variant:normal;font-weight:normal;font-stretch:normal;text-align:start;line-height:125%;letter-spacing:0px;word-spacing:0px;writing-mode:lr-tb;text-anchor:start;fill:#ffffff;fill-opacity:1;stroke:none;font-family:Comfortaa;-inkscape-font-specification:Comfortaa"
       x="39.71875"
       y="151.54356"
       id="text3880"
       sodipodi:linespacing="125%"><tspan
         sodipodi:role="line"
         id="tspan3882"
         x="39.71875"
         y="151.54356">Vededores locales</tspan></text>
    <path
       style="fill:none;stroke:#8c8c8c;stroke-width:1.25999987;stroke-linecap:square;stroke-linejoin:miter;stroke-miterlimit:4;stroke-opacity:1;stroke-dasharray:none"
       d="m 270,219.88922 0,798.06548"
       id="path3067"
       inkscape:connector-curvature="0" />
    <text
       sodipodi:linespacing="125%"
       id="text3160"
       y="278.14227"
       x="33.232384"
       style="font-size:16px;font-style:normal;font-variant:normal;font-weight:500;font-stretch:normal;text-align:start;line-height:125%;letter-spacing:0px;word-spacing:0px;writing-mode:lr-tb;text-anchor:start;fill:#000000;fill-opacity:1;stroke:none;font-family:Cantarell;-inkscape-font-specification:Cantarell Medium"
       xml:space="preserve"><tspan
         style="font-size:18px;font-style:normal;font-variant:normal;font-weight:bold;font-stretch:normal;text-align:start;line-height:125%;writing-mode:lr-tb;text-anchor:start;font-family:Cantarell;-inkscape-font-specification:Cantarell Bold"
         id="tspan3162"
         y="278.14227"
         x="33.232384"
         sodipodi:role="line">Dunkin’ Donuts</tspan><tspan
         id="tspan3164"
         y="298.92999"
         x="33.232384"
         sodipodi:role="line">425 S Mill Ave #101</tspan><tspan
         style="font-size:16px;font-style:normal;font-variant:normal;font-weight:500;font-stretch:normal;text-align:start;line-height:125%;writing-mode:lr-tb;text-anchor:start;fill:#000000;fill-opacity:1;font-family:Cantarell;-inkscape-font-specification:Cantarell Medium"
         id="tspan3166"
         y="318.92999"
         x="33.232384"
         sodipodi:role="line">Open 6a–6p</tspan><tspan
         dx="0.35355338"
         id="tspan3168"
         style="font-size:16px;font-style:normal;font-variant:normal;font-weight:normal;font-stretch:normal;text-align:start;line-height:125%;writing-mode:lr-tb;text-anchor:start;fill:#3c6eb4;fill-opacity:1;font-family:Liberation Mono;-inkscape-font-specification:Liberation Mono"
         y="338.90558"
         x="33.232384"
         sodipodi:role="line">www.dunkindonuts.com</tspan></text>
    <text
       xml:space="preserve"
       style="font-size:16px;font-style:normal;font-variant:normal;font-weight:500;font-stretch:normal;text-align:start;line-height:125%;letter-spacing:0px;word-spacing:0px;writing-mode:lr-tb;text-anchor:start;fill:#000000;fill-opacity:1;stroke:none;font-family:Cantarell;-inkscape-font-specification:Cantarell Medium"
       x="33.232384"
       y="364.85431"
       id="text3200"
       sodipodi:linespacing="125%"><tspan
         sodipodi:role="line"
         x="33.232384"
         y="364.85431"
         id="tspan3202"
         style="font-size:18px;font-style:normal;font-variant:normal;font-weight:bold;font-stretch:normal;text-align:start;line-height:125%;writing-mode:lr-tb;text-anchor:start;font-family:Cantarell;-inkscape-font-specification:Cantarell Bold">Starbucks</tspan><tspan
         sodipodi:role="line"
         x="33.232384"
         y="385.64203"
         id="tspan3204">420 S Mill Ave #104</tspan><tspan
         sodipodi:role="line"
         x="33.232384"
         y="405.64203"
         id="tspan3206"
         style="font-size:16px;font-style:normal;font-variant:normal;font-weight:500;font-stretch:normal;text-align:start;line-height:125%;writing-mode:lr-tb;text-anchor:start;fill:#000000;fill-opacity:1;font-family:Cantarell;-inkscape-font-specification:Cantarell Medium">M–Sa: 5a–11p; Su: 5:30a–11p</tspan><tspan
         sodipodi:role="line"
         x="33.232384"
         y="425.61761"
         style="font-size:16px;font-style:normal;font-variant:normal;font-weight:normal;font-stretch:normal;text-align:start;line-height:125%;writing-mode:lr-tb;text-anchor:start;fill:#3c6eb4;fill-opacity:1;font-family:Liberation Mono;-inkscape-font-specification:Liberation Mono"
         id="tspan3208"
         dx="0.35355338">www.starbucks.com</tspan></text>
    <text
       xml:space="preserve"
       style="font-size:16px;font-style:normal;font-variant:normal;font-weight:500;font-stretch:normal;text-align:start;line-height:125%;letter-spacing:0px;word-spacing:0px;writing-mode:lr-tb;text-anchor:start;fill:#000000;fill-opacity:1;stroke:none;font-family:Cantarell;-inkscape-font-specification:Cantarell Medium"
       x="33.232384"
       y="451.56635"
       id="text3210"
       sodipodi:linespacing="125%"><tspan
         sodipodi:role="line"
         x="33.232384"
         y="451.56635"
         id="tspan3212"
         style="font-size:18px;font-style:normal;font-variant:normal;font-weight:bold;font-stretch:normal;text-align:start;line-height:125%;writing-mode:lr-tb;text-anchor:start;font-family:Cantarell;-inkscape-font-specification:Cantarell Bold">Stans Metro Deli</tspan><tspan
         sodipodi:role="line"
         x="33.232384"
         y="472.35406"
         id="tspan3214">414 S Mill Ave #115</tspan><tspan
         sodipodi:role="line"
         x="33.232384"
         y="492.35406"
         id="tspan3216"
         style="font-size:16px;font-style:normal;font-variant:normal;font-weight:500;font-stretch:normal;text-align:start;line-height:125%;letter-spacing:-1.96px;writing-mode:lr-tb;text-anchor:start;fill:#000000;fill-opacity:1;font-family:Cantarell;-inkscape-font-specification:Cantarell Medium">M-Th: 6a-3p; F-Sa: 6a-12a; Su: 7a-3p</tspan><tspan
         sodipodi:role="line"
         x="33.232384"
         y="512.32965"
         style="font-size:16px;font-style:normal;font-variant:normal;font-weight:normal;font-stretch:normal;text-align:start;line-height:125%;writing-mode:lr-tb;text-anchor:start;fill:#3c6eb4;fill-opacity:1;font-family:Liberation Mono;-inkscape-font-specification:Liberation Mono"
         id="tspan3218"
         dx="0.35355338">www.stansmetrodeli.com</tspan></text>
    <text
       xml:space="preserve"
       style="font-size:28px;font-style:normal;font-variant:normal;font-weight:normal;font-stretch:normal;text-align:start;line-height:125%;letter-spacing:0px;word-spacing:0px;writing-mode:lr-tb;text-anchor:start;fill:#000000;fill-opacity:1;stroke:none;font-family:Comfortaa;-inkscape-font-specification:Comfortaa"
       x="33.75"
       y="239.49481"
       id="text3226"
       sodipodi:linespacing="125%"><tspan
         sodipodi:role="line"
         id="tspan3228"
         x="33.75"
         y="239.49481">Desayuno</tspan></text>
    <text
       xml:space="preserve"
       style="font-size:28px;font-style:normal;font-variant:normal;font-weight:normal;font-stretch:normal;text-align:start;line-height:125%;letter-spacing:0px;word-spacing:0px;writing-mode:lr-tb;text-anchor:start;fill:#000000;fill-opacity:1;stroke:none;font-family:Comfortaa;-inkscape-font-specification:Comfortaa"
       x="33.75"
       y="655.74481"
       id="text3230"
       sodipodi:linespacing="125%"><tspan
         sodipodi:role="line"
         id="tspan3232"
         x="33.75"
         y="655.74481">Entrega-domicilio</tspan></text>
    <text
       xml:space="preserve"
       style="font-size:16px;font-style:normal;font-variant:normal;font-weight:500;font-stretch:normal;text-align:start;line-height:125%;letter-spacing:0px;word-spacing:0px;writing-mode:lr-tb;text-anchor:start;fill:#000000;fill-opacity:1;stroke:none;font-family:Cantarell;-inkscape-font-specification:Cantarell Medium"
       x="33.232384"
       y="781.10431"
       id="text3254"
       sodipodi:linespacing="125%"><tspan
         sodipodi:role="line"
         x="33.232384"
         y="781.10431"
         id="tspan3256"
         style="font-size:18px;font-style:normal;font-variant:normal;font-weight:bold;font-stretch:normal;text-align:start;line-height:125%;writing-mode:lr-tb;text-anchor:start;font-family:Cantarell;-inkscape-font-specification:Cantarell Bold">Boston’s Gourmet Pizza</tspan><tspan
         sodipodi:role="line"
         x="33.232384"
         y="801.89203"
         id="tspan3258">(480) 517-1500</tspan><tspan
         sodipodi:role="line"
         x="33.232384"
         y="821.89203"
         id="tspan3260"
         style="font-size:16px;font-style:normal;font-variant:normal;font-weight:500;font-stretch:normal;text-align:start;line-height:125%;writing-mode:lr-tb;text-anchor:start;fill:#000000;fill-opacity:1;font-family:Cantarell;-inkscape-font-specification:Cantarell Medium">Open 11a–2a</tspan><tspan
         sodipodi:role="line"
         x="33.232384"
         y="841.86761"
         style="font-size:16px;font-style:normal;font-variant:normal;font-weight:normal;font-stretch:normal;text-align:start;line-height:125%;writing-mode:lr-tb;text-anchor:start;fill:#3c6eb4;fill-opacity:1;font-family:Liberation Mono;-inkscape-font-specification:Liberation Mono"
         id="tspan3262"
         dx="0.35355338">www.bostons.com</tspan></text>
    <text
       xml:space="preserve"
       style="font-size:16px;font-style:normal;font-variant:normal;font-weight:500;font-stretch:normal;text-align:start;line-height:125%;letter-spacing:0px;word-spacing:0px;writing-mode:lr-tb;text-anchor:start;fill:#000000;fill-opacity:1;stroke:none;font-family:Cantarell;-inkscape-font-specification:Cantarell Medium"
       x="33.232384"
       y="867.81635"
       id="text3274"
       sodipodi:linespacing="125%"><tspan
         sodipodi:role="line"
         x="33.232384"
         y="867.81635"
         id="tspan3276"
         style="font-size:18px;font-style:normal;font-variant:normal;font-weight:bold;font-stretch:normal;text-align:start;line-height:125%;writing-mode:lr-tb;text-anchor:start;font-family:Cantarell;-inkscape-font-specification:Cantarell Bold">Jimmy John’s</tspan><tspan
         sodipodi:role="line"
         x="33.232384"
         y="888.60406"
         id="tspan3278">(480) 449-3100</tspan><tspan
         sodipodi:role="line"
         x="33.232384"
         y="908.60406"
         id="tspan3280"
         style="font-size:16px;font-style:normal;font-variant:normal;font-weight:500;font-stretch:normal;text-align:start;line-height:125%;writing-mode:lr-tb;text-anchor:start;fill:#000000;fill-opacity:1;font-family:Cantarell;-inkscape-font-specification:Cantarell Medium">Open 10:30a–3a (4a F—Sa)</tspan><tspan
         sodipodi:role="line"
         x="33.232384"
         y="928.57965"
         style="font-size:16px;font-style:normal;font-variant:normal;font-weight:normal;font-stretch:normal;text-align:start;line-height:125%;writing-mode:lr-tb;text-anchor:start;fill:#3c6eb4;fill-opacity:1;font-family:Liberation Mono;-inkscape-font-specification:Liberation Mono"
         id="tspan3282"
         dx="0.35355338">www.jimmyjohns.com</tspan></text>
    <text
       sodipodi:linespacing="125%"
       id="text3160-6-6"
       y="954.52838"
       x="33.232384"
       style="font-size:16px;font-style:normal;font-variant:normal;font-weight:500;font-stretch:normal;text-align:start;line-height:125%;letter-spacing:0px;word-spacing:0px;writing-mode:lr-tb;text-anchor:start;fill:#000000;fill-opacity:1;stroke:none;font-family:Cantarell;-inkscape-font-specification:Cantarell Medium"
       xml:space="preserve"><tspan
         style="font-size:18px;font-style:normal;font-variant:normal;font-weight:bold;font-stretch:normal;text-align:start;line-height:125%;writing-mode:lr-tb;text-anchor:start;font-family:Cantarell;-inkscape-font-specification:Cantarell Bold"
         id="tspan3162-8-4"
         y="954.52838"
         x="33.232384"
         sodipodi:role="line">Pizza Hut</tspan><tspan
         id="tspan3164-5-3"
         y="975.3161"
         x="33.232384"
         sodipodi:role="line">(480) 829-7988</tspan><tspan
         style="font-size:16px;font-style:normal;font-variant:normal;font-weight:500;font-stretch:normal;text-align:start;line-height:125%;letter-spacing:-0.2px;writing-mode:lr-tb;text-anchor:start;fill:#000000;fill-opacity:1;font-family:Cantarell;-inkscape-font-specification:Cantarell Medium"
         id="tspan3166-2-1"
         y="995.3161"
         x="33.232384"
         sodipodi:role="line">10:30a-10:45p (11:45p F-Sa)</tspan><tspan
         id="tspan3168-1-9"
         style="font-size:16px;font-style:normal;font-variant:normal;font-weight:normal;font-stretch:normal;text-align:start;line-height:125%;writing-mode:lr-tb;text-anchor:start;fill:#3c6eb4;fill-opacity:1;font-family:Liberation Mono;-inkscape-font-specification:Liberation Mono"
         y="1015.2917"
         x="33.232384"
         sodipodi:role="line"
         dx="0.35355338">www.pizzahut.com</tspan></text>
    <text
       xml:space="preserve"
       style="font-size:28px;font-style:normal;font-variant:normal;font-weight:normal;font-stretch:normal;text-align:start;line-height:125%;letter-spacing:0px;word-spacing:0px;writing-mode:lr-tb;text-anchor:start;fill:#000000;fill-opacity:1;stroke:none;font-family:Comfortaa;-inkscape-font-specification:Comfortaa"
       x="281.25"
       y="239.49481"
       id="text3320"
       sodipodi:linespacing="125%"><tspan
         sodipodi:role="line"
         id="tspan3322"
         x="281.25"
         y="239.49481">Cenas</tspan></text>
    <text
       sodipodi:linespacing="125%"
       id="text3404"
       y="364.85431"
       x="528.23236"
       style="font-size:16px;font-style:normal;font-variant:normal;font-weight:500;font-stretch:normal;text-align:start;line-height:125%;letter-spacing:0px;word-spacing:0px;writing-mode:lr-tb;text-anchor:start;fill:#000000;fill-opacity:1;stroke:none;font-family:Cantarell;-inkscape-font-specification:Cantarell Medium"
       xml:space="preserve"><tspan
         style="font-size:18px;font-style:normal;font-variant:normal;font-weight:bold;font-stretch:normal;text-align:start;line-height:125%;writing-mode:lr-tb;text-anchor:start;font-family:Cantarell;-inkscape-font-specification:Cantarell Bold"
         id="tspan3406"
         y="364.85431"
         x="528.23236"
         sodipodi:role="line">Z’Tejas</tspan><tspan
         id="tspan3408"
         y="385.64203"
         x="528.23236"
         sodipodi:role="line">20 W 6th St</tspan><tspan
         style="font-size:16px;font-style:normal;font-variant:normal;font-weight:500;font-stretch:normal;text-align:start;line-height:125%;writing-mode:lr-tb;text-anchor:start;fill:#000000;fill-opacity:1;font-family:Cantarell;-inkscape-font-specification:Cantarell Medium"
         id="tspan3410"
         y="405.64203"
         x="528.23236"
         sodipodi:role="line">Open 11a–10p (11p F–Sa)</tspan><tspan
         dx="0.35355338"
         id="tspan3412"
         style="font-size:16px;font-style:normal;font-variant:normal;font-weight:normal;font-stretch:normal;text-align:start;line-height:125%;writing-mode:lr-tb;text-anchor:start;fill:#3c6eb4;fill-opacity:1;font-family:Liberation Mono;-inkscape-font-specification:Liberation Mono"
         y="425.61761"
         x="528.23236"
         sodipodi:role="line">www.ztejas.com</tspan></text>
    <text
       xml:space="preserve"
       style="font-size:16px;font-style:normal;font-variant:normal;font-weight:500;font-stretch:normal;text-align:start;line-height:125%;letter-spacing:0px;word-spacing:0px;writing-mode:lr-tb;text-anchor:start;fill:#000000;fill-opacity:1;stroke:none;font-family:Cantarell;-inkscape-font-specification:Cantarell Medium"
       x="528.23236"
       y="451.56635"
       id="text3454"
       sodipodi:linespacing="125%"><tspan
         sodipodi:role="line"
         x="528.23236"
         y="451.56635"
         id="tspan3456"
         style="font-size:18px;font-style:normal;font-variant:normal;font-weight:bold;font-stretch:normal;text-align:start;line-height:125%;letter-spacing:-1.85000002;writing-mode:lr-tb;text-anchor:start;font-family:Cantarell;-inkscape-font-specification:Cantarell Bold">Casey Moore’s Oyster House</tspan><tspan
         sodipodi:role="line"
         x="528.23236"
         y="472.35406"
         id="tspan3458">850 S Ash Ave</tspan><tspan
         sodipodi:role="line"
         x="528.23236"
         y="492.35406"
         id="tspan3460"
         style="font-size:16px;font-style:normal;font-variant:normal;font-weight:500;font-stretch:normal;text-align:start;line-height:125%;writing-mode:lr-tb;text-anchor:start;fill:#000000;fill-opacity:1;font-family:Cantarell;-inkscape-font-specification:Cantarell Medium">Open 11a–2a</tspan><tspan
         sodipodi:role="line"
         x="528.23236"
         y="512.32965"
         style="font-size:16px;font-style:normal;font-variant:normal;font-weight:normal;font-stretch:normal;text-align:start;line-height:125%;writing-mode:lr-tb;text-anchor:start;fill:#3c6eb4;fill-opacity:1;font-family:Liberation Mono;-inkscape-font-specification:Liberation Mono"
         id="tspan3462"
         dx="0.35355338">www.caseymoores.com</tspan></text>
    <text
       sodipodi:linespacing="125%"
       id="text3424"
       y="538.27838"
       x="280.73239"
       style="font-size:16px;font-style:normal;font-variant:normal;font-weight:500;font-stretch:normal;text-align:start;line-height:125%;letter-spacing:0px;word-spacing:0px;writing-mode:lr-tb;text-anchor:start;fill:#000000;fill-opacity:1;stroke:none;font-family:Cantarell;-inkscape-font-specification:Cantarell Medium"
       xml:space="preserve"><tspan
         style="font-size:18px;font-style:normal;font-variant:normal;font-weight:bold;font-stretch:normal;text-align:start;line-height:125%;writing-mode:lr-tb;text-anchor:start;font-family:Cantarell;-inkscape-font-specification:Cantarell Bold"
         id="tspan3426"
         y="538.27838"
         x="280.73239"
         sodipodi:role="line">La Bocca Urban Pizzaria</tspan><tspan
         id="tspan3428"
         y="559.0661"
         x="280.73239"
         sodipodi:role="line">699 S Mill Ave #115</tspan><tspan
         style="font-size:16px;font-style:normal;font-variant:normal;font-weight:500;font-stretch:normal;text-align:start;line-height:125%;letter-spacing:-1.45000005;writing-mode:lr-tb;text-anchor:start;fill:#000000;fill-opacity:1;font-family:Cantarell;-inkscape-font-specification:Cantarell Medium"
         id="tspan3430"
         y="579.0661"
         x="280.73239"
         sodipodi:role="line">F: 11a-12a; Sa: 5p-12a; Su: 5p-10p</tspan><tspan
         id="tspan3432"
         style="font-size:16px;font-style:normal;font-variant:normal;font-weight:normal;font-stretch:normal;text-align:start;line-height:125%;writing-mode:lr-tb;text-anchor:start;fill:#3c6eb4;fill-opacity:1;font-family:Liberation Mono;-inkscape-font-specification:Liberation Mono"
         y="599.04169"
         x="280.73239"
         sodipodi:role="line">www.laboccapizzeria.com</tspan></text>
    <text
       xml:space="preserve"
       style="font-size:16px;font-style:normal;font-variant:normal;font-weight:500;font-stretch:normal;text-align:start;line-height:125%;letter-spacing:0px;word-spacing:0px;writing-mode:lr-tb;text-anchor:start;fill:#000000;fill-opacity:1;stroke:none;font-family:Cantarell;-inkscape-font-specification:Cantarell Medium"
       x="528.23236"
       y="538.27838"
       id="text4778"
       sodipodi:linespacing="125%"><tspan
         sodipodi:role="line"
         x="528.23236"
         y="538.27838"
         id="tspan4780"
         style="font-size:18px;font-style:normal;font-variant:normal;font-weight:bold;font-stretch:normal;text-align:start;line-height:125%;letter-spacing:0px;writing-mode:lr-tb;text-anchor:start;font-family:Cantarell;-inkscape-font-specification:Cantarell Bold">Caffe Boa</tspan><tspan
         sodipodi:role="line"
         x="528.23236"
         y="559.0661"
         id="tspan4782">398 S Mill Ave #110</tspan><tspan
         sodipodi:role="line"
         x="528.23236"
         y="579.0661"
         id="tspan4784"
         style="font-size:16px;font-style:normal;font-variant:normal;font-weight:500;font-stretch:normal;text-align:start;line-height:125%;letter-spacing:-0.8px;writing-mode:lr-tb;text-anchor:start;fill:#000000;fill-opacity:1;font-family:Cantarell;-inkscape-font-specification:Cantarell Medium">Th-F: 11a-11p; Sa-Su: 10a-10p</tspan><tspan
         sodipodi:role="line"
         x="528.23236"
         y="599.04169"
         style="font-size:16px;font-style:normal;font-variant:normal;font-weight:normal;font-stretch:normal;text-align:start;line-height:125%;writing-mode:lr-tb;text-anchor:start;fill:#3c6eb4;fill-opacity:1;font-family:Liberation Mono;-inkscape-font-specification:Liberation Mono"
         id="tspan4786"
         dx="0.35355338">www.cafeboa.com</tspan></text>
    <text
       sodipodi:linespacing="125%"
       id="text3444"
       y="364.85431"
       x="280.73239"
       style="font-size:16px;font-style:normal;font-variant:normal;font-weight:500;font-stretch:normal;text-align:start;line-height:125%;letter-spacing:0px;word-spacing:0px;writing-mode:lr-tb;text-anchor:start;fill:#000000;fill-opacity:1;stroke:none;font-family:Cantarell;-inkscape-font-specification:Cantarell Medium"
       xml:space="preserve"><tspan
         style="font-size:18px;font-style:normal;font-variant:normal;font-weight:bold;font-stretch:normal;text-align:start;line-height:125%;letter-spacing:0px;writing-mode:lr-tb;text-anchor:start;font-family:Cantarell;-inkscape-font-specification:Cantarell Bold"
         id="tspan3446"
         y="364.85431"
         x="280.73239"
         sodipodi:role="line">House of Tricks</tspan><tspan
         id="tspan3448"
         y="385.64203"
         x="280.73239"
         sodipodi:role="line">144 E 7th St</tspan><tspan
         style="font-size:16px;font-style:normal;font-variant:normal;font-weight:500;font-stretch:normal;text-align:start;line-height:125%;writing-mode:lr-tb;text-anchor:start;fill:#000000;fill-opacity:1;font-family:Cantarell;-inkscape-font-specification:Cantarell Medium"
         id="tspan3450"
         y="405.64203"
         x="280.73239"
         sodipodi:role="line">M–Sa: 11a–10p (bar until 12a)</tspan><tspan
         dx="0.35355338"
         id="tspan3452"
         style="font-size:16px;font-style:normal;font-variant:normal;font-weight:normal;font-stretch:normal;text-align:start;line-height:125%;writing-mode:lr-tb;text-anchor:start;fill:#3c6eb4;fill-opacity:1;font-family:Liberation Mono;-inkscape-font-specification:Liberation Mono"
         y="425.61761"
         x="280.73239"
         sodipodi:role="line">www.houseoftricks.com</tspan></text>
    <text
       sodipodi:linespacing="125%"
       id="text3464"
       y="278.14227"
       x="280.73239"
       style="font-size:16px;font-style:normal;font-variant:normal;font-weight:500;font-stretch:normal;text-align:start;line-height:125%;letter-spacing:0px;word-spacing:0px;writing-mode:lr-tb;text-anchor:start;fill:#000000;fill-opacity:1;stroke:none;font-family:Cantarell;-inkscape-font-specification:Cantarell Medium"
       xml:space="preserve"><tspan
         style="font-size:18px;font-style:normal;font-variant:normal;font-weight:bold;font-stretch:normal;text-align:start;line-height:125%;letter-spacing:-0.47619;writing-mode:lr-tb;text-anchor:start;font-family:Cantarell;-inkscape-font-specification:Cantarell Bold"
         id="tspan3466"
         y="278.14227"
         x="280.73239"
         sodipodi:role="line">Gordon Biersch Brewery</tspan><tspan
         id="tspan3468"
         y="298.92999"
         x="280.73239"
         sodipodi:role="line">420 S Mill Ave #201</tspan><tspan
         style="font-size:16px;font-style:normal;font-variant:normal;font-weight:500;font-stretch:normal;text-align:start;line-height:125%;writing-mode:lr-tb;text-anchor:start;fill:#000000;fill-opacity:1;font-family:Cantarell;-inkscape-font-specification:Cantarell Medium"
         id="tspan3470"
         y="318.92999"
         x="280.73239"
         sodipodi:role="line">Open 11a–11p (12a F; 1a Sa)</tspan><tspan
         dx="0.35355338"
         id="tspan3472"
         style="font-size:16px;font-style:normal;font-variant:normal;font-weight:normal;font-stretch:normal;text-align:start;line-height:125%;writing-mode:lr-tb;text-anchor:start;fill:#3c6eb4;fill-opacity:1;font-family:Liberation Mono;-inkscape-font-specification:Liberation Mono"
         y="338.90558"
         x="280.73239"
         sodipodi:role="line">www.gordonbiersch.com</tspan></text>
    <text
       xml:space="preserve"
       style="font-size:16px;font-style:normal;font-variant:normal;font-weight:500;font-stretch:normal;text-align:start;line-height:125%;letter-spacing:0px;word-spacing:0px;writing-mode:lr-tb;text-anchor:start;fill:#000000;fill-opacity:1;stroke:none;font-family:Cantarell;-inkscape-font-specification:Cantarell Medium"
       x="528.23236"
       y="278.14227"
       id="text3474"
       sodipodi:linespacing="125%"><tspan
         sodipodi:role="line"
         x="528.23236"
         y="278.14227"
         id="tspan3476"
         style="font-size:18px;font-style:normal;font-variant:normal;font-weight:bold;font-stretch:normal;text-align:start;line-height:125%;writing-mode:lr-tb;text-anchor:start;font-family:Cantarell;-inkscape-font-specification:Cantarell Bold">Macayo’s Depot Cantina</tspan><tspan
         sodipodi:role="line"
         x="528.23236"
         y="298.92999"
         id="tspan3478">300 S Ash Ave</tspan><tspan
         sodipodi:role="line"
         x="528.23236"
         y="318.92999"
         id="tspan3480"
         style="font-size:16px;font-style:normal;font-variant:normal;font-weight:500;font-stretch:normal;text-align:start;line-height:125%;writing-mode:lr-tb;text-anchor:start;fill:#000000;fill-opacity:1;font-family:Cantarell;-inkscape-font-specification:Cantarell Medium">Open 10a–12a</tspan><tspan
         sodipodi:role="line"
         x="528.23236"
         y="338.90558"
         style="font-size:16px;font-style:normal;font-variant:normal;font-weight:normal;font-stretch:normal;text-align:start;line-height:125%;writing-mode:lr-tb;text-anchor:start;fill:#3c6eb4;fill-opacity:1;font-family:Liberation Mono;-inkscape-font-specification:Liberation Mono"
         id="tspan3482"
         dx="0.35355338">www.macayo.com</tspan></text>
    <text
       sodipodi:linespacing="125%"
       id="text3576"
       y="278.14227"
       x="-309.59116"
       style="font-size:16px;font-style:normal;font-variant:normal;font-weight:500;font-stretch:normal;text-align:start;line-height:125%;letter-spacing:0px;word-spacing:0px;writing-mode:lr-tb;text-anchor:start;fill:#000000;fill-opacity:1;stroke:none;font-family:Cantarell;-inkscape-font-specification:Cantarell Medium"
       xml:space="preserve"><tspan
         style="font-size:18px;font-style:normal;font-variant:normal;font-weight:bold;font-stretch:normal;text-align:start;line-height:125%;writing-mode:lr-tb;text-anchor:start;font-family:Cantarell;-inkscape-font-specification:Cantarell Bold"
         id="tspan3578"
         y="278.14227"
         x="-309.59116"
         sodipodi:role="line">Template</tspan><tspan
         id="tspan3580"
         y="298.92999"
         x="-309.59116"
         sodipodi:role="line">Address</tspan><tspan
         style="font-size:16px;font-style:normal;font-variant:normal;font-weight:500;font-stretch:normal;text-align:start;line-height:125%;writing-mode:lr-tb;text-anchor:start;fill:#000000;fill-opacity:1;font-family:Cantarell;-inkscape-font-specification:Cantarell Medium"
         id="tspan3582"
         y="318.92999"
         x="-309.59116"
         sodipodi:role="line">Phone Number</tspan><tspan
         dx="0.35355338"
         id="tspan3584"
         style="font-size:16px;font-style:normal;font-variant:normal;font-weight:normal;font-stretch:normal;text-align:start;line-height:125%;writing-mode:lr-tb;text-anchor:start;fill:#3c6eb4;fill-opacity:1;font-family:Liberation Mono;-inkscape-font-specification:Liberation Mono"
         y="338.90558"
         x="-309.59116"
         sodipodi:role="line">www.example.com</tspan></text>
    <text
       sodipodi:linespacing="125%"
       id="text3222"
       y="742.45685"
       x="280.73047"
       style="font-size:28px;font-style:normal;font-variant:normal;font-weight:normal;font-stretch:normal;text-align:start;line-height:125%;letter-spacing:0px;word-spacing:0px;writing-mode:lr-tb;text-anchor:start;fill:#000000;fill-opacity:1;stroke:none;font-family:Comfortaa;-inkscape-font-specification:Comfortaa"
       xml:space="preserve"><tspan
         y="742.45685"
         x="280.73047"
         id="tspan3224"
         sodipodi:role="line">Comida rápida</tspan></text>
    <text
       sodipodi:linespacing="125%"
       id="text3354"
       y="954.52838"
       x="528.23236"
       style="font-size:16px;font-style:normal;font-variant:normal;font-weight:500;font-stretch:normal;text-align:start;line-height:125%;letter-spacing:0px;word-spacing:0px;writing-mode:lr-tb;text-anchor:start;fill:#000000;fill-opacity:1;stroke:none;font-family:Cantarell;-inkscape-font-specification:Cantarell Medium"
       xml:space="preserve"><tspan
         style="font-size:18px;font-style:normal;font-variant:normal;font-weight:bold;font-stretch:normal;text-align:start;line-height:125%;writing-mode:lr-tb;text-anchor:start;font-family:Cantarell;-inkscape-font-specification:Cantarell Bold"
         id="tspan3356"
         y="954.52838"
         x="528.23236"
         sodipodi:role="line">MedFresh Turkish Grill</tspan><tspan
         id="tspan3358"
         y="975.3161"
         x="528.23236"
         sodipodi:role="line">414 S Mill Ave #117</tspan><tspan
         style="font-size:16px;font-style:normal;font-variant:normal;font-weight:500;font-stretch:normal;text-align:start;line-height:125%;writing-mode:lr-tb;text-anchor:start;fill:#000000;fill-opacity:1;font-family:Cantarell;-inkscape-font-specification:Cantarell Medium"
         id="tspan3360"
         y="995.3161"
         x="528.23236"
         sodipodi:role="line">Open 11a–10p (11p F–Sa)</tspan><tspan
         dx="0.35355338"
         id="tspan3362"
         style="font-size:16px;font-style:normal;font-variant:normal;font-weight:normal;font-stretch:normal;text-align:start;line-height:125%;writing-mode:lr-tb;text-anchor:start;fill:#3c6eb4;fill-opacity:1;font-family:Liberation Mono;-inkscape-font-specification:Liberation Mono"
         y="1015.2917"
         x="528.23236"
         sodipodi:role="line">www.medfreshgrill.com</tspan></text>
    <text
       xml:space="preserve"
       style="font-size:16px;font-style:normal;font-variant:normal;font-weight:500;font-stretch:normal;text-align:start;line-height:125%;letter-spacing:0px;word-spacing:0px;writing-mode:lr-tb;text-anchor:start;fill:#000000;fill-opacity:1;stroke:none;font-family:Cantarell;-inkscape-font-specification:Cantarell Medium"
       x="280.73239"
       y="867.81635"
       id="text3484"
       sodipodi:linespacing="125%"><tspan
         sodipodi:role="line"
         x="280.73239"
         y="867.81635"
         id="tspan3486"
         style="font-size:18px;font-style:normal;font-variant:normal;font-weight:bold;font-stretch:normal;text-align:start;line-height:125%;writing-mode:lr-tb;text-anchor:start;font-family:Cantarell;-inkscape-font-specification:Cantarell Bold">Fatburger</tspan><tspan
         sodipodi:role="line"
         x="280.73239"
         y="888.60406"
         id="tspan3488">414 S Mill Ave #101</tspan><tspan
         sodipodi:role="line"
         x="280.73239"
         y="908.60406"
         id="tspan3490"
         style="font-size:16px;font-style:normal;font-variant:normal;font-weight:500;font-stretch:normal;text-align:start;line-height:125%;writing-mode:lr-tb;text-anchor:start;fill:#000000;fill-opacity:1;font-family:Cantarell;-inkscape-font-specification:Cantarell Medium">10:30a–8p (12a Th; 2a F–Sa)</tspan><tspan
         sodipodi:role="line"
         x="280.73239"
         y="928.57965"
         style="font-size:16px;font-style:normal;font-variant:normal;font-weight:normal;font-stretch:normal;text-align:start;line-height:125%;writing-mode:lr-tb;text-anchor:start;fill:#3c6eb4;fill-opacity:1;font-family:Liberation Mono;-inkscape-font-specification:Liberation Mono"
         id="tspan3492"
         dx="0.35355338">www.fatburger.com</tspan></text>
    <text
       xml:space="preserve"
       style="font-size:16px;font-style:normal;font-variant:normal;font-weight:500;font-stretch:normal;text-align:start;line-height:125%;letter-spacing:0px;word-spacing:0px;writing-mode:lr-tb;text-anchor:start;fill:#000000;fill-opacity:1;stroke:none;font-family:Cantarell;-inkscape-font-specification:Cantarell Medium"
       x="280.73239"
       y="954.52838"
       id="text3504"
       sodipodi:linespacing="125%"><tspan
         sodipodi:role="line"
         x="280.73239"
         y="954.52838"
         id="tspan3506"
         style="font-size:18px;font-style:normal;font-variant:normal;font-weight:bold;font-stretch:normal;text-align:start;line-height:125%;writing-mode:lr-tb;text-anchor:start;font-family:Cantarell;-inkscape-font-specification:Cantarell Bold">Slices Pizza</tspan><tspan
         sodipodi:role="line"
         x="280.73239"
         y="975.3161"
         id="tspan3508">11 E 6th St #11</tspan><tspan
         sodipodi:role="line"
         x="280.73239"
         y="995.3161"
         id="tspan3510"
         style="font-size:16px;font-style:normal;font-variant:normal;font-weight:500;font-stretch:normal;text-align:start;line-height:125%;letter-spacing:-0.35726899;writing-mode:lr-tb;text-anchor:start;fill:#000000;fill-opacity:1;font-family:Cantarell;-inkscape-font-specification:Cantarell Medium">Open 11a–10p (11:30a Th–Sa)</tspan><tspan
         sodipodi:role="line"
         x="280.73239"
         y="1015.2917"
         style="font-size:16px;font-style:normal;font-variant:normal;font-weight:normal;font-stretch:normal;text-align:start;line-height:125%;letter-spacing:-0.2px;writing-mode:lr-tb;text-anchor:start;fill:#3c6eb4;fill-opacity:1;font-family:Liberation Mono;-inkscape-font-specification:Liberation Mono"
         id="tspan3512"
         dx="0.35355338">www.slicespizzajoint.com</tspan></text>
    <text
       sodipodi:linespacing="125%"
       id="text3544"
       y="781.10431"
       x="280.73239"
       style="font-size:16px;font-style:normal;font-variant:normal;font-weight:500;font-stretch:normal;text-align:start;line-height:125%;letter-spacing:0px;word-spacing:0px;writing-mode:lr-tb;text-anchor:start;fill:#000000;fill-opacity:1;stroke:none;font-family:Cantarell;-inkscape-font-specification:Cantarell Medium"
       xml:space="preserve"><tspan
         style="font-size:18px;font-style:normal;font-variant:normal;font-weight:bold;font-stretch:normal;text-align:start;line-height:125%;writing-mode:lr-tb;text-anchor:start;font-family:Cantarell;-inkscape-font-specification:Cantarell Bold"
         id="tspan3546"
         y="781.10431"
         x="280.73239"
         sodipodi:role="line">Jack in the Box</tspan><tspan
         id="tspan3548"
         y="801.89203"
         x="280.73239"
         sodipodi:role="line">721 S Mill Ave</tspan><tspan
         style="font-size:16px;font-style:normal;font-variant:normal;font-weight:500;font-stretch:normal;text-align:start;line-height:125%;writing-mode:lr-tb;text-anchor:start;fill:#000000;fill-opacity:1;font-family:Cantarell;-inkscape-font-specification:Cantarell Medium"
         id="tspan3550"
         y="821.89203"
         x="280.73239"
         sodipodi:role="line">Open 24 hours</tspan><tspan
         dx="0.35355338"
         id="tspan3552"
         style="font-size:16px;font-style:normal;font-variant:normal;font-weight:normal;font-stretch:normal;text-align:start;line-height:125%;writing-mode:lr-tb;text-anchor:start;fill:#3c6eb4;fill-opacity:1;font-family:Liberation Mono;-inkscape-font-specification:Liberation Mono"
         y="841.86761"
         x="280.73239"
         sodipodi:role="line">www.jackinthebox.com</tspan></text>
    <text
       sodipodi:linespacing="125%"
       id="text3394"
       y="867.81635"
       x="528.23236"
       style="font-size:16px;font-style:normal;font-variant:normal;font-weight:500;font-stretch:normal;text-align:start;line-height:125%;letter-spacing:0px;word-spacing:0px;writing-mode:lr-tb;text-anchor:start;fill:#000000;fill-opacity:1;stroke:none;font-family:Cantarell;-inkscape-font-specification:Cantarell Medium"
       xml:space="preserve"><tspan
         style="font-size:18px;font-style:normal;font-variant:normal;font-weight:bold;font-stretch:normal;text-align:start;line-height:125%;letter-spacing:-1.54787195;writing-mode:lr-tb;text-anchor:start;font-family:Cantarell;-inkscape-font-specification:Cantarell Bold"
         id="tspan3396"
         y="867.81635"
         x="528.23236"
         sodipodi:role="line">Five Guys Burgers and Fries</tspan><tspan
         id="tspan3398"
         y="888.60406"
         x="528.23236"
         sodipodi:role="line">680 S Mill Ave</tspan><tspan
         style="font-size:16px;font-style:normal;font-variant:normal;font-weight:500;font-stretch:normal;text-align:start;line-height:125%;writing-mode:lr-tb;text-anchor:start;fill:#000000;fill-opacity:1;font-family:Cantarell;-inkscape-font-specification:Cantarell Medium"
         id="tspan3400"
         y="908.60406"
         x="528.23236"
         sodipodi:role="line">Open 11a–10p</tspan><tspan
         dx="0.35355338"
         id="tspan3402"
         style="font-size:16px;font-style:normal;font-variant:normal;font-weight:normal;font-stretch:normal;text-align:start;line-height:125%;writing-mode:lr-tb;text-anchor:start;fill:#3c6eb4;fill-opacity:1;font-family:Liberation Mono;-inkscape-font-specification:Liberation Mono"
         y="928.57965"
         x="528.23236"
         sodipodi:role="line">www.fiveguys.com</tspan></text>
    <text
       xml:space="preserve"
       style="font-size:16px;font-style:normal;font-variant:normal;font-weight:500;font-stretch:normal;text-align:start;line-height:125%;letter-spacing:0px;word-spacing:0px;writing-mode:lr-tb;text-anchor:start;fill:#000000;fill-opacity:1;stroke:none;font-family:Cantarell;-inkscape-font-specification:Cantarell Medium"
       x="528.23236"
       y="781.10431"
       id="text3364"
       sodipodi:linespacing="125%"><tspan
         sodipodi:role="line"
         x="528.23236"
         y="781.10431"
         id="tspan3366"
         style="font-size:18px;font-style:normal;font-variant:normal;font-weight:bold;font-stretch:normal;text-align:start;line-height:125%;writing-mode:lr-tb;text-anchor:start;font-family:Cantarell;-inkscape-font-specification:Cantarell Bold">In-N-Out Burger</tspan><tspan
         sodipodi:role="line"
         x="528.23236"
         y="801.89203"
         id="tspan3368">920 E Playa Del Norte Dr</tspan><tspan
         sodipodi:role="line"
         x="528.23236"
         y="821.89203"
         id="tspan3370"
         style="font-size:16px;font-style:normal;font-variant:normal;font-weight:500;font-stretch:normal;text-align:start;line-height:125%;writing-mode:lr-tb;text-anchor:start;fill:#000000;fill-opacity:1;font-family:Cantarell;-inkscape-font-specification:Cantarell Medium">Open 10:30a–1a (1:30a F–Sa)</tspan><tspan
         sodipodi:role="line"
         x="528.23236"
         y="841.86761"
         style="font-size:16px;font-style:normal;font-variant:normal;font-weight:normal;font-stretch:normal;text-align:start;line-height:125%;writing-mode:lr-tb;text-anchor:start;fill:#3c6eb4;fill-opacity:1;font-family:Liberation Mono;-inkscape-font-specification:Liberation Mono"
         id="tspan3372"
         dx="0.35355338">www.in-n-out.com</tspan></text>
    <text
       xml:space="preserve"
       style="font-size:16px;font-style:normal;font-variant:normal;font-weight:500;font-stretch:normal;text-align:start;line-height:125%;letter-spacing:0px;word-spacing:0px;writing-mode:lr-tb;text-anchor:start;fill:#000000;fill-opacity:1;stroke:none;font-family:Cantarell;-inkscape-font-specification:Cantarell Medium"
       x="280.73239"
       y="624.97839"
       id="text4758"
       sodipodi:linespacing="125%"><tspan
         sodipodi:role="line"
         x="280.73239"
         y="624.97839"
         id="tspan4760"
         style="font-size:18px;font-style:normal;font-variant:normal;font-weight:bold;font-stretch:normal;text-align:start;line-height:125%;writing-mode:lr-tb;text-anchor:start;font-family:Cantarell;-inkscape-font-specification:Cantarell Bold">RA Sushi</tspan><tspan
         sodipodi:role="line"
         x="280.73239"
         y="645.76611"
         id="tspan4762">411 S Mill Ave #103</tspan><tspan
         sodipodi:role="line"
         x="280.73239"
         y="665.76611"
         id="tspan4764"
         style="font-size:16px;font-style:normal;font-variant:normal;font-weight:500;font-stretch:normal;text-align:start;line-height:125%;writing-mode:lr-tb;text-anchor:start;fill:#000000;fill-opacity:1;font-family:Cantarell;-inkscape-font-specification:Cantarell Medium">Open 11a–11p (bar until 1a)</tspan><tspan
         sodipodi:role="line"
         x="280.73239"
         y="685.7417"
         style="font-size:16px;font-style:normal;font-variant:normal;font-weight:normal;font-stretch:normal;text-align:start;line-height:125%;writing-mode:lr-tb;text-anchor:start;fill:#3c6eb4;fill-opacity:1;font-family:Liberation Mono;-inkscape-font-specification:Liberation Mono"
         id="tspan4766"
         dx="0.35355338">www.rasushi.com</tspan></text>
    <text
       sodipodi:linespacing="125%"
       id="text4768"
       y="451.56635"
       x="280.73239"
       style="font-size:16px;font-style:normal;font-variant:normal;font-weight:500;font-stretch:normal;text-align:start;line-height:125%;letter-spacing:0px;word-spacing:0px;writing-mode:lr-tb;text-anchor:start;fill:#000000;fill-opacity:1;stroke:none;font-family:Cantarell;-inkscape-font-specification:Cantarell Medium"
       xml:space="preserve"><tspan
         style="font-size:18px;font-style:normal;font-variant:normal;font-weight:bold;font-stretch:normal;text-align:start;line-height:125%;writing-mode:lr-tb;text-anchor:start;font-family:Cantarell;-inkscape-font-specification:Cantarell Bold"
         id="tspan4770"
         y="451.56635"
         x="280.73239"
         sodipodi:role="line">P.F. Chang’s</tspan><tspan
         id="tspan4772"
         y="472.35406"
         x="280.73239"
         sodipodi:role="line">740 S Mill Ave</tspan><tspan
         style="font-size:16px;font-style:normal;font-variant:normal;font-weight:500;font-stretch:normal;text-align:start;line-height:125%;writing-mode:lr-tb;text-anchor:start;fill:#000000;fill-opacity:1;font-family:Cantarell;-inkscape-font-specification:Cantarell Medium"
         id="tspan4774"
         y="492.35406"
         x="280.73239"
         sodipodi:role="line">Open 11a–11p (12a F–Sa)</tspan><tspan
         dx="0.35355338"
         id="tspan4776"
         style="font-size:16px;font-style:normal;font-variant:normal;font-weight:normal;font-stretch:normal;text-align:start;line-height:125%;writing-mode:lr-tb;text-anchor:start;fill:#3c6eb4;fill-opacity:1;font-family:Liberation Mono;-inkscape-font-specification:Liberation Mono"
         y="512.32965"
         x="280.73239"
         sodipodi:role="line">www.pfchangs.com</tspan></text>
    <text
       sodipodi:linespacing="125%"
       id="text4788"
       y="624.97839"
       x="528.23236"
       style="font-size:16px;font-style:normal;font-variant:normal;font-weight:500;font-stretch:normal;text-align:start;line-height:125%;letter-spacing:0px;word-spacing:0px;writing-mode:lr-tb;text-anchor:start;fill:#000000;fill-opacity:1;stroke:none;font-family:Cantarell;-inkscape-font-specification:Cantarell Medium"
       xml:space="preserve"><tspan
         style="font-size:18px;font-style:normal;font-variant:normal;font-weight:bold;font-stretch:normal;text-align:start;line-height:125%;writing-mode:lr-tb;text-anchor:start;font-family:Cantarell;-inkscape-font-specification:Cantarell Bold"
         id="tspan4790"
         y="624.97839"
         x="528.23236"
         sodipodi:role="line">Chili’s Grill &amp; Bar</tspan><tspan
         id="tspan4792"
         y="645.76611"
         x="528.23236"
         sodipodi:role="line">801 S Mill Ave</tspan><tspan
         style="font-size:16px;font-style:normal;font-variant:normal;font-weight:500;font-stretch:normal;text-align:start;line-height:125%;letter-spacing:-0.50507599;writing-mode:lr-tb;text-anchor:start;fill:#000000;fill-opacity:1;font-family:Cantarell;-inkscape-font-specification:Cantarell Medium"
         id="tspan4794"
         y="665.76611"
         x="528.23236"
         sodipodi:role="line">F–Sa: 10:30a–12a; Su: 11a–11p</tspan><tspan
         dx="0.35355338"
         id="tspan4796"
         style="font-size:16px;font-style:normal;font-variant:normal;font-weight:normal;font-stretch:normal;text-align:start;line-height:125%;writing-mode:lr-tb;text-anchor:start;fill:#3c6eb4;fill-opacity:1;font-family:Liberation Mono;-inkscape-font-specification:Liberation Mono"
         y="685.7417"
         x="528.23236"
         sodipodi:role="line">www.chilis.com</tspan></text>
    <text
       sodipodi:linespacing="125%"
       id="text3147"
       y="224.63243"
       x="-313.65826"
       style="font-size:28px;font-style:normal;font-variant:normal;font-weight:normal;font-stretch:normal;text-align:start;line-height:125%;letter-spacing:0px;word-spacing:0px;writing-mode:lr-tb;text-anchor:start;fill:#000000;fill-opacity:1;stroke:none;font-family:Comfortaa;-inkscape-font-specification:Comfortaa"
       xml:space="preserve"><tspan
         y="224.63243"
         x="-313.65826"
         id="tspan3149"
         sodipodi:role="line">Template</tspan></text>
    <text
       xml:space="preserve"
       style="font-size:16px;font-style:normal;font-variant:normal;font-weight:500;font-stretch:normal;text-align:start;line-height:125%;letter-spacing:0px;word-spacing:0px;writing-mode:lr-tb;text-anchor:start;fill:#000000;fill-opacity:1;stroke:none;font-family:Cantarell;-inkscape-font-specification:Cantarell Medium"
       x="33.232384"
       y="538.27838"
       id="text3149"
       sodipodi:linespacing="125%"><tspan
         sodipodi:role="line"
         x="33.232384"
         y="538.27838"
         id="tspan3151"
         style="font-size:18px;font-style:normal;font-variant:normal;font-weight:bold;font-stretch:normal;text-align:start;line-height:125%;writing-mode:lr-tb;text-anchor:start;font-family:Cantarell;-inkscape-font-specification:Cantarell Bold">IHOP</tspan><tspan
         sodipodi:role="line"
         x="33.232384"
         y="559.0661"
         id="tspan3153">225 E Apache Blvd</tspan><tspan
         sodipodi:role="line"
         x="33.232384"
         y="579.0661"
         id="tspan3155"
         style="font-size:16px;font-style:normal;font-variant:normal;font-weight:500;font-stretch:normal;text-align:start;line-height:125%;writing-mode:lr-tb;text-anchor:start;fill:#000000;fill-opacity:1;font-family:Cantarell;-inkscape-font-specification:Cantarell Medium">Open 24 hours</tspan><tspan
         sodipodi:role="line"
         x="33.232384"
         y="599.04169"
         style="font-size:16px;font-style:normal;font-variant:normal;font-weight:normal;font-stretch:normal;text-align:start;line-height:125%;writing-mode:lr-tb;text-anchor:start;fill:#3c6eb4;fill-opacity:1;font-family:Liberation Mono;-inkscape-font-specification:Liberation Mono"
         id="tspan3157"
         dx="0.35355338">www.ihop.com</tspan></text>
  </g>
</svg>
