<?xml version="1.0" encoding="UTF-8" standalone="no"?>
<!-- Created with Inkscape (http://www.inkscape.org/) -->
<svg
   xmlns:dc="http://purl.org/dc/elements/1.1/"
   xmlns:cc="http://creativecommons.org/ns#"
   xmlns:rdf="http://www.w3.org/1999/02/22-rdf-syntax-ns#"
   xmlns:svg="http://www.w3.org/2000/svg"
   xmlns="http://www.w3.org/2000/svg"
   xmlns:sodipodi="http://sodipodi.sourceforge.net/DTD/sodipodi-0.dtd"
   xmlns:inkscape="http://www.inkscape.org/namespaces/inkscape"
   width="787.5"
   height="1012.5"
   id="svg2"
   version="1.1"
   inkscape:version="0.46"
   sodipodi:docname="page06-good-things-to-know-left-spa.svg"
   inkscape:export-filename="/home/ianweller/fudcon-tempe-booklet/template-left.png"
   inkscape:export-xdpi="90"
   inkscape:export-ydpi="90"
   sodipodi:version="0.32"
   inkscape:output_extension="org.inkscape.output.svg.inkscape">
  <defs
     id="defs4">
    <inkscape:perspective
       sodipodi:type="inkscape:persp3d"
       inkscape:vp_x="0 : 506.25 : 1"
       inkscape:vp_y="0 : 1000 : 0"
       inkscape:vp_z="787.5 : 506.25 : 1"
       inkscape:persp3d-origin="393.75 : 337.5 : 1"
       id="perspective133" />
  </defs>
  <sodipodi:namedview
     id="base"
     pagecolor="#ffffff"
     bordercolor="#666666"
     borderopacity="1.0"
     inkscape:pageopacity="0.0"
     inkscape:pageshadow="2"
     inkscape:zoom="0.81029472"
     inkscape:cx="413.78414"
     inkscape:cy="228.4687"
     inkscape:document-units="in"
     inkscape:current-layer="layer1"
     showgrid="false"
     units="in"
     inkscape:window-width="1022"
     inkscape:window-height="783"
     inkscape:window-x="0"
     inkscape:window-y="0"
     inkscape:window-maximized="0"
     showguides="true"
     inkscape:guide-bbox="true"
     inkscape:snap-bbox="true"
     inkscape:snap-page="false"
     inkscape:snap-nodes="true">
    <sodipodi:guide
       position="0,11.25"
       orientation="0,1"
       id="guide2985" />
    <sodipodi:guide
       position="776.25,0"
       orientation="1,0"
       id="guide2987" />
    <sodipodi:guide
       position="787.5,1001.25"
       orientation="0,1"
       id="guide2989" />
    <sodipodi:guide
       position="11.25,1012.5"
       orientation="1,0"
       id="guide2991" />
    <sodipodi:guide
       orientation="1,0"
       position="753.75,824"
       id="guide3872" />
    <sodipodi:guide
       orientation="1,0"
       position="33.75,762"
       id="guide3878" />
    <sodipodi:guide
       orientation="0,1"
       position="257,928.17"
       id="guide3884" />
    <sodipodi:guide
       orientation="0,1"
       position="297,33.75"
       id="guide3970" />
    <sodipodi:guide
       orientation="0,1"
       position="287,855"
       id="guide3972" />
    <sodipodi:guide
       orientation="0,1"
       position="35.753906,953.73"
       id="guide3017" />
    <sodipodi:guide
       orientation="0,1"
       position="311,990"
       id="guide3810" />
    <sodipodi:guide
       position="0,0"
       orientation="0,787.5"
       id="guide3812" />
    <sodipodi:guide
       position="787.5,0"
       orientation="-1012.5,0"
       id="guide3814" />
    <sodipodi:guide
       position="787.5,1012.5"
       orientation="0,-787.5"
       id="guide3816" />
    <sodipodi:guide
       position="0,1012.5"
       orientation="1012.5,0"
       id="guide3818" />
    <sodipodi:guide
       orientation="0,1"
       position="341,832.5"
       id="guide3820" />
    <sodipodi:guide
       orientation="1,0"
       position="472.5,706.74999"
       id="guide3169" />
    <sodipodi:guide
       orientation="1,0"
       position="450,742.21885"
       id="guide3171" />
    <sodipodi:guide
       orientation="1,0"
       position="495,706.74999"
       id="guide3173" />
  </sodipodi:namedview>
  <metadata
     id="metadata7">
    <rdf:RDF>
      <cc:Work
         rdf:about="">
        <dc:format>image/svg+xml</dc:format>
        <dc:type
           rdf:resource="http://purl.org/dc/dcmitype/StillImage" />
        <dc:title />
      </cc:Work>
    </rdf:RDF>
  </metadata>
  <g
     inkscape:groupmode="layer"
     id="layer2"
     inkscape:label="bounding"
     sodipodi:insensitive="true">
    <rect
       style="fill:#ffffff;fill-opacity:1;stroke:none"
       id="rect3009"
       width="787.5"
       height="1012.5"
       x="0"
       y="0" />
  </g>
  <g
     inkscape:label="Layer 1"
     inkscape:groupmode="layer"
     id="layer1"
     transform="translate(0, -39.862)">
    <rect
       style="fill:#e59728;fill-opacity:1;stroke:none"
       id="rect3876"
       width="787.5"
       height="125"
       x="8.629919e-15"
       y="72.362" />
    <rect
       style="fill:#3c6eb4;fill-opacity:1;stroke:none"
       id="rect2988"
       width="787.50006"
       height="58.77"
       x="0"
       y="39.862" />
    <path
       inkscape:connector-curvature="0"
       d="m 24.9844,74.862599 c 0,-6.90384 5.596359,-12.5006 12.49996,-12.5006 6.900391,0 12.49455,5.59215 12.49955,12.49179 l 4.39e-4,-4.3e-4 0,9.67339 -4.39e-4,4.3e-4 c -0.004,1.56658 -1.2742,2.83482 -2.841729,2.83482 -0.004,0 -0.009,-2.9e-4 -0.0134,-2.9e-4 l -7.39e-4,2.9e-4 -9.648421,0 0,0 c -6.901589,-0.003 -12.49515,-5.59756 -12.49515,-12.4994 l -7e-5,0 z"
       id="path3471"
       style="fill:#294172;fill-opacity:1" />
    <text
       xml:space="preserve"
       style="font-size:16px;font-style:normal;font-variant:normal;font-weight:bold;font-stretch:expanded;text-align:center;line-height:125%;letter-spacing:0px;word-spacing:0px;writing-mode:lr-tb;text-anchor:middle;fill:#ffffff;fill-opacity:1;stroke:none;font-family:Comfortaa;-inkscape-font-specification:Comfortaa Bold Expanded"
       x="37.609375"
       y="80.428406"
       id="text3860"
       sodipodi:linespacing="125%"><tspan
         sodipodi:role="line"
         id="tspan3862"
         x="37.609375"
         y="80.428406"
         style="text-align:center;text-anchor:middle">6</tspan></text>
    <text
       sodipodi:linespacing="125%"
       id="text3864"
       y="80.428406"
       x="753.75"
       style="font-size:16px;font-style:normal;font-variant:normal;font-weight:normal;font-stretch:normal;text-align:end;line-height:125%;letter-spacing:0px;word-spacing:0px;writing-mode:lr-tb;text-anchor:end;fill:#ffffff;fill-opacity:1;stroke:none;font-family:Comfortaa;-inkscape-font-specification:Comfortaa"
       xml:space="preserve"><tspan
         y="80.428406"
         x="753.75"
         id="tspan3866"
         sodipodi:role="line">FUDCon Panamá — Mayo 26–28, 2011</tspan></text>
    <text
       xml:space="preserve"
       style="font-size:36px;font-style:normal;font-variant:normal;font-weight:normal;font-stretch:normal;text-align:start;line-height:125%;letter-spacing:0px;word-spacing:0px;writing-mode:lr-tb;text-anchor:start;fill:#ffffff;fill-opacity:1;stroke:none;font-family:Comfortaa;-inkscape-font-specification:Comfortaa"
       x="31.728516"
       y="151.54356"
       id="text3880"
       sodipodi:linespacing="125%"><tspan
         sodipodi:role="line"
         id="tspan3882"
         x="31.728516"
         y="151.54356">Cosas que debes saber</tspan></text>
    <g
       id="g3504"
       transform="translate(0.0001, 186.731)">
      <text
         sodipodi:linespacing="125%"
         id="text3862"
         y="239.48114"
         x="33.75"
         style="font-size:28px;font-style:normal;font-variant:normal;font-weight:normal;font-stretch:normal;text-align:start;line-height:125%;letter-spacing:0px;word-spacing:0px;writing-mode:lr-tb;text-anchor:start;fill:#000000;fill-opacity:1;stroke:none;font-family:Comfortaa;-inkscape-font-specification:Comfortaa"
         xml:space="preserve"><tspan
           y="239.48114"
           x="33.75"
           id="tspan3864"
           sodipodi:role="line">Hospitalidad y hack suite</tspan></text>
      <text
         sodipodi:linespacing="125%"
         id="text3868"
         y="273.78668"
         x="32.34375"
         style="font-size:16px;font-style:normal;font-variant:normal;font-weight:500;font-stretch:normal;text-align:start;line-height:125%;letter-spacing:0px;word-spacing:0px;writing-mode:lr-tb;text-anchor:start;fill:#000000;fill-opacity:1;stroke:none;font-family:Cantarell;-inkscape-font-specification:Cantarell Medium"
         xml:space="preserve"><tspan
           id="tspan3883"
           y="273.78668"
           x="32.34375"
           sodipodi:role="line"
           style="font-weight:500;-inkscape-font-specification:Cantarell Medium"><tspan
   id="tspan3887"
   style="font-size:16px;font-style:normal;font-variant:normal;font-weight:bold;font-stretch:normal;text-align:start;line-height:125%;writing-mode:lr-tb;text-anchor:start;font-family:Cantarell;-inkscape-font-specification:Cantarell Bold">Meeting Room A</tspan> in the Courtyard is being provided as</tspan><tspan
           id="tspan3885"
           y="293.92511"
           x="32.34375"
           sodipodi:role="line"
           style="font-weight:500;-inkscape-font-specification:Cantarell Medium">a shared room for group hacking, gaming and so on,</tspan><tspan
           y="313.92511"
           x="32.34375"
           sodipodi:role="line"
           style="font-weight:500;-inkscape-font-specification:Cantarell Medium"
           id="tspan4607">available 24 hours a day throughout the event.</tspan></text>
    </g>
    <g
       id="g3292"
       transform="translate(0.00015, 232.422)">
      <text
         xml:space="preserve"
         style="font-size:28px;font-style:normal;font-variant:normal;font-weight:normal;font-stretch:normal;text-align:start;line-height:125%;letter-spacing:0px;word-spacing:0px;writing-mode:lr-tb;text-anchor:start;fill:#000000;fill-opacity:1;stroke:none;font-family:Comfortaa;-inkscape-font-specification:Comfortaa"
         x="495"
         y="409.23615"
         id="text3318"
         sodipodi:linespacing="125%"><tspan
           sodipodi:role="line"
           id="tspan3320"
           x="495"
           y="409.23615">Microblogging</tspan></text>
      <text
         xml:space="preserve"
         style="font-size:16px;font-style:normal;font-variant:normal;font-weight:500;font-stretch:normal;text-align:start;line-height:125%;letter-spacing:0px;word-spacing:0px;writing-mode:lr-tb;text-anchor:start;fill:#000000;fill-opacity:1;stroke:none;font-family:Cantarell;-inkscape-font-specification:Cantarell Medium"
         x="493.59375"
         y="443.54169"
         id="text3322"
         sodipodi:linespacing="125%"><tspan
           style="font-weight:500;-inkscape-font-specification:Cantarell Medium"
           sodipodi:role="line"
           x="493.59375"
           y="443.54169"
           id="tspan3070">Microblogging es la mejor manera </tspan><tspan
           style="font-weight:500;-inkscape-font-specification:Cantarell Medium"
           sodipodi:role="line"
           x="493.59375"
           y="463.54169"
           id="tspan3343">para promover el FUDCon y recibir</tspan><tspan
           style="font-weight:500;-inkscape-font-specification:Cantarell Medium"
           sodipodi:role="line"
           x="493.59375"
           y="483.54169"
           id="tspan2548">actualizaciones de los organizadores </tspan><tspan
           style="font-weight:500;-inkscape-font-specification:Cantarell Medium"
           sodipodi:role="line"
           x="493.59375"
           y="503.54169"
           id="tspan3345">y asistentes del evento. Use el </tspan><tspan
           style="font-weight:500;-inkscape-font-specification:Cantarell Medium"
           sodipodi:role="line"
           x="493.59375"
           y="523.54169"
           id="tspan3333">hashtag <tspan
   style="fill:#3c6eb4;fill-opacity:1"
   id="tspan3834">#fudcon</tspan>, el cual puede</tspan><tspan
           style="font-weight:500;-inkscape-font-specification:Cantarell Medium"
           sodipodi:role="line"
           x="493.59375"
           y="543.54169"
           id="tspan3348">monitorearse desde tu cliente de </tspan><tspan
           style="font-weight:500;-inkscape-font-specification:Cantarell Medium"
           sodipodi:role="line"
           x="493.59375"
           y="563.54169"
           id="tspan3151">microblogging favorito.</tspan></text>
    </g>
    <g
       id="g3275"
       transform="translate(0.0001, 283.568)">
      <text
         sodipodi:linespacing="125%"
         id="text3355"
         y="440.44409"
         x="33.75"
         style="font-size:28px;font-style:normal;font-variant:normal;font-weight:normal;font-stretch:normal;text-align:start;line-height:125%;letter-spacing:0px;word-spacing:0px;writing-mode:lr-tb;text-anchor:start;fill:#000000;fill-opacity:1;stroke:none;font-family:Comfortaa;-inkscape-font-specification:Comfortaa"
         xml:space="preserve"><tspan
           y="440.44409"
           x="33.75"
           id="tspan3357"
           sodipodi:role="line">FUDPub (Sábado)</tspan></text>
      <text
         sodipodi:linespacing="125%"
         id="text3359"
         y="474.74963"
         x="32.34375"
         style="font-size:16px;font-style:normal;font-variant:normal;font-weight:500;font-stretch:normal;text-align:start;line-height:125%;letter-spacing:0px;word-spacing:0px;writing-mode:lr-tb;text-anchor:start;fill:#000000;fill-opacity:1;stroke:none;font-family:Cantarell;-inkscape-font-specification:Cantarell Medium"
         xml:space="preserve"><tspan
           y="474.74963"
           x="32.34375"
           sodipodi:role="line"
           style="font-weight:500;letter-spacing:0px;-inkscape-font-specification:Cantarell Medium"
           id="tspan3414">An annual tradition! Please join us in the ASU Memorial</tspan><tspan
           y="494.74963"
           x="32.34375"
           sodipodi:role="line"
           style="font-weight:500;letter-spacing:0px;-inkscape-font-specification:Cantarell Medium"
           id="tspan3418">Union recreation center, <tspan
   style="font-weight:bold;letter-spacing:0px;-inkscape-font-specification:Cantarell Bold"
   id="tspan3301">Sparky’s Den</tspan>, Saturday night</tspan><tspan
           y="514.88806"
           x="32.34375"
           sodipodi:role="line"
           style="font-weight:500;letter-spacing:0px;-inkscape-font-specification:Cantarell Medium"
           id="tspan3244">from 6:00 to 11:00 p.m. We’ll have food, drinks and</tspan><tspan
           y="534.88806"
           x="32.34375"
           sodipodi:role="line"
           style="font-weight:500;letter-spacing:0px;-inkscape-font-specification:Cantarell Medium"
           id="tspan3422">plenty of recreational activities, including board games,</tspan><tspan
           y="554.88806"
           x="32.34375"
           sodipodi:role="line"
           style="font-weight:500;letter-spacing:0px;-inkscape-font-specification:Cantarell Medium"
           id="tspan3250">pool, bowling and video games. Don’t forget to catch</tspan><tspan
           y="574.88806"
           x="32.34375"
           sodipodi:role="line"
           style="font-weight:500;letter-spacing:0px;-inkscape-font-specification:Cantarell Medium"
           id="tspan4262">Jared giving The Highly Esteemed Fedora Project</tspan><tspan
           y="594.88806"
           x="32.34375"
           sodipodi:role="line"
           style="font-weight:500;letter-spacing:0px;-inkscape-font-specification:Cantarell Medium"
           id="tspan3256">Leader’s World-Famous State of Fedora address!</tspan><tspan
           y="614.88806"
           x="32.34375"
           sodipodi:role="line"
           style="font-weight:500;letter-spacing:0px;-inkscape-font-specification:Cantarell Medium"
           id="tspan3424" /><tspan
           y="634.88806"
           x="32.34375"
           sodipodi:role="line"
           style="font-weight:500;letter-spacing:0px;-inkscape-font-specification:Cantarell Medium"
           id="tspan3428">All ages are welcome, but bartending staff will be</tspan><tspan
           y="654.88806"
           x="32.34375"
           sodipodi:role="line"
           style="font-weight:500;letter-spacing:0px;-inkscape-font-specification:Cantarell Medium"
           id="tspan3262">checking IDs for alcoholic beverages. The legal drinking</tspan><tspan
           y="674.88806"
           x="32.34375"
           sodipodi:role="line"
           style="font-weight:500;letter-spacing:0px;-inkscape-font-specification:Cantarell Medium"
           id="tspan3114">age in Arizona is 21.</tspan><tspan
           y="694.88806"
           x="32.34375"
           sodipodi:role="line"
           style="font-weight:500;letter-spacing:0px;-inkscape-font-specification:Cantarell Medium"
           id="tspan3432" /><tspan
           y="714.88806"
           x="32.34375"
           sodipodi:role="line"
           style="font-weight:500;letter-spacing:0px;-inkscape-font-specification:Cantarell Medium"
           id="tspan3436">Check the map (page 4) for the location of the ASU</tspan><tspan
           y="734.88806"
           x="32.34375"
           sodipodi:role="line"
           style="font-size:16px;font-style:normal;font-variant:normal;font-weight:500;font-stretch:normal;text-align:start;line-height:125%;letter-spacing:0px;writing-mode:lr-tb;text-anchor:start;fill:#000000;fill-opacity:1;font-family:Cantarell;-inkscape-font-specification:Cantarell Medium"
           id="tspan3276">Memorial Union. Sparky’s Den is on the lower level.</tspan></text>
    </g>
    <g
       transform="translate(0.00015, -169.796)"
       id="g3351">
      <text
         sodipodi:linespacing="125%"
         id="text3353"
         y="409.23615"
         x="495"
         style="font-size:28px;font-style:normal;font-variant:normal;font-weight:normal;font-stretch:normal;text-align:start;line-height:125%;letter-spacing:0px;word-spacing:0px;writing-mode:lr-tb;text-anchor:start;fill:#000000;fill-opacity:1;stroke:none;font-family:Comfortaa;-inkscape-font-specification:Comfortaa"
         xml:space="preserve"><tspan
           y="409.23615"
           x="495"
           id="tspan3355"
           sodipodi:role="line">Blogging</tspan></text>
      <text
         sodipodi:linespacing="125%"
         id="text3357"
         y="443.54169"
         x="493.59375"
         style="font-size:16px;font-style:normal;font-variant:normal;font-weight:500;font-stretch:normal;text-align:start;line-height:125%;letter-spacing:0px;word-spacing:0px;writing-mode:lr-tb;text-anchor:start;fill:#000000;fill-opacity:1;stroke:none;font-family:Cantarell;-inkscape-font-specification:Cantarell Medium"
         xml:space="preserve"><tspan
           id="tspan3385"
           y="443.54169"
           x="493.59375"
           sodipodi:role="line"
           style="font-weight:500;-inkscape-font-specification:Cantarell Medium">Si escribes en el blog sobre el</tspan><tspan
           y="463.54169"
           x="493.59375"
           sodipodi:role="line"
           style="font-weight:500;-inkscape-font-specification:Cantarell Medium"
           id="tspan3474">FUDCon, te damos la bienvenida </tspan><tspan
           y="483.54169"
           x="493.59375"
           sodipodi:role="line"
           style="font-weight:500;-inkscape-font-specification:Cantarell Medium"
           id="tspan3476">para que te unas al Fedora Planet.</tspan><tspan
           y="503.54169"
           x="493.59375"
           sodipodi:role="line"
           style="font-weight:500;-inkscape-font-specification:Cantarell Medium"
           id="tspan3488">Agrega tu blog al Planet requieres</tspan><tspan
           y="523.54169"
           x="493.59375"
           sodipodi:role="line"
           style="font-weight:500;-inkscape-font-specification:Cantarell Medium"
           id="tspan3490">una cuenta FAS que haya firamado </tspan><tspan
           y="543.54169"
           x="493.59375"
           sodipodi:role="line"
           style="font-weight:500;-inkscape-font-specification:Cantarell Medium"
           id="tspan3492">el CLA y sea aprobado por un grupo</tspan><tspan
           y="563.54169"
           x="493.59375"
           sodipodi:role="line"
           style="font-weight:500;-inkscape-font-specification:Cantarell Medium"
           id="tspan3498">adicional. Si eres nuevo a Fedora</tspan><tspan
           y="583.54169"
           x="493.59375"
           sodipodi:role="line"
           style="font-weight:500;-inkscape-font-specification:Cantarell Medium"
           id="tspan3500">pero conoces a alguien que desearía</tspan><tspan
           y="603.54169"
           x="493.59375"
           sodipodi:role="line"
           style="font-weight:500;-inkscape-font-specification:Cantarell Medium"
           id="tspan4589">agregar tu blog al Planet, pregúntales.</tspan><tspan
           y="623.54169"
           x="493.59375"
           sodipodi:role="line"
           style="font-weight:500;-inkscape-font-specification:Cantarell Medium"
           id="tspan3153" /><tspan
           y="643.54169"
           x="493.59375"
           sodipodi:role="line"
           style="font-weight:500;-inkscape-font-specification:Cantarell Medium"
           id="tspan3159">Si fuiste patrocinado para asistir al</tspan><tspan
           y="663.54169"
           x="493.59375"
           sodipodi:role="line"
           style="font-weight:500;-inkscape-font-specification:Cantarell Medium"
           id="tspan3169">FUDCon, te solicitamos que escribas </tspan><tspan
           y="683.54169"
           x="493.59375"
           sodipodi:role="line"
           style="font-weight:500;-inkscape-font-specification:Cantarell Medium"
           id="tspan3171">al menos un blog para el Planet.</tspan><tspan
           y="723.54169"
           x="493.59375"
           sodipodi:role="line"
           style="font-weight:500;-inkscape-font-specification:Cantarell Medium"
           id="tspan3478" /><tspan
           y="742.49475"
           x="493.59375"
           sodipodi:role="line"
           style="font-size:16px;font-style:normal;font-variant:normal;font-weight:normal;font-stretch:normal;text-align:start;line-height:125%;writing-mode:lr-tb;text-anchor:start;fill:#3c6eb4;font-family:Liberation Mono;-inkscape-font-specification:Liberation Mono"
           id="tspan3480">planet.fedoraproject.org</tspan><tspan
           y="763.54169"
           x="493.59375"
           sodipodi:role="line"
           style="font-weight:500;-inkscape-font-specification:Cantarell Medium"
           id="tspan3482">Como unirse:&lt; <tspan
   style="font-size:16px;font-style:normal;font-variant:normal;font-weight:normal;font-stretch:normal;text-align:start;line-height:125%;writing-mode:lr-tb;text-anchor:start;fill:#3c6eb4;font-family:Liberation Mono;-inkscape-font-specification:Liberation Mono"
   id="tspan3486">ur1.ca/2rwbu </tspan></tspan></text>
    </g>
    <g
       id="g3513"
       transform="translate(0.0001, 315.7)">
      <text
         xml:space="preserve"
         style="font-size:28px;font-style:normal;font-variant:normal;font-weight:normal;font-stretch:normal;text-align:start;line-height:125%;letter-spacing:0px;word-spacing:0px;writing-mode:lr-tb;text-anchor:start;fill:#000000;fill-opacity:1;stroke:none;font-family:Comfortaa;-inkscape-font-specification:Comfortaa"
         x="33.75"
         y="239.48114"
         id="text3515"
         sodipodi:linespacing="125%"><tspan
           sodipodi:role="line"
           id="tspan3517"
           x="33.75"
           y="239.48114">Noches de Juego (Viernes y Sábado)</tspan></text>
      <text
         xml:space="preserve"
         style="font-size:16px;font-style:normal;font-variant:normal;font-weight:500;font-stretch:normal;text-align:start;line-height:125%;letter-spacing:0px;word-spacing:0px;writing-mode:lr-tb;text-anchor:start;fill:#000000;fill-opacity:1;stroke:none;font-family:Cantarell;-inkscape-font-specification:Cantarell Medium"
         x="32.34375"
         y="273.78668"
         id="text3519"
         sodipodi:linespacing="125%"><tspan
           style="font-weight:500;-inkscape-font-specification:Cantarell Medium"
           sodipodi:role="line"
           x="32.34375"
           y="273.78668"
           id="tspan3527">Meet your fellow Fedorans and enjoy some of the </tspan><tspan
           style="font-weight:500;-inkscape-font-specification:Cantarell Medium"
           sodipodi:role="line"
           x="32.34375"
           y="293.78668"
           id="tspan3536">geekiest board games we can find! We'll set up in the</tspan><tspan
           style="font-weight:500;letter-spacing:-0.30000001px;-inkscape-font-specification:Cantarell Medium"
           sodipodi:role="line"
           x="32.34375"
           y="313.78668"
           id="tspan3562">hospitality suite on a first-come, first-served sort of thing.</tspan><tspan
           style="font-weight:500;-inkscape-font-specification:Cantarell Medium"
           sodipodi:role="line"
           x="32.34375"
           y="333.78668"
           id="tspan3554" /><tspan
           style="font-weight:500;-inkscape-font-specification:Cantarell Medium"
           sodipodi:role="line"
           x="32.34375"
           y="353.78668"
           id="tspan3556">Full game list: <tspan
   style="font-size:16px;font-style:normal;font-variant:normal;font-weight:normal;font-stretch:normal;text-align:start;line-height:125%;writing-mode:lr-tb;text-anchor:start;fill:#3c6eb4;font-family:Liberation Mono;-inkscape-font-specification:Liberation Mono"
   id="tspan3558">ur1.ca/2rwdp</tspan></tspan></text>
    </g>
    <path
       style="fill:none;stroke:#8c8c8c;stroke-width:1.25;stroke-linecap:square;stroke-linejoin:miter;stroke-miterlimit:4;stroke-opacity:1;stroke-dasharray:none"
       d="m 472.5,219.86199 0,798.75001"
       id="path3067"
       inkscape:connector-curvature="0" />
    <g
       transform="translate(0.00015, 434.914)"
       id="g4412">
      <text
         sodipodi:linespacing="125%"
         id="text4414"
         y="409.23615"
         x="495"
         style="font-size:28px;font-style:normal;font-variant:normal;font-weight:normal;font-stretch:normal;text-align:start;line-height:125%;letter-spacing:0px;word-spacing:0px;writing-mode:lr-tb;text-anchor:start;fill:#000000;fill-opacity:1;stroke:none;font-family:Comfortaa;-inkscape-font-specification:Comfortaa"
         xml:space="preserve"><tspan
           y="409.23615"
           x="495"
           id="tspan4416"
           sodipodi:role="line">IRC canales</tspan></text>
      <text
         sodipodi:linespacing="125%"
         id="text4418"
         y="443.54169"
         x="493.59375"
         style="font-size:16px;font-style:normal;font-variant:normal;font-weight:500;font-stretch:normal;text-align:start;line-height:125%;letter-spacing:0px;word-spacing:0px;writing-mode:lr-tb;text-anchor:start;fill:#000000;fill-opacity:1;stroke:none;font-family:Cantarell;-inkscape-font-specification:Cantarell Medium"
         xml:space="preserve"><tspan
           id="tspan4446"
           y="443.54169"
           x="493.59375"
           sodipodi:role="line"
           style="font-size:16px;font-style:normal;font-variant:normal;font-weight:500;font-stretch:normal;text-align:start;line-height:125%;writing-mode:lr-tb;text-anchor:start;font-family:Cantarell;-inkscape-font-specification:Cantarell Medium">Nuestro canal IRC canal principal</tspan><tspan
           y="463.54169"
           x="493.59375"
           sodipodi:role="line"
           style="font-size:16px;font-style:normal;font-variant:normal;font-weight:500;font-stretch:normal;text-align:start;line-height:125%;writing-mode:lr-tb;text-anchor:start;font-family:Cantarell;-inkscape-font-specification:Cantarell Medium"
           id="tspan4558">en Freenode es<tspan
   style="font-size:16px;font-style:normal;font-variant:normal;font-weight:500;font-stretch:normal;text-align:start;line-height:125%;writing-mode:lr-tb;text-anchor:start;fill:#3c6eb4;font-family:Cantarell;-inkscape-font-specification:Cantarell Medium"
   id="tspan4536">#fedora-fudcon</tspan>. Si</tspan><tspan
           y="483.54169"
           x="493.59375"
           sodipodi:role="line"
           style="font-size:16px;font-style:normal;font-variant:normal;font-weight:500;font-stretch:normal;text-align:start;line-height:125%;writing-mode:lr-tb;text-anchor:start;font-family:Cantarell;-inkscape-font-specification:Cantarell Medium"
           id="tspan4569">esta transcribiendo la sesión, </tspan><tspan
           y="503.54169"
           x="493.59375"
           sodipodi:role="line"
           style="font-size:16px;font-style:normal;font-variant:normal;font-weight:500;font-stretch:normal;text-align:start;line-height:125%;writing-mode:lr-tb;text-anchor:start;font-family:Cantarell;-inkscape-font-specification:Cantarell Medium"
           id="tspan2514">oor favor informe el nombre de la </tspan><tspan
           y="523.54169"
           x="493.59375"
           sodipodi:role="line"
           style="font-size:16px;font-style:normal;font-variant:normal;font-weight:500;font-stretch:normal;text-align:start;line-height:125%;writing-mode:lr-tb;text-anchor:start;font-family:Cantarell;-inkscape-font-specification:Cantarell Medium"
           id="tspan4571">sesión y el canal IRC al canal </tspan><tspan
           y="543.54169"
           x="493.59375"
           sodipodi:role="line"
           style="font-size:16px;font-style:normal;font-variant:normal;font-weight:500;font-stretch:normal;text-align:start;line-height:125%;writing-mode:lr-tb;text-anchor:start;font-family:Cantarell;-inkscape-font-specification:Cantarell Medium"
           id="tspan2524">principal. Si estas usando Gobby</tspan><tspan
           y="563.54169"
           x="493.59375"
           sodipodi:role="line"
           style="font-size:16px;font-style:normal;font-variant:normal;font-weight:500;font-stretch:normal;text-align:start;line-height:125%;writing-mode:lr-tb;text-anchor:start;font-family:Cantarell;-inkscape-font-specification:Cantarell Medium"
           id="tspan4591">Gobby o EtherPad en hackfest, </tspan><tspan
           y="583.54169"
           x="493.59375"
           sodipodi:role="line"
           style="font-size:16px;font-style:normal;font-variant:normal;font-weight:500;font-stretch:normal;text-align:start;line-height:125%;writing-mode:lr-tb;text-anchor:start;font-family:Cantarell;-inkscape-font-specification:Cantarell Medium"
           id="tspan4593">notifique de esto al canal principal.</tspan></text>
    </g>
    <g
       transform="translate(0.0001, -200.867)"
       id="g3207">
      <text
         xml:space="preserve"
         style="font-size:28px;font-style:normal;font-variant:normal;font-weight:normal;font-stretch:normal;text-align:start;line-height:125%;letter-spacing:0px;word-spacing:0px;writing-mode:lr-tb;text-anchor:start;fill:#000000;fill-opacity:1;stroke:none;font-family:Comfortaa;-inkscape-font-specification:Comfortaa"
         x="33.75"
         y="440.44409"
         id="text3209"
         sodipodi:linespacing="125%"><tspan
           sodipodi:role="line"
           id="tspan3211"
           x="33.75"
           y="440.44409">Emergencias</tspan></text>
      <text
         xml:space="preserve"
         style="font-size:16px;font-style:normal;font-variant:normal;font-weight:500;font-stretch:normal;text-align:start;line-height:125%;letter-spacing:0px;word-spacing:0px;writing-mode:lr-tb;text-anchor:start;fill:#000000;fill-opacity:1;stroke:none;font-family:Cantarell;-inkscape-font-specification:Cantarell Medium"
         x="32.34375"
         y="474.74963"
         id="text3213"
         sodipodi:linespacing="125%"><tspan
           style="font-size:16px;font-style:normal;font-variant:normal;font-weight:bold;font-stretch:normal;text-align:start;line-height:125%;letter-spacing:-0.2px;writing-mode:lr-tb;text-anchor:start;fill:#000000;fill-opacity:1;font-family:Cantarell;-inkscape-font-specification:Cantarell Bold"
           sodipodi:role="line"
           x="32.34375"
           y="474.74963"
           id="tspan3113">In an emergency, CALL 911.<tspan
   style="font-weight:500;letter-spacing:-0.2px;-inkscape-font-specification:Cantarell Medium"
   id="tspan3111"> If you can, have someone</tspan></tspan><tspan
           style="font-size:16px;font-style:normal;font-variant:normal;font-weight:500;font-stretch:normal;text-align:start;line-height:125%;letter-spacing:-0.2px;writing-mode:lr-tb;text-anchor:start;fill:#000000;fill-opacity:1;font-family:Cantarell;-inkscape-font-specification:Cantarell Medium"
           sodipodi:role="line"
           x="32.34375"
           y="494.88806"
           id="tspan3121">contact an event organizer as well by IRC, email or phone.</tspan><tspan
           style="font-size:16px;font-style:normal;font-variant:normal;font-weight:500;font-stretch:normal;text-align:start;line-height:125%;letter-spacing:0px;writing-mode:lr-tb;text-anchor:start;fill:#000000;fill-opacity:1;font-family:Cantarell;-inkscape-font-specification:Cantarell Medium"
           sodipodi:role="line"
           x="32.34375"
           y="514.88806"
           id="tspan3453" /><tspan
           style="font-size:16px;font-style:normal;font-variant:normal;font-weight:500;font-stretch:normal;text-align:start;line-height:125%;letter-spacing:-0.71672899;writing-mode:lr-tb;text-anchor:start;fill:#000000;fill-opacity:1;font-family:Cantarell;-inkscape-font-specification:Cantarell Medium"
           sodipodi:role="line"
           x="32.34375"
           y="534.88806"
           id="tspan3455">ASU Police Department (non-emergencies): (480) 965-3456</tspan><tspan
           style="font-size:16px;font-style:normal;font-variant:normal;font-weight:500;font-stretch:normal;text-align:start;line-height:125%;letter-spacing:-0.95999998px;writing-mode:lr-tb;text-anchor:start;fill:#000000;fill-opacity:1;font-family:Cantarell;-inkscape-font-specification:Cantarell Medium"
           sodipodi:role="line"
           x="32.34375"
           y="554.88806"
           id="tspan3110">Tempe Police Department (non-emergencies): (480) 350-8311</tspan><tspan
           style="font-size:16px;font-style:normal;font-variant:normal;font-weight:500;font-stretch:normal;text-align:start;line-height:125%;letter-spacing:0px;writing-mode:lr-tb;text-anchor:start;fill:#000000;fill-opacity:1;font-family:Cantarell;-inkscape-font-specification:Cantarell Medium"
           sodipodi:role="line"
           x="32.34375"
           y="574.88806"
           id="tspan3457">Tempe St. Luke’s Hospital: (480) 784-5500</tspan></text>
    </g>
  </g>
</svg>
