<?xml version="1.0" encoding="UTF-8" standalone="no"?>
<!-- Created with Inkscape (http://www.inkscape.org/) -->
<svg
   xmlns:dc="http://purl.org/dc/elements/1.1/"
   xmlns:cc="http://creativecommons.org/ns#"
   xmlns:rdf="http://www.w3.org/1999/02/22-rdf-syntax-ns#"
   xmlns:svg="http://www.w3.org/2000/svg"
   xmlns="http://www.w3.org/2000/svg"
   xmlns:sodipodi="http://sodipodi.sourceforge.net/DTD/sodipodi-0.dtd"
   xmlns:inkscape="http://www.inkscape.org/namespaces/inkscape"
   width="787.5"
   height="1012.5"
   id="svg2"
   version="1.1"
   inkscape:version="0.46"
   sodipodi:docname="page11-local-vendors-right-spa.svg"
   inkscape:export-filename="/home/ianweller/fudcon-tempe-booklet/template-left.png"
   inkscape:export-xdpi="90"
   inkscape:export-ydpi="90"
   sodipodi:version="0.32"
   inkscape:output_extension="org.inkscape.output.svg.inkscape">
  <defs
     id="defs4">
    <inkscape:perspective
       sodipodi:type="inkscape:persp3d"
       inkscape:vp_x="0 : 506.25 : 1"
       inkscape:vp_y="0 : 1000 : 0"
       inkscape:vp_z="787.5 : 506.25 : 1"
       inkscape:persp3d-origin="393.75 : 337.5 : 1"
       id="perspective136" />
  </defs>
  <sodipodi:namedview
     id="base"
     pagecolor="#ffffff"
     bordercolor="#666666"
     borderopacity="1.0"
     inkscape:pageopacity="0.0"
     inkscape:pageshadow="2"
     inkscape:zoom="1.1263492"
     inkscape:cx="345.82321"
     inkscape:cy="770.89769"
     inkscape:document-units="in"
     inkscape:current-layer="layer1"
     showgrid="true"
     units="in"
     inkscape:window-width="1272"
     inkscape:window-height="783"
     inkscape:window-x="0"
     inkscape:window-y="0"
     inkscape:window-maximized="1"
     showguides="true"
     inkscape:guide-bbox="true"
     inkscape:snap-bbox="true"
     inkscape:snap-page="false"
     inkscape:snap-nodes="true"
     inkscape:bbox-paths="false">
    <sodipodi:guide
       position="0,11.25"
       orientation="0,1"
       id="guide2985" />
    <sodipodi:guide
       position="776.25,0"
       orientation="1,0"
       id="guide2987" />
    <sodipodi:guide
       position="787.5,1001.25"
       orientation="0,1"
       id="guide2989" />
    <sodipodi:guide
       position="11.25,1012.5"
       orientation="1,0"
       id="guide2991" />
    <sodipodi:guide
       orientation="1,0"
       position="753.75,824"
       id="guide3872" />
    <sodipodi:guide
       orientation="1,0"
       position="33.75,762"
       id="guide3878" />
    <sodipodi:guide
       orientation="0,1"
       position="257,928.17"
       id="guide3884" />
    <sodipodi:guide
       orientation="0,1"
       position="297,33.75"
       id="guide3970" />
    <sodipodi:guide
       orientation="0,1"
       position="287,855"
       id="guide3972" />
    <sodipodi:guide
       orientation="0,1"
       position="35.753906,953.73"
       id="guide3017" />
    <sodipodi:guide
       orientation="0,1"
       position="311,990"
       id="guide3810" />
    <sodipodi:guide
       position="0,0"
       orientation="0,787.5"
       id="guide3812" />
    <sodipodi:guide
       position="787.5,0"
       orientation="-1012.5,0"
       id="guide3814" />
    <sodipodi:guide
       position="787.5,1012.5"
       orientation="0,-787.5"
       id="guide3816" />
    <sodipodi:guide
       position="0,1012.5"
       orientation="1012.5,0"
       id="guide3818" />
    <sodipodi:guide
       orientation="0,1"
       position="341,832.5"
       id="guide3820" />
    <sodipodi:guide
       orientation="1,0"
       position="393.75,67.882251"
       id="guide4019" />
    <sodipodi:guide
       orientation="1,0"
       position="371.25,87.681241"
       id="guide4021" />
    <sodipodi:guide
       orientation="1,0"
       position="416.25,128.69343"
       id="guide4023" />
    <inkscape:grid
       type="xygrid"
       id="grid3110" />
  </sodipodi:namedview>
  <metadata
     id="metadata7">
    <rdf:RDF>
      <cc:Work
         rdf:about="">
        <dc:format>image/svg+xml</dc:format>
        <dc:type
           rdf:resource="http://purl.org/dc/dcmitype/StillImage" />
        <dc:title />
      </cc:Work>
    </rdf:RDF>
  </metadata>
  <g
     inkscape:groupmode="layer"
     id="layer2"
     inkscape:label="bounding"
     sodipodi:insensitive="true">
    <rect
       style="fill:#ffffff;fill-opacity:1;stroke:none"
       id="rect3010"
       width="787.5"
       height="1012.5"
       x="0"
       y="0" />
  </g>
  <g
     inkscape:label="Layer 1"
     inkscape:groupmode="layer"
     id="layer1"
     transform="translate(0, -39.862)">
    <rect
       style="fill:#a07cbc;fill-opacity:1;stroke:none"
       id="rect3876"
       width="787.5"
       height="125"
       x="8.629919e-15"
       y="72.362" />
    <rect
       style="fill:#3c6eb4;fill-opacity:1;stroke:none"
       id="rect2988"
       width="787.50006"
       height="58.77"
       x="0"
       y="39.862" />
    <path
       inkscape:connector-curvature="0"
       d="m 762.5156,74.862599 c 0,-6.90384 -5.59636,-12.5006 -12.49996,-12.5006 -6.90039,0 -12.49455,5.59215 -12.49955,12.49179 l -4.4e-4,-4.3e-4 0,9.67339 4.4e-4,4.3e-4 c 0.004,1.56658 1.2742,2.83482 2.84173,2.83482 0.004,0 0.009,-2.9e-4 0.0134,-2.9e-4 l 7.4e-4,2.9e-4 9.64842,0 0,0 c 6.90159,-0.003 12.49515,-5.59756 12.49515,-12.4994 l 7e-5,0 z"
       id="path3471"
       style="fill:#294172;fill-opacity:1" />
    <text
       xml:space="preserve"
       style="font-size:16px;font-style:normal;font-variant:normal;font-weight:bold;font-stretch:expanded;text-align:center;line-height:125%;letter-spacing:0px;word-spacing:0px;writing-mode:lr-tb;text-anchor:middle;fill:#ffffff;fill-opacity:1;stroke:none;font-family:Comfortaa;-inkscape-font-specification:Comfortaa Bold Expanded"
       x="750.14062"
       y="80.428406"
       id="text3860"
       sodipodi:linespacing="125%"><tspan
         sodipodi:role="line"
         id="tspan3862"
         x="750.14062"
         y="80.428406"
         style="text-align:center;text-anchor:middle">11</tspan></text>
    <text
       sodipodi:linespacing="125%"
       id="text3864"
       y="80.428406"
       x="33.75"
       style="font-size:16px;font-style:normal;font-variant:normal;font-weight:normal;font-stretch:normal;text-align:start;line-height:125%;letter-spacing:0px;word-spacing:0px;writing-mode:lr-tb;text-anchor:start;fill:#ffffff;fill-opacity:1;stroke:none;font-family:Comfortaa;-inkscape-font-specification:Comfortaa"
       xml:space="preserve"><tspan
         y="80.428406"
         x="33.75"
         id="tspan3866"
         sodipodi:role="line">Ciudad del Saber, Panamá, PA, PANAMA</tspan></text>
    <text
       sodipodi:linespacing="125%"
       id="text3576"
       y="324.25137"
       x="-194.98245"
       style="font-size:16px;font-style:normal;font-variant:normal;font-weight:500;font-stretch:normal;text-align:start;line-height:125%;letter-spacing:0px;word-spacing:0px;writing-mode:lr-tb;text-anchor:start;fill:#000000;fill-opacity:1;stroke:none;font-family:Cantarell;-inkscape-font-specification:Cantarell Medium"
       xml:space="preserve"><tspan
         style="font-size:18px;font-style:normal;font-variant:normal;font-weight:bold;font-stretch:normal;text-align:start;line-height:125%;writing-mode:lr-tb;text-anchor:start;font-family:Cantarell;-inkscape-font-specification:Cantarell Bold"
         id="tspan3578"
         y="324.25137"
         x="-194.98245"
         sodipodi:role="line">Template</tspan><tspan
         id="tspan3580"
         y="345.03909"
         x="-194.98245"
         sodipodi:role="line">Address</tspan><tspan
         style="font-size:16px;font-style:normal;font-variant:normal;font-weight:500;font-stretch:normal;text-align:start;line-height:125%;writing-mode:lr-tb;text-anchor:start;fill:#000000;fill-opacity:1;font-family:Cantarell;-inkscape-font-specification:Cantarell Medium"
         id="tspan3582"
         y="365.03909"
         x="-194.98245"
         sodipodi:role="line">Phone Number</tspan><tspan
         dx="0.35355338"
         id="tspan3584"
         style="font-size:16px;font-style:normal;font-variant:normal;font-weight:normal;font-stretch:normal;text-align:start;line-height:125%;writing-mode:lr-tb;text-anchor:start;fill:#3c6eb4;fill-opacity:1;font-family:Liberation Mono;-inkscape-font-specification:Liberation Mono"
         y="385.01468"
         x="-194.98245"
         sodipodi:role="line">www.example.com</tspan></text>
    <text
       sodipodi:linespacing="125%"
       id="text3147"
       y="284.02182"
       x="-176.75598"
       style="font-size:28px;font-style:normal;font-variant:normal;font-weight:normal;font-stretch:normal;text-align:start;line-height:125%;letter-spacing:0px;word-spacing:0px;writing-mode:lr-tb;text-anchor:start;fill:#000000;fill-opacity:1;stroke:none;font-family:Comfortaa;-inkscape-font-specification:Comfortaa"
       xml:space="preserve"><tspan
         y="284.02182"
         x="-176.75598"
         id="tspan3149"
         sodipodi:role="line">Template</tspan></text>
    <g
       id="g3969"
       transform="translate(0, 18.9945)">
      <text
         sodipodi:linespacing="125%"
         id="text3433"
         y="936.99481"
         x="33.75"
         style="font-size:28px;font-style:normal;font-variant:normal;font-weight:normal;font-stretch:normal;text-align:start;line-height:125%;letter-spacing:0px;word-spacing:0px;writing-mode:lr-tb;text-anchor:start;fill:#000000;fill-opacity:1;stroke:none;font-family:Comfortaa;-inkscape-font-specification:Comfortaa"
         xml:space="preserve"><tspan
           y="936.99481"
           x="33.75"
           id="tspan3435"
           sodipodi:role="line">Taxi</tspan></text>
      <text
         sodipodi:linespacing="125%"
         id="text3441"
         y="975.64227"
         x="33.232384"
         style="font-size:16px;font-style:normal;font-variant:normal;font-weight:500;font-stretch:normal;text-align:start;line-height:125%;letter-spacing:0px;word-spacing:0px;writing-mode:lr-tb;text-anchor:start;fill:#000000;fill-opacity:1;stroke:none;font-family:Cantarell;-inkscape-font-specification:Cantarell Medium"
         xml:space="preserve"><tspan
           style="font-size:18px;font-style:normal;font-variant:normal;font-weight:bold;font-stretch:normal;text-align:start;line-height:125%;writing-mode:lr-tb;text-anchor:start;font-family:Cantarell;-inkscape-font-specification:Cantarell Bold"
           id="tspan3443"
           y="975.64227"
           x="33.232384"
           sodipodi:role="line">Discount Cab</tspan><tspan
           dx="0 0 0 0 0 0 0 0 0 0 0 0 0 0"
           id="tspan3449"
           style="font-size:16px;font-style:normal;font-variant:normal;font-weight:500;font-stretch:normal;text-align:start;line-height:125%;writing-mode:lr-tb;text-anchor:start;fill:#000000;fill-opacity:1;font-family:Cantarell;-inkscape-font-specification:Cantarell Medium"
           y="996.42999"
           x="33.232384"
           sodipodi:role="line">(602) 200-2000</tspan></text>
    </g>
    <path
       style="fill:none;stroke:#8c8c8c;stroke-width:1.25999987;stroke-linecap:square;stroke-linejoin:miter;stroke-miterlimit:4;stroke-opacity:1;stroke-dasharray:none"
       d="m 393.75,219.862 0,798.75"
       id="path3067"
       inkscape:connector-curvature="0" />
    <g
       id="g3999"
       transform="translate(0, 1.16651e-05)">
      <text
         sodipodi:linespacing="125%"
         id="text3303"
         y="278.14227"
         x="33.232384"
         style="font-size:16px;font-style:normal;font-variant:normal;font-weight:500;font-stretch:normal;text-align:start;line-height:125%;letter-spacing:0px;word-spacing:0px;writing-mode:lr-tb;text-anchor:start;fill:#000000;fill-opacity:1;stroke:none;font-family:Cantarell;-inkscape-font-specification:Cantarell Medium"
         xml:space="preserve"><tspan
           style="font-size:18px;font-style:normal;font-variant:normal;font-weight:bold;font-stretch:normal;text-align:start;line-height:125%;writing-mode:lr-tb;text-anchor:start;font-family:Cantarell;-inkscape-font-specification:Cantarell Bold"
           id="tspan3305"
           y="278.14227"
           x="33.232384"
           sodipodi:role="line">Chase Bank</tspan><tspan
           style="font-size:16px;font-style:normal;font-variant:normal;font-weight:500;font-stretch:normal;text-align:start;line-height:125%;writing-mode:lr-tb;text-anchor:start;fill:#000000;fill-opacity:1;font-family:Cantarell;-inkscape-font-specification:Cantarell Medium"
           id="tspan3309"
           y="298.92999"
           x="33.232384"
           sodipodi:role="line">20 E University Dr</tspan><tspan
           dx="0.35355338"
           id="tspan3311"
           style="font-size:16px;font-style:normal;font-variant:normal;font-weight:normal;font-stretch:normal;text-align:start;line-height:125%;writing-mode:lr-tb;text-anchor:start;fill:#3c6eb4;fill-opacity:1;font-family:Liberation Mono;-inkscape-font-specification:Liberation Mono"
           y="318.90558"
           x="33.232384"
           sodipodi:role="line">www.chase.com</tspan></text>
      <text
         sodipodi:linespacing="125%"
         id="text3317"
         y="345.64227"
         x="33.232384"
         style="font-size:16px;font-style:normal;font-variant:normal;font-weight:500;font-stretch:normal;text-align:start;line-height:125%;letter-spacing:0px;word-spacing:0px;writing-mode:lr-tb;text-anchor:start;fill:#000000;fill-opacity:1;stroke:none;font-family:Cantarell;-inkscape-font-specification:Cantarell Medium"
         xml:space="preserve"><tspan
           style="font-size:18px;font-style:normal;font-variant:normal;font-weight:bold;font-stretch:normal;text-align:start;line-height:125%;writing-mode:lr-tb;text-anchor:start;font-family:Cantarell;-inkscape-font-specification:Cantarell Bold"
           id="tspan3319"
           y="345.64227"
           x="33.232384"
           sodipodi:role="line">Bank of America</tspan><tspan
           style="font-size:16px;font-style:normal;font-variant:normal;font-weight:500;font-stretch:normal;text-align:start;line-height:125%;writing-mode:lr-tb;text-anchor:start;fill:#000000;fill-opacity:1;font-family:Cantarell;-inkscape-font-specification:Cantarell Medium"
           id="tspan3323"
           y="366.42999"
           x="33.232384"
           sodipodi:role="line">699 S Mill Ave</tspan><tspan
           dx="0.35355338"
           id="tspan3325"
           style="font-size:16px;font-style:normal;font-variant:normal;font-weight:normal;font-stretch:normal;text-align:start;line-height:125%;writing-mode:lr-tb;text-anchor:start;fill:#3c6eb4;fill-opacity:1;font-family:Liberation Mono;-inkscape-font-specification:Liberation Mono"
           y="386.40558"
           x="33.232384"
           sodipodi:role="line">www.bofa.com</tspan></text>
      <text
         sodipodi:linespacing="125%"
         id="text3331"
         y="413.14227"
         x="33.232384"
         style="font-size:16px;font-style:normal;font-variant:normal;font-weight:500;font-stretch:normal;text-align:start;line-height:125%;letter-spacing:0px;word-spacing:0px;writing-mode:lr-tb;text-anchor:start;fill:#000000;fill-opacity:1;stroke:none;font-family:Cantarell;-inkscape-font-specification:Cantarell Medium"
         xml:space="preserve"><tspan
           style="font-size:18px;font-style:normal;font-variant:normal;font-weight:bold;font-stretch:normal;text-align:start;line-height:125%;writing-mode:lr-tb;text-anchor:start;font-family:Cantarell;-inkscape-font-specification:Cantarell Bold"
           id="tspan3333"
           y="413.14227"
           x="33.232384"
           sodipodi:role="line">M&amp;I Bank</tspan><tspan
           style="font-size:16px;font-style:normal;font-variant:normal;font-weight:500;font-stretch:normal;text-align:start;line-height:125%;writing-mode:lr-tb;text-anchor:start;fill:#000000;fill-opacity:1;font-family:Cantarell;-inkscape-font-specification:Cantarell Medium"
           id="tspan3337"
           y="433.92999"
           x="33.232384"
           sodipodi:role="line">526 S Mill Ave</tspan><tspan
           dx="0.35355338"
           id="tspan3339"
           style="font-size:16px;font-style:normal;font-variant:normal;font-weight:normal;font-stretch:normal;text-align:start;line-height:125%;writing-mode:lr-tb;text-anchor:start;fill:#3c6eb4;fill-opacity:1;font-family:Liberation Mono;-inkscape-font-specification:Liberation Mono"
           y="453.90558"
           x="33.232384"
           sodipodi:role="line">www.mibank.com</tspan></text>
      <text
         sodipodi:linespacing="125%"
         id="text3345"
         y="480.64227"
         x="33.232384"
         style="font-size:16px;font-style:normal;font-variant:normal;font-weight:500;font-stretch:normal;text-align:start;line-height:125%;letter-spacing:0px;word-spacing:0px;writing-mode:lr-tb;text-anchor:start;fill:#000000;fill-opacity:1;stroke:none;font-family:Cantarell;-inkscape-font-specification:Cantarell Medium"
         xml:space="preserve"><tspan
           style="font-size:18px;font-style:normal;font-variant:normal;font-weight:bold;font-stretch:normal;text-align:start;line-height:125%;writing-mode:lr-tb;text-anchor:start;font-family:Cantarell;-inkscape-font-specification:Cantarell Bold"
           id="tspan3347"
           y="480.64227"
           x="33.232384"
           sodipodi:role="line">Comerica Bank</tspan><tspan
           style="font-size:16px;font-style:normal;font-variant:normal;font-weight:500;font-stretch:normal;text-align:start;line-height:125%;writing-mode:lr-tb;text-anchor:start;fill:#000000;fill-opacity:1;font-family:Cantarell;-inkscape-font-specification:Cantarell Medium"
           id="tspan3351"
           y="501.42999"
           x="33.232384"
           sodipodi:role="line">425 S Mill Ave</tspan><tspan
           dx="0.35355338"
           id="tspan3353"
           style="font-size:16px;font-style:normal;font-variant:normal;font-weight:normal;font-stretch:normal;text-align:start;line-height:125%;writing-mode:lr-tb;text-anchor:start;fill:#3c6eb4;fill-opacity:1;font-family:Liberation Mono;-inkscape-font-specification:Liberation Mono"
           y="521.40558"
           x="33.232384"
           sodipodi:role="line">www.comerica.com</tspan></text>
      <text
         sodipodi:linespacing="125%"
         id="text3856"
         y="239.49481"
         x="33.75"
         style="font-size:28px;font-style:normal;font-variant:normal;font-weight:normal;font-stretch:normal;text-align:start;line-height:125%;letter-spacing:0px;word-spacing:0px;writing-mode:lr-tb;text-anchor:start;fill:#000000;fill-opacity:1;stroke:none;font-family:Comfortaa;-inkscape-font-specification:Comfortaa"
         xml:space="preserve"><tspan
           y="239.49481"
           x="33.75"
           id="tspan3858"
           sodipodi:role="line">Bancos</tspan></text>
    </g>
    <g
       id="g3976"
       transform="translate(0, 7.94629)">
      <text
         sodipodi:linespacing="125%"
         id="text3365"
         y="615.64227"
         x="33.232384"
         style="font-size:16px;font-style:normal;font-variant:normal;font-weight:500;font-stretch:normal;text-align:start;line-height:125%;letter-spacing:0px;word-spacing:0px;writing-mode:lr-tb;text-anchor:start;fill:#000000;fill-opacity:1;stroke:none;font-family:Cantarell;-inkscape-font-specification:Cantarell Medium"
         xml:space="preserve"><tspan
           style="font-size:18px;font-style:normal;font-variant:normal;font-weight:bold;font-stretch:normal;text-align:start;line-height:125%;letter-spacing:-0.25px;writing-mode:lr-tb;text-anchor:start;font-family:Cantarell;-inkscape-font-specification:Cantarell Bold"
           id="tspan3367"
           y="615.64227"
           x="33.232384"
           sodipodi:role="line">ASU Museums, Galleries</tspan><tspan
           id="tspan3377"
           style="font-size:18px;font-style:normal;font-variant:normal;font-weight:bold;font-stretch:normal;text-align:start;line-height:125%;letter-spacing:-0.25px;writing-mode:lr-tb;text-anchor:start;font-family:Cantarell;-inkscape-font-specification:Cantarell Bold"
           y="638.14227"
           x="33.232384"
           sodipodi:role="line">and Collections</tspan><tspan
           style="font-size:16px;font-style:normal;font-variant:normal;font-weight:500;font-stretch:normal;text-align:start;line-height:125%;writing-mode:lr-tb;text-anchor:start;fill:#000000;fill-opacity:1;font-family:Cantarell;-inkscape-font-specification:Cantarell Medium"
           id="tspan3371"
           y="658.92999"
           x="33.232384"
           sodipodi:role="line">Various locations on campus</tspan><tspan
           id="tspan3373"
           style="font-size:16px;font-style:normal;font-variant:normal;font-weight:normal;font-stretch:normal;text-align:start;line-height:125%;writing-mode:lr-tb;text-anchor:start;fill:#3c6eb4;fill-opacity:1;font-family:Liberation Mono;-inkscape-font-specification:Liberation Mono"
           y="678.90558"
           x="33.232384"
           sodipodi:role="line">museums.asu.com</tspan></text>
      <text
         sodipodi:linespacing="125%"
         id="text3383"
         y="705.64227"
         x="33.232384"
         style="font-size:16px;font-style:normal;font-variant:normal;font-weight:500;font-stretch:normal;text-align:start;line-height:125%;letter-spacing:0px;word-spacing:0px;writing-mode:lr-tb;text-anchor:start;fill:#000000;fill-opacity:1;stroke:none;font-family:Cantarell;-inkscape-font-specification:Cantarell Medium"
         xml:space="preserve"><tspan
           style="font-size:18px;font-style:normal;font-variant:normal;font-weight:bold;font-stretch:normal;text-align:start;line-height:125%;writing-mode:lr-tb;text-anchor:start;font-family:Cantarell;-inkscape-font-specification:Cantarell Bold"
           id="tspan3385"
           y="705.64227"
           x="33.232384"
           sodipodi:role="line">Valley Art Theatre</tspan><tspan
           style="font-size:16px;font-style:normal;font-variant:normal;font-weight:500;font-stretch:normal;text-align:start;line-height:125%;writing-mode:lr-tb;text-anchor:start;fill:#000000;fill-opacity:1;font-family:Cantarell;-inkscape-font-specification:Cantarell Medium"
           id="tspan3389"
           y="726.42999"
           x="33.232384"
           sodipodi:role="line">509 S Mill Ave</tspan><tspan
           id="tspan3391"
           style="font-size:16px;font-style:normal;font-variant:normal;font-weight:normal;font-stretch:normal;text-align:start;line-height:125%;writing-mode:lr-tb;text-anchor:start;fill:#3c6eb4;fill-opacity:1;font-family:Liberation Mono;-inkscape-font-specification:Liberation Mono"
           y="746.40558"
           x="33.232384"
           sodipodi:role="line">ur1.ca/2rvkq</tspan></text>
      <text
         sodipodi:linespacing="125%"
         id="text3397"
         y="773.14227"
         x="33.232384"
         style="font-size:16px;font-style:normal;font-variant:normal;font-weight:500;font-stretch:normal;text-align:start;line-height:125%;letter-spacing:0px;word-spacing:0px;writing-mode:lr-tb;text-anchor:start;fill:#000000;fill-opacity:1;stroke:none;font-family:Cantarell;-inkscape-font-specification:Cantarell Medium"
         xml:space="preserve"><tspan
           style="font-size:18px;font-style:normal;font-variant:normal;font-weight:bold;font-stretch:normal;text-align:start;line-height:125%;writing-mode:lr-tb;text-anchor:start;font-family:Cantarell;-inkscape-font-specification:Cantarell Bold"
           id="tspan3399"
           y="773.14227"
           x="33.232384"
           sodipodi:role="line">Mill Cue Club<tspan
   id="tspan3407"
   style="font-weight:500;-inkscape-font-specification:Cantarell Medium"> (21+)</tspan></tspan><tspan
           style="font-size:16px;font-style:normal;font-variant:normal;font-weight:500;font-stretch:normal;text-align:start;line-height:125%;writing-mode:lr-tb;text-anchor:start;fill:#000000;fill-opacity:1;font-family:Cantarell;-inkscape-font-specification:Cantarell Medium"
           id="tspan3403"
           y="793.9577"
           x="33.232384"
           sodipodi:role="line">607 S Mill Ave</tspan><tspan
           dx="0.35355338"
           id="tspan3405"
           style="font-size:16px;font-style:normal;font-variant:normal;font-weight:normal;font-stretch:normal;text-align:start;line-height:125%;writing-mode:lr-tb;text-anchor:start;fill:#3c6eb4;fill-opacity:1;font-family:Liberation Mono;-inkscape-font-specification:Liberation Mono"
           y="813.93323"
           x="33.232384"
           sodipodi:role="line">www.millcueclub.com</tspan></text>
      <text
         sodipodi:linespacing="125%"
         id="text3413"
         y="840.64227"
         x="33.232384"
         style="font-size:16px;font-style:normal;font-variant:normal;font-weight:500;font-stretch:normal;text-align:start;line-height:125%;letter-spacing:0px;word-spacing:0px;writing-mode:lr-tb;text-anchor:start;fill:#000000;fill-opacity:1;stroke:none;font-family:Cantarell;-inkscape-font-specification:Cantarell Medium"
         xml:space="preserve"><tspan
           style="font-size:18px;font-style:normal;font-variant:normal;font-weight:bold;font-stretch:normal;text-align:start;line-height:125%;letter-spacing:0px;writing-mode:lr-tb;text-anchor:start;font-family:Cantarell;-inkscape-font-specification:Cantarell Bold"
           id="tspan3415"
           y="840.64227"
           x="33.232384"
           sodipodi:role="line">Big Bang Dueling Pianos<tspan
   id="tspan3425"
   style="font-weight:500;letter-spacing:0px;-inkscape-font-specification:Cantarell Medium"> (21+)</tspan></tspan><tspan
           style="font-size:16px;font-style:normal;font-variant:normal;font-weight:500;font-stretch:normal;text-align:start;line-height:125%;writing-mode:lr-tb;text-anchor:start;fill:#000000;fill-opacity:1;font-family:Cantarell;-inkscape-font-specification:Cantarell Medium"
           id="tspan3419"
           y="861.4577"
           x="33.232384"
           sodipodi:role="line">501 S Mill Ave</tspan><tspan
           dx="0.35355338"
           id="tspan3421"
           style="font-size:16px;font-style:normal;font-variant:normal;font-weight:normal;font-stretch:normal;text-align:start;line-height:125%;writing-mode:lr-tb;text-anchor:start;fill:#3c6eb4;fill-opacity:1;font-family:Liberation Mono;-inkscape-font-specification:Liberation Mono"
           y="881.43323"
           x="33.232384"
           sodipodi:role="line">www.thebigbangbar.com</tspan></text>
      <text
         sodipodi:linespacing="125%"
         id="text3861"
         y="576.99481"
         x="33.75"
         style="font-size:28px;font-style:normal;font-variant:normal;font-weight:normal;font-stretch:normal;text-align:start;line-height:125%;letter-spacing:0px;word-spacing:0px;writing-mode:lr-tb;text-anchor:start;fill:#000000;fill-opacity:1;stroke:none;font-family:Comfortaa;-inkscape-font-specification:Comfortaa"
         xml:space="preserve"><tspan
           y="576.99481"
           x="33.75"
           id="tspan3863"
           sodipodi:role="line">Otros sitios de entretenimiento</tspan></text>
    </g>
    <g
       id="g4060"
       transform="translate(0, 1.16651e-05)">
      <text
         sodipodi:linespacing="125%"
         id="text3865"
         y="239.49481"
         x="416.25"
         style="font-size:28px;font-style:normal;font-variant:normal;font-weight:normal;font-stretch:normal;text-align:start;line-height:125%;letter-spacing:0px;word-spacing:0px;writing-mode:lr-tb;text-anchor:start;fill:#000000;fill-opacity:1;stroke:none;font-family:Comfortaa;-inkscape-font-specification:Comfortaa"
         xml:space="preserve"><tspan
           y="239.49481"
           x="416.25"
           id="tspan3867"
           sodipodi:role="line">Equipos de Computadora</tspan></text>
      <text
         sodipodi:linespacing="125%"
         id="text3879"
         y="278.14227"
         x="416.25"
         style="font-size:16px;font-style:normal;font-variant:normal;font-weight:500;font-stretch:normal;text-align:start;line-height:125%;letter-spacing:0px;word-spacing:0px;writing-mode:lr-tb;text-anchor:start;fill:#000000;fill-opacity:1;stroke:none;font-family:Cantarell;-inkscape-font-specification:Cantarell Medium"
         xml:space="preserve"><tspan
           style="font-size:18px;font-style:normal;font-variant:normal;font-weight:bold;font-stretch:normal;text-align:start;line-height:125%;writing-mode:lr-tb;text-anchor:start;font-family:Cantarell;-inkscape-font-specification:Cantarell Bold"
           id="tspan3881"
           y="278.14227"
           x="416.25"
           sodipodi:role="line">RedSeven</tspan><tspan
           id="tspan3883"
           y="298.92999"
           x="416.25"
           sodipodi:role="line">1855 E Guadalupe Rd</tspan><tspan
           style="font-size:16px;font-style:normal;font-variant:normal;font-weight:500;font-stretch:normal;text-align:start;line-height:125%;writing-mode:lr-tb;text-anchor:start;fill:#000000;fill-opacity:1;font-family:Cantarell;-inkscape-font-specification:Cantarell Medium"
           id="tspan3885"
           y="318.92999"
           x="416.25"
           sodipodi:role="line">(480) 775-6620</tspan><tspan
           dx="0.35355338"
           id="tspan3887"
           style="font-size:16px;font-style:normal;font-variant:normal;font-weight:normal;font-stretch:normal;text-align:start;line-height:125%;writing-mode:lr-tb;text-anchor:start;fill:#3c6eb4;fill-opacity:1;font-family:Liberation Mono;-inkscape-font-specification:Liberation Mono"
           y="338.90558"
           x="416.25"
           sodipodi:role="line">www.redsevenlinux.com</tspan></text>
      <text
         sodipodi:linespacing="125%"
         id="text3889"
         y="368.14227"
         x="416.25"
         style="font-size:16px;font-style:normal;font-variant:normal;font-weight:500;font-stretch:normal;text-align:start;line-height:125%;letter-spacing:0px;word-spacing:0px;writing-mode:lr-tb;text-anchor:start;fill:#000000;fill-opacity:1;stroke:none;font-family:Cantarell;-inkscape-font-specification:Cantarell Medium"
         xml:space="preserve"><tspan
           style="font-size:18px;font-style:normal;font-variant:normal;font-weight:bold;font-stretch:normal;text-align:start;line-height:125%;writing-mode:lr-tb;text-anchor:start;font-family:Cantarell;-inkscape-font-specification:Cantarell Bold"
           id="tspan3891"
           y="368.14227"
           x="416.25"
           sodipodi:role="line">Fry’s Electronics</tspan><tspan
           id="tspan3893"
           y="388.92999"
           x="416.25"
           sodipodi:role="line">2300 W Baseline Rd</tspan><tspan
           style="font-size:16px;font-style:normal;font-variant:normal;font-weight:500;font-stretch:normal;text-align:start;line-height:125%;writing-mode:lr-tb;text-anchor:start;fill:#000000;fill-opacity:1;font-family:Cantarell;-inkscape-font-specification:Cantarell Medium"
           id="tspan3895"
           y="408.92999"
           x="416.25"
           sodipodi:role="line">(602) 445-5100</tspan><tspan
           dx="0.35355338"
           id="tspan3897"
           style="font-size:16px;font-style:normal;font-variant:normal;font-weight:normal;font-stretch:normal;text-align:start;line-height:125%;writing-mode:lr-tb;text-anchor:start;fill:#3c6eb4;fill-opacity:1;font-family:Liberation Mono;-inkscape-font-specification:Liberation Mono"
           y="428.90558"
           x="416.25"
           sodipodi:role="line">www.frys.com</tspan></text>
    </g>
    <g
       id="g4041"
       transform="translate(0, 91.3861)">
      <text
         sodipodi:linespacing="125%"
         id="text3935"
         y="644.49481"
         x="416.25"
         style="font-size:28px;font-style:normal;font-variant:normal;font-weight:normal;font-stretch:normal;text-align:start;line-height:125%;letter-spacing:0px;word-spacing:0px;writing-mode:lr-tb;text-anchor:start;fill:#000000;fill-opacity:1;stroke:none;font-family:Comfortaa;-inkscape-font-specification:Comfortaa"
         xml:space="preserve"><tspan
           y="644.49481"
           x="416.25"
           id="tspan3937"
           sodipodi:role="line">Servicios de embarque</tspan></text>
      <text
         sodipodi:linespacing="125%"
         id="text3939"
         y="683.14227"
         x="416.25"
         style="font-size:16px;font-style:normal;font-variant:normal;font-weight:500;font-stretch:normal;text-align:start;line-height:125%;letter-spacing:0px;word-spacing:0px;writing-mode:lr-tb;text-anchor:start;fill:#000000;fill-opacity:1;stroke:none;font-family:Cantarell;-inkscape-font-specification:Cantarell Medium"
         xml:space="preserve"><tspan
           style="font-size:18px;font-style:normal;font-variant:normal;font-weight:bold;font-stretch:normal;text-align:start;line-height:125%;writing-mode:lr-tb;text-anchor:start;font-family:Cantarell;-inkscape-font-specification:Cantarell Bold"
           id="tspan3941"
           y="683.14227"
           x="416.25"
           sodipodi:role="line">US Post Office</tspan><tspan
           id="tspan3943"
           y="703.92999"
           x="416.25"
           sodipodi:role="line">500 S Mill Ave</tspan><tspan
           style="font-size:16px;font-style:normal;font-variant:normal;font-weight:500;font-stretch:normal;text-align:start;line-height:125%;writing-mode:lr-tb;text-anchor:start;fill:#000000;fill-opacity:1;font-family:Cantarell;-inkscape-font-specification:Cantarell Medium"
           id="tspan3945"
           y="723.92999"
           x="416.25"
           sodipodi:role="line">Open M–F, 9a–5p</tspan><tspan
           dx="0.35355338"
           id="tspan3947"
           style="font-size:16px;font-style:normal;font-variant:normal;font-weight:normal;font-stretch:normal;text-align:start;line-height:125%;writing-mode:lr-tb;text-anchor:start;fill:#3c6eb4;fill-opacity:1;font-family:Liberation Mono;-inkscape-font-specification:Liberation Mono"
           y="743.90558"
           x="416.25"
           sodipodi:role="line">www.usps.com</tspan></text>
      <text
         sodipodi:linespacing="125%"
         id="text3949"
         y="773.14227"
         x="416.25"
         style="font-size:16px;font-style:normal;font-variant:normal;font-weight:500;font-stretch:normal;text-align:start;line-height:125%;letter-spacing:0px;word-spacing:0px;writing-mode:lr-tb;text-anchor:start;fill:#000000;fill-opacity:1;stroke:none;font-family:Cantarell;-inkscape-font-specification:Cantarell Medium"
         xml:space="preserve"><tspan
           style="font-size:18px;font-style:normal;font-variant:normal;font-weight:bold;font-stretch:normal;text-align:start;line-height:125%;writing-mode:lr-tb;text-anchor:start;font-family:Cantarell;-inkscape-font-specification:Cantarell Bold"
           id="tspan3951"
           y="773.14227"
           x="416.25"
           sodipodi:role="line">FedEx Office</tspan><tspan
           id="tspan3953"
           y="793.92999"
           x="416.25"
           sodipodi:role="line">933 E University Dr</tspan><tspan
           style="font-size:16px;font-style:normal;font-variant:normal;font-weight:500;font-stretch:normal;text-align:start;line-height:125%;writing-mode:lr-tb;text-anchor:start;fill:#000000;fill-opacity:1;font-family:Cantarell;-inkscape-font-specification:Cantarell Medium"
           id="tspan3955"
           y="813.92999"
           x="416.25"
           sodipodi:role="line">M–F: 7a–11p; Sa–Su: 9a–9p</tspan><tspan
           dx="0.35355338"
           id="tspan3957"
           style="font-size:16px;font-style:normal;font-variant:normal;font-weight:normal;font-stretch:normal;text-align:start;line-height:125%;writing-mode:lr-tb;text-anchor:start;fill:#3c6eb4;fill-opacity:1;font-family:Liberation Mono;-inkscape-font-specification:Liberation Mono"
           y="833.90558"
           x="416.25"
           sodipodi:role="line">www.fedex.com/office</tspan></text>
      <text
         sodipodi:linespacing="125%"
         id="text3959"
         y="863.14227"
         x="416.25"
         style="font-size:16px;font-style:normal;font-variant:normal;font-weight:500;font-stretch:normal;text-align:start;line-height:125%;letter-spacing:0px;word-spacing:0px;writing-mode:lr-tb;text-anchor:start;fill:#000000;fill-opacity:1;stroke:none;font-family:Cantarell;-inkscape-font-specification:Cantarell Medium"
         xml:space="preserve"><tspan
           style="font-size:18px;font-style:normal;font-variant:normal;font-weight:bold;font-stretch:normal;text-align:start;line-height:125%;writing-mode:lr-tb;text-anchor:start;font-family:Cantarell;-inkscape-font-specification:Cantarell Bold"
           id="tspan3961"
           y="863.14227"
           x="416.25"
           sodipodi:role="line">The UPS Store</tspan><tspan
           id="tspan3963"
           y="883.92999"
           x="416.25"
           sodipodi:role="line">510 E University Dr</tspan><tspan
           style="font-size:16px;font-style:normal;font-variant:normal;font-weight:500;font-stretch:normal;text-align:start;line-height:125%;writing-mode:lr-tb;text-anchor:start;fill:#000000;fill-opacity:1;font-family:Cantarell;-inkscape-font-specification:Cantarell Medium"
           id="tspan3965"
           y="903.92999"
           x="416.25"
           sodipodi:role="line">M–F: 9a–6p; Sa: 10a–2p</tspan><tspan
           dx="0.35355338"
           id="tspan3967"
           style="font-size:16px;font-style:normal;font-variant:normal;font-weight:normal;font-stretch:normal;text-align:start;line-height:125%;writing-mode:lr-tb;text-anchor:start;fill:#3c6eb4;fill-opacity:1;font-family:Liberation Mono;-inkscape-font-specification:Liberation Mono"
           y="923.90558"
           x="416.25"
           sodipodi:role="line">www.theupsstore.com</tspan></text>
    </g>
    <g
       id="g4086"
       transform="translate(0, -9.35317)">
      <text
         sodipodi:linespacing="125%"
         id="text3901"
         y="486.99481"
         x="416.25"
         style="font-size:28px;font-style:normal;font-variant:normal;font-weight:normal;font-stretch:normal;text-align:start;line-height:125%;letter-spacing:0px;word-spacing:0px;writing-mode:lr-tb;text-anchor:start;fill:#000000;fill-opacity:1;stroke:none;font-family:Comfortaa;-inkscape-font-specification:Comfortaa"
         xml:space="preserve"><tspan
           y="486.99481"
           x="416.25"
           id="tspan3903"
           sodipodi:role="line">Farmacia</tspan></text>
      <text
         sodipodi:linespacing="125%"
         id="text3905"
         y="525.64227"
         x="416.25"
         style="font-size:16px;font-style:normal;font-variant:normal;font-weight:500;font-stretch:normal;text-align:start;line-height:125%;letter-spacing:0px;word-spacing:0px;writing-mode:lr-tb;text-anchor:start;fill:#000000;fill-opacity:1;stroke:none;font-family:Cantarell;-inkscape-font-specification:Cantarell Medium"
         xml:space="preserve"><tspan
           style="font-size:18px;font-style:normal;font-variant:normal;font-weight:bold;font-stretch:normal;text-align:start;line-height:125%;writing-mode:lr-tb;text-anchor:start;font-family:Cantarell;-inkscape-font-specification:Cantarell Bold"
           id="tspan3907"
           y="525.64227"
           x="416.25"
           sodipodi:role="line">CVS Pharmacy</tspan><tspan
           id="tspan3909"
           y="546.42999"
           x="416.25"
           sodipodi:role="line">802 S Mill Ave</tspan><tspan
           id="tspan3915"
           style="font-size:16px;font-style:normal;font-variant:normal;font-weight:500;font-stretch:normal;text-align:start;line-height:125%;writing-mode:lr-tb;text-anchor:start;fill:#000000;fill-opacity:1;font-family:Cantarell;-inkscape-font-specification:Cantarell Medium"
           y="566.42999"
           x="416.25"
           sodipodi:role="line">Store open 24 hours</tspan><tspan
           id="tspan4084"
           style="font-size:16px;font-style:normal;font-variant:normal;font-weight:500;font-stretch:normal;text-align:start;line-height:125%;letter-spacing:-0.40000001px;writing-mode:lr-tb;text-anchor:start;fill:#000000;fill-opacity:1;font-family:Cantarell;-inkscape-font-specification:Cantarell Medium"
           y="586.42999"
           x="416.25"
           sodipodi:role="line">Pharmacy M–F: 8a–10p; Sa: 9a–6p; Su: 10a–6p</tspan><tspan
           dx="0.35355338"
           id="tspan3913"
           style="font-size:16px;font-style:normal;font-variant:normal;font-weight:normal;font-stretch:normal;text-align:start;line-height:125%;writing-mode:lr-tb;text-anchor:start;fill:#3c6eb4;fill-opacity:1;font-family:Liberation Mono;-inkscape-font-specification:Liberation Mono"
           y="606.40558"
           x="416.25"
           sodipodi:role="line">www.cvs.com</tspan></text>
      <text
         sodipodi:linespacing="125%"
         id="text4074"
         y="635.75623"
         x="415.73239"
         style="font-size:16px;font-style:normal;font-variant:normal;font-weight:500;font-stretch:normal;text-align:start;line-height:125%;letter-spacing:0px;word-spacing:0px;writing-mode:lr-tb;text-anchor:start;fill:#000000;fill-opacity:1;stroke:none;font-family:Cantarell;-inkscape-font-specification:Cantarell Medium"
         xml:space="preserve"><tspan
           style="font-size:18px;font-style:normal;font-variant:normal;font-weight:bold;font-stretch:normal;text-align:start;line-height:125%;writing-mode:lr-tb;text-anchor:start;font-family:Cantarell;-inkscape-font-specification:Cantarell Bold"
           id="tspan4076"
           y="635.75623"
           x="415.73239"
           sodipodi:role="line">Walgreens</tspan><tspan
           id="tspan4078"
           y="656.54395"
           x="415.73239"
           sodipodi:role="line">2000 S Mill Ave</tspan><tspan
           style="font-size:16px;font-style:normal;font-variant:normal;font-weight:500;font-stretch:normal;text-align:start;line-height:125%;writing-mode:lr-tb;text-anchor:start;fill:#000000;fill-opacity:1;font-family:Cantarell;-inkscape-font-specification:Cantarell Medium"
           id="tspan4080"
           y="676.54395"
           x="415.73239"
           sodipodi:role="line">Store and pharmacy open 24 hours</tspan><tspan
           dx="0.35355338"
           id="tspan4082"
           style="font-size:16px;font-style:normal;font-variant:normal;font-weight:normal;font-stretch:normal;text-align:start;line-height:125%;writing-mode:lr-tb;text-anchor:start;fill:#3c6eb4;fill-opacity:1;font-family:Liberation Mono;-inkscape-font-specification:Liberation Mono"
           y="696.51953"
           x="415.73239"
           sodipodi:role="line">www.walgreens.com</tspan></text>
    </g>
  </g>
</svg>
