<?xml version="1.0" encoding="UTF-8" standalone="no"?>
<!-- Created with Inkscape (http://www.inkscape.org/) -->

<svg
   xmlns:dc="http://purl.org/dc/elements/1.1/"
   xmlns:cc="http://creativecommons.org/ns#"
   xmlns:rdf="http://www.w3.org/1999/02/22-rdf-syntax-ns#"
   xmlns:svg="http://www.w3.org/2000/svg"
   xmlns="http://www.w3.org/2000/svg"
   xmlns:xlink="http://www.w3.org/1999/xlink"
   xmlns:sodipodi="http://sodipodi.sourceforge.net/DTD/sodipodi-0.dtd"
   xmlns:inkscape="http://www.inkscape.org/namespaces/inkscape"
   width="787.5"
   height="1012.5"
   id="svg2"
   version="1.1"
   inkscape:version="0.48.1 r9760"
   sodipodi:docname="page07-good-things-to-know-right.svg"
   inkscape:export-filename="/home/ianweller/fudcon-tempe-booklet/template-left.png"
   inkscape:export-xdpi="90"
   inkscape:export-ydpi="90">
  <defs
     id="defs4">
    <linearGradient
       inkscape:collect="always"
       xlink:href="#linearGradient3913"
       id="linearGradient3613"
       gradientUnits="userSpaceOnUse"
       gradientTransform="matrix(1,0,0,0.85137615,938.42675,10.754709)"
       x1="399.32516"
       y1="134.862"
       x2="4.5543671"
       y2="134.862" />
    <linearGradient
       id="linearGradient3913">
      <stop
         style="stop-color:#e59727;stop-opacity:1;"
         offset="0"
         id="stop3915" />
      <stop
         style="stop-color:#e59727;stop-opacity:0;"
         offset="1"
         id="stop3917" />
    </linearGradient>
  </defs>
  <sodipodi:namedview
     id="base"
     pagecolor="#ffffff"
     bordercolor="#666666"
     borderopacity="1.0"
     inkscape:pageopacity="0.0"
     inkscape:pageshadow="2"
     inkscape:zoom="0.5"
     inkscape:cx="357.07574"
     inkscape:cy="467.17126"
     inkscape:document-units="in"
     inkscape:current-layer="layer1"
     showgrid="false"
     units="in"
     inkscape:window-width="1022"
     inkscape:window-height="720"
     inkscape:window-x="5"
     inkscape:window-y="32"
     inkscape:window-maximized="0"
     showguides="false"
     inkscape:guide-bbox="true"
     inkscape:snap-bbox="true"
     inkscape:snap-page="false"
     inkscape:snap-nodes="true">
    <sodipodi:guide
       position="0,11.25"
       orientation="0,1"
       id="guide2985" />
    <sodipodi:guide
       position="776.25,0"
       orientation="1,0"
       id="guide2987" />
    <sodipodi:guide
       position="787.5,1001.25"
       orientation="0,1"
       id="guide2989" />
    <sodipodi:guide
       position="11.25,1012.5"
       orientation="1,0"
       id="guide2991" />
    <sodipodi:guide
       orientation="1,0"
       position="753.75,824"
       id="guide3872" />
    <sodipodi:guide
       orientation="1,0"
       position="33.75,762"
       id="guide3878" />
    <sodipodi:guide
       orientation="0,1"
       position="297,33.75"
       id="guide3970" />
    <sodipodi:guide
       orientation="0,1"
       position="287,855"
       id="guide3972" />
    <sodipodi:guide
       orientation="0,1"
       position="35.753906,953.73"
       id="guide3017" />
    <sodipodi:guide
       orientation="0,1"
       position="311,990"
       id="guide3810" />
    <sodipodi:guide
       position="0,0"
       orientation="0,787.5"
       id="guide3812" />
    <sodipodi:guide
       position="787.5,0"
       orientation="-1012.5,0"
       id="guide3814" />
    <sodipodi:guide
       position="787.5,1012.5"
       orientation="0,-787.5"
       id="guide3816" />
    <sodipodi:guide
       position="0,1012.5"
       orientation="1012.5,0"
       id="guide3818" />
    <sodipodi:guide
       orientation="0,1"
       position="341,832.5"
       id="guide3820" />
  </sodipodi:namedview>
  <metadata
     id="metadata7">
    <rdf:RDF>
      <cc:Work
         rdf:about="">
        <dc:format>image/svg+xml</dc:format>
        <dc:type
           rdf:resource="http://purl.org/dc/dcmitype/StillImage" />
        <dc:title />
      </cc:Work>
    </rdf:RDF>
  </metadata>
  <g
     inkscape:groupmode="layer"
     id="layer2"
     inkscape:label="bounding"
     sodipodi:insensitive="true">
    <rect
       style="fill:#ffffff;fill-opacity:1;stroke:none"
       id="rect3010"
       width="787.5"
       height="1012.5"
       x="0"
       y="0" />
  </g>
  <g
     inkscape:label="Layer 1"
     inkscape:groupmode="layer"
     id="layer1"
     transform="translate(0,-39.862)">
    <g
       id="g3674"
       transform="translate(0,-22.242187)">
      <text
         sodipodi:linespacing="125%"
         id="text3355"
         y="241.737"
         x="33.75"
         style="font-size:28px;font-style:normal;font-variant:normal;font-weight:normal;font-stretch:normal;text-align:start;line-height:125%;letter-spacing:0px;word-spacing:0px;writing-mode:lr-tb;text-anchor:start;fill:#000000;fill-opacity:1;stroke:none;font-family:Comfortaa;-inkscape-font-specification:Comfortaa"
         xml:space="preserve"><tspan
           y="241.737"
           x="33.75"
           id="tspan3357"
           sodipodi:role="line">What’s a BarCamp conference?</tspan></text>
      <text
         sodipodi:linespacing="125%"
         id="text3359"
         y="276.04254"
         x="32.34375"
         style="font-size:16px;font-style:normal;font-variant:normal;font-weight:500;font-stretch:normal;text-align:start;line-height:125%;letter-spacing:0px;word-spacing:0px;writing-mode:lr-tb;text-anchor:start;fill:#000000;fill-opacity:1;stroke:none;font-family:Cantarell;-inkscape-font-specification:Cantarell Medium"
         xml:space="preserve"><tspan
           y="276.04254"
           x="32.34375"
           sodipodi:role="line"
           style="font-size:16px;font-style:normal;font-variant:normal;font-weight:500;font-stretch:normal;text-align:start;line-height:125%;letter-spacing:0px;writing-mode:lr-tb;text-anchor:start;fill:#000000;fill-opacity:1;font-family:Cantarell;-inkscape-font-specification:Cantarell Medium"
           id="tspan3014">Our presentations and workshops are organized in an ad-hoc fashion, inspired by BarCamp</tspan><tspan
           y="296.04254"
           x="32.34375"
           sodipodi:role="line"
           style="font-size:16px;font-style:normal;font-variant:normal;font-weight:500;font-stretch:normal;text-align:start;line-height:125%;letter-spacing:0px;writing-mode:lr-tb;text-anchor:start;fill:#000000;fill-opacity:1;font-family:Cantarell;-inkscape-font-specification:Cantarell Medium"
           id="tspan3041">events (<tspan
   style="font-size:16px;font-style:normal;font-variant:normal;font-weight:normal;font-stretch:normal;text-align:start;line-height:125%;writing-mode:lr-tb;text-anchor:start;fill:#3c6eb4;font-family:Liberation Mono;-inkscape-font-specification:Liberation Mono"
   id="tspan3043">www.barcamp.org</tspan>).</tspan><tspan
           y="317.52063"
           x="32.34375"
           sodipodi:role="line"
           style="font-size:16px;font-style:normal;font-variant:normal;font-weight:500;font-stretch:normal;text-align:start;line-height:125%;letter-spacing:0px;writing-mode:lr-tb;text-anchor:start;fill:#000000;fill-opacity:1;font-family:Cantarell;-inkscape-font-specification:Cantarell Medium"
           id="tspan3012" /><tspan
           y="338.99872"
           x="32.34375"
           sodipodi:role="line"
           style="font-size:16px;font-style:normal;font-variant:normal;font-weight:500;font-stretch:normal;text-align:start;line-height:125%;letter-spacing:0px;writing-mode:lr-tb;text-anchor:start;fill:#000000;fill-opacity:1;font-family:Cantarell;-inkscape-font-specification:Cantarell Medium"
           id="tspan3015">On Saturday morning after the introduction at ART 220, we will begin pitches for the event. On</tspan><tspan
           y="358.99872"
           x="32.34375"
           sodipodi:role="line"
           style="font-size:16px;font-style:normal;font-variant:normal;font-weight:500;font-stretch:normal;text-align:start;line-height:125%;letter-spacing:0px;writing-mode:lr-tb;text-anchor:start;fill:#000000;fill-opacity:1;font-family:Cantarell;-inkscape-font-specification:Cantarell Medium"
           id="tspan3047">the event wiki pages (<tspan
   style="font-size:16px;font-style:normal;font-variant:normal;font-weight:normal;font-stretch:normal;text-align:start;line-height:125%;writing-mode:lr-tb;text-anchor:start;fill:#3c6eb4;font-family:Liberation Mono;-inkscape-font-specification:Liberation Mono"
   id="tspan3049">ur1.ca/2sn33</tspan>), participants have added short descriptions of their pitches.</tspan><tspan
           y="380.47681"
           x="32.34375"
           sodipodi:role="line"
           style="font-size:16px;font-style:normal;font-variant:normal;font-weight:500;font-stretch:normal;text-align:start;line-height:125%;letter-spacing:0px;writing-mode:lr-tb;text-anchor:start;fill:#000000;fill-opacity:1;font-family:Cantarell;-inkscape-font-specification:Cantarell Medium"
           id="tspan3053">Feel free to add pitches on that wiki page until introductions start. When pitches begin, each</tspan><tspan
           y="400.47681"
           x="32.34375"
           sodipodi:role="line"
           style="font-size:16px;font-style:normal;font-variant:normal;font-weight:500;font-stretch:normal;text-align:start;line-height:125%;letter-spacing:0px;writing-mode:lr-tb;text-anchor:start;fill:#000000;fill-opacity:1;font-family:Cantarell;-inkscape-font-specification:Cantarell Medium"
           id="tspan3055">participant will have the opportunity to explain their session in about 20 seconds or less.</tspan><tspan
           y="420.47681"
           x="32.34375"
           sodipodi:role="line"
           style="font-size:16px;font-style:normal;font-variant:normal;font-weight:500;font-stretch:normal;text-align:start;line-height:125%;letter-spacing:0px;writing-mode:lr-tb;text-anchor:start;fill:#000000;fill-opacity:1;font-family:Cantarell;-inkscape-font-specification:Cantarell Medium"
           id="tspan3057" /><tspan
           y="440.47681"
           x="32.34375"
           sodipodi:role="line"
           style="font-size:16px;font-style:normal;font-variant:normal;font-weight:500;font-stretch:normal;text-align:start;line-height:125%;letter-spacing:0px;writing-mode:lr-tb;text-anchor:start;fill:#000000;fill-opacity:1;font-family:Cantarell;-inkscape-font-specification:Cantarell Medium"
           id="tspan3061">BarCamps are participant-driven events, and anyone who wants to run a session is invited to do a</tspan><tspan
           y="460.47681"
           x="32.34375"
           sodipodi:role="line"
           style="font-size:16px;font-style:normal;font-variant:normal;font-weight:500;font-stretch:normal;text-align:start;line-height:125%;letter-spacing:0px;writing-mode:lr-tb;text-anchor:start;fill:#000000;fill-opacity:1;font-family:Cantarell;-inkscape-font-specification:Cantarell Medium"
           id="tspan3056">pitch. Your pitch advertises your talk and convinces other people to vote for it and attend.</tspan><tspan
           y="480.47681"
           x="32.34375"
           sodipodi:role="line"
           style="font-size:16px;font-style:normal;font-variant:normal;font-weight:500;font-stretch:normal;text-align:start;line-height:125%;letter-spacing:0px;writing-mode:lr-tb;text-anchor:start;fill:#000000;fill-opacity:1;font-family:Cantarell;-inkscape-font-specification:Cantarell Medium"
           id="tspan3017" /><tspan
           y="500.47681"
           x="32.34375"
           sodipodi:role="line"
           style="font-size:16px;font-style:normal;font-variant:normal;font-weight:500;font-stretch:normal;text-align:start;line-height:125%;letter-spacing:0px;writing-mode:lr-tb;text-anchor:start;fill:#000000;fill-opacity:1;font-family:Cantarell;-inkscape-font-specification:Cantarell Medium"
           id="tspan3019">After the pitches, conference participants will quickly vote on which pitches they would like to see</tspan><tspan
           y="520.47681"
           x="32.34375"
           sodipodi:role="line"
           style="font-size:16px;font-style:normal;font-variant:normal;font-weight:500;font-stretch:normal;text-align:start;line-height:125%;letter-spacing:0px;writing-mode:lr-tb;text-anchor:start;fill:#000000;fill-opacity:1;font-family:Cantarell;-inkscape-font-specification:Cantarell Medium"
           id="tspan3063">the most. The session titles will be posted on the wall on pieces of paper. Each participant should</tspan><tspan
           y="540.47681"
           x="32.34375"
           sodipodi:role="line"
           style="font-size:16px;font-style:normal;font-variant:normal;font-weight:500;font-stretch:normal;text-align:start;line-height:125%;letter-spacing:0px;writing-mode:lr-tb;text-anchor:start;fill:#000000;fill-opacity:1;font-family:Cantarell;-inkscape-font-specification:Cantarell Medium"
           id="tspan3069">make a tally mark on the session proposals that interest them the most, marking as many</tspan><tspan
           y="560.47681"
           x="32.34375"
           sodipodi:role="line"
           style="font-size:16px;font-style:normal;font-variant:normal;font-weight:500;font-stretch:normal;text-align:start;line-height:125%;letter-spacing:0px;writing-mode:lr-tb;text-anchor:start;fill:#000000;fill-opacity:1;font-family:Cantarell;-inkscape-font-specification:Cantarell Medium"
           id="tspan3070">proposals as they like. Tallies allow the organizers and participants to reduce conflicts, combine</tspan><tspan
           y="580.47681"
           x="32.34375"
           sodipodi:role="line"
           style="font-size:16px;font-style:normal;font-variant:normal;font-weight:500;font-stretch:normal;text-align:start;line-height:125%;letter-spacing:0px;writing-mode:lr-tb;text-anchor:start;fill:#000000;fill-opacity:1;font-family:Cantarell;-inkscape-font-specification:Cantarell Medium"
           id="tspan3067">two like subjects, or remove sessions with low interest.</tspan><tspan
           y="600.47681"
           x="32.34375"
           sodipodi:role="line"
           style="font-size:16px;font-style:normal;font-variant:normal;font-weight:500;font-stretch:normal;text-align:start;line-height:125%;letter-spacing:0px;writing-mode:lr-tb;text-anchor:start;fill:#000000;fill-opacity:1;font-family:Cantarell;-inkscape-font-specification:Cantarell Medium"
           id="tspan3021" /><tspan
           y="620.47681"
           x="32.34375"
           sodipodi:role="line"
           style="font-size:16px;font-style:normal;font-variant:normal;font-weight:500;font-stretch:normal;text-align:start;line-height:125%;letter-spacing:0px;writing-mode:lr-tb;text-anchor:start;fill:#000000;fill-opacity:1;font-family:Cantarell;-inkscape-font-specification:Cantarell Medium"
           id="tspan3071">Scheduling of sessions is also a collaborative effort. Speakers and attendees work with each</tspan><tspan
           y="640.47681"
           x="32.34375"
           sodipodi:role="line"
           style="font-size:16px;font-style:normal;font-variant:normal;font-weight:500;font-stretch:normal;text-align:start;line-height:125%;letter-spacing:0px;writing-mode:lr-tb;text-anchor:start;fill:#000000;fill-opacity:1;font-family:Cantarell;-inkscape-font-specification:Cantarell Medium"
           id="tspan3078">other to eliminate conflicts and produce a logical schedule. Once the schedule is completed, it is</tspan><tspan
           y="660.47681"
           x="32.34375"
           sodipodi:role="line"
           style="font-size:16px;font-style:normal;font-variant:normal;font-weight:500;font-stretch:normal;text-align:start;line-height:125%;letter-spacing:0px;writing-mode:lr-tb;text-anchor:start;fill:#000000;fill-opacity:1;font-family:Cantarell;-inkscape-font-specification:Cantarell Medium"
           id="tspan3084">transcribed to the wiki for everyone's reference.</tspan><tspan
           y="680.47681"
           x="32.34375"
           sodipodi:role="line"
           style="font-size:16px;font-style:normal;font-variant:normal;font-weight:500;font-stretch:normal;text-align:start;line-height:125%;letter-spacing:0px;writing-mode:lr-tb;text-anchor:start;fill:#000000;fill-opacity:1;font-family:Cantarell;-inkscape-font-specification:Cantarell Medium"
           id="tspan3025" /><tspan
           y="700.47681"
           x="32.34375"
           sodipodi:role="line"
           style="font-size:16px;font-style:normal;font-variant:normal;font-weight:500;font-stretch:normal;text-align:start;line-height:125%;letter-spacing:0px;writing-mode:lr-tb;text-anchor:start;fill:#000000;fill-opacity:1;font-family:Cantarell;-inkscape-font-specification:Cantarell Medium"
           id="tspan3027">We only have 90 minutes for the introduction, pitches and scheduling, so it is incredibly important</tspan><tspan
           y="720.47681"
           x="32.34375"
           sodipodi:role="line"
           style="font-size:16px;font-style:normal;font-variant:normal;font-weight:500;font-stretch:normal;text-align:start;line-height:125%;letter-spacing:0px;writing-mode:lr-tb;text-anchor:start;fill:#000000;fill-opacity:1;font-family:Cantarell;-inkscape-font-specification:Cantarell Medium"
           id="tspan3073">that we start on time at 9:00 a.m. and that we stay on topic and on our schedule.</tspan><tspan
           y="740.47681"
           x="32.34375"
           sodipodi:role="line"
           style="font-size:16px;font-style:normal;font-variant:normal;font-weight:500;font-stretch:normal;text-align:start;line-height:125%;letter-spacing:0px;writing-mode:lr-tb;text-anchor:start;fill:#000000;fill-opacity:1;font-family:Cantarell;-inkscape-font-specification:Cantarell Medium"
           id="tspan3029" /><tspan
           y="760.47681"
           x="32.34375"
           sodipodi:role="line"
           style="font-size:16px;font-style:normal;font-variant:normal;font-weight:500;font-stretch:normal;text-align:start;line-height:125%;letter-spacing:0px;writing-mode:lr-tb;text-anchor:start;fill:#000000;fill-opacity:1;font-family:Cantarell;-inkscape-font-specification:Cantarell Medium"
           id="tspan3031">Although the opening session and scheduling will happen in the Art Building (ART), the actual</tspan><tspan
           y="780.47681"
           x="32.34375"
           sodipodi:role="line"
           style="font-size:16px;font-style:normal;font-variant:normal;font-weight:500;font-stretch:normal;text-align:start;line-height:125%;letter-spacing:0px;writing-mode:lr-tb;text-anchor:start;fill:#000000;fill-opacity:1;font-family:Cantarell;-inkscape-font-specification:Cantarell Medium"
           id="tspan3075">sessions will take place in the Artisan Court at the Brickyard (BYAC).</tspan><tspan
           y="800.47681"
           x="32.34375"
           sodipodi:role="line"
           style="font-size:16px;font-style:normal;font-variant:normal;font-weight:500;font-stretch:normal;text-align:start;line-height:125%;letter-spacing:0px;writing-mode:lr-tb;text-anchor:start;fill:#000000;fill-opacity:1;font-family:Cantarell;-inkscape-font-specification:Cantarell Medium"
           id="tspan3033" /><tspan
           y="820.47681"
           x="32.34375"
           sodipodi:role="line"
           style="font-size:16px;font-style:normal;font-variant:normal;font-weight:500;font-stretch:normal;text-align:start;line-height:125%;letter-spacing:0px;writing-mode:lr-tb;text-anchor:start;fill:#000000;fill-opacity:1;font-family:Cantarell;-inkscape-font-specification:Cantarell Medium"
           id="tspan3035">The Rule of Two Feet is encouraged. This rule is simple: You are not required to stay in a session</tspan><tspan
           y="840.47681"
           x="32.34375"
           sodipodi:role="line"
           style="font-size:16px;font-style:normal;font-variant:normal;font-weight:500;font-stretch:normal;text-align:start;line-height:125%;letter-spacing:0px;writing-mode:lr-tb;text-anchor:start;fill:#000000;fill-opacity:1;font-family:Cantarell;-inkscape-font-specification:Cantarell Medium"
           id="tspan3077">that loses your interest. If you find the presentation is not what you thought it would be, use your</tspan><tspan
           y="860.47681"
           x="32.34375"
           sodipodi:role="line"
           style="font-size:16px;font-style:normal;font-variant:normal;font-weight:500;font-stretch:normal;text-align:start;line-height:125%;letter-spacing:0px;writing-mode:lr-tb;text-anchor:start;fill:#000000;fill-opacity:1;font-family:Cantarell;-inkscape-font-specification:Cantarell Medium"
           id="tspan3079">two feet to find an alternative session. If you’d like a session leader to cover a different kind of</tspan><tspan
           y="880.47681"
           x="32.34375"
           sodipodi:role="line"
           style="font-size:16px;font-style:normal;font-variant:normal;font-weight:500;font-stretch:normal;text-align:start;line-height:125%;letter-spacing:0px;writing-mode:lr-tb;text-anchor:start;fill:#000000;fill-opacity:1;font-family:Cantarell;-inkscape-font-specification:Cantarell Medium"
           id="tspan3081">material, ask them about it. (Nicely, of course—we value courtesy along with flexibility.)</tspan><tspan
           y="900.47681"
           x="32.34375"
           sodipodi:role="line"
           style="font-size:16px;font-style:normal;font-variant:normal;font-weight:500;font-stretch:normal;text-align:start;line-height:125%;letter-spacing:0px;writing-mode:lr-tb;text-anchor:start;fill:#000000;fill-opacity:1;font-family:Cantarell;-inkscape-font-specification:Cantarell Medium"
           id="tspan3037" /><tspan
           y="920.47681"
           x="32.34375"
           sodipodi:role="line"
           style="font-size:16px;font-style:normal;font-variant:normal;font-weight:500;font-stretch:normal;text-align:start;line-height:125%;letter-spacing:0px;writing-mode:lr-tb;text-anchor:start;fill:#000000;fill-opacity:1;font-family:Cantarell;-inkscape-font-specification:Cantarell Medium"
           id="tspan3087">Sound confusing? In principle, you’d be right. In practice, though, this process results in a</tspan><tspan
           y="940.47681"
           x="32.34375"
           sodipodi:role="line"
           style="font-size:16px;font-style:normal;font-variant:normal;font-weight:500;font-stretch:normal;text-align:start;line-height:125%;letter-spacing:0px;writing-mode:lr-tb;text-anchor:start;fill:#000000;fill-opacity:1;font-family:Cantarell;-inkscape-font-specification:Cantarell Medium"
           id="tspan3118">dynamic, engaging and information-packed event. The combination of collaboration, flexibility and</tspan><tspan
           y="960.47681"
           x="32.34375"
           sodipodi:role="line"
           style="font-size:16px;font-style:normal;font-variant:normal;font-weight:500;font-stretch:normal;text-align:start;line-height:125%;letter-spacing:0px;writing-mode:lr-tb;text-anchor:start;fill:#000000;fill-opacity:1;font-family:Cantarell;-inkscape-font-specification:Cantarell Medium"
           id="tspan3095">user-driven content makes it nearly impossible to leave the conference dissatisfied. Once you’ve</tspan><tspan
           y="980.47681"
           x="32.34375"
           sodipodi:role="line"
           style="font-size:16px;font-style:normal;font-variant:normal;font-weight:500;font-stretch:normal;text-align:start;line-height:125%;letter-spacing:0px;writing-mode:lr-tb;text-anchor:start;fill:#000000;fill-opacity:1;font-family:Cantarell;-inkscape-font-specification:Cantarell Medium"
           id="tspan3097">experienced a BarCamp style event, you may find you enjoy it more than other formats!</tspan><tspan
           y="1000.4768"
           x="32.34375"
           sodipodi:role="line"
           style="font-size:16px;font-style:normal;font-variant:normal;font-weight:500;font-stretch:normal;text-align:start;line-height:125%;letter-spacing:0px;writing-mode:lr-tb;text-anchor:start;fill:#000000;fill-opacity:1;font-family:Cantarell;-inkscape-font-specification:Cantarell Medium"
           id="tspan3099" /></text>
    </g>
    <g
       transform="translate(5.21875e-5,0)"
       style="display:inline"
       id="g3746">
      <g
         id="g3626">
        <g
           id="g3569"
           transform="translate(-938.42676,4.8828133e-7)">
          <rect
             y="72.361992"
             x="938.42676"
             height="106.42202"
             width="787.5"
             id="rect3876-7"
             style="fill:url(#linearGradient3613);fill-opacity:1;stroke:none" />
          <g
             transform="matrix(-1,0,0,-1,2676.1793,252.85932)"
             id="g3502">
            <g
               id="g10149-7"
               transform="matrix(0.72189439,0.34020621,-0.34020621,0.72189439,-105.05615,-592.97309)"
               inkscape:export-filename="/home/duffy/Resources/FedoraLogo.tar.gz_FILES/fudcon-logo-template.png"
               inkscape:export-xdpi="90"
               inkscape:export-ydpi="90"
               style="opacity:0.15695065;fill:#ffffff;fill-opacity:1">
              <path
                 inkscape:connector-curvature="0"
                 style="fill:#ffffff;fill-opacity:1;stroke:none"
                 d="m 1712.0577,188.6514 c -7.1795,-0.005 -14.3886,2.72004 -19.8757,8.18802 l -17.1685,17.16841 c -1.5485,1.54851 -1.5511,4.06164 0,5.61274 l 17.0364,17.03637 c 10.968,10.96799 28.9194,10.9693 39.8836,-1e-5 10.9693,-10.9693 10.902,-28.84951 -0.066,-39.81751 -5.4771,-5.47696 -12.6302,-8.18289 -19.8098,-8.18802 z"
                 id="path10151-8" />
              <path
                 inkscape:connector-curvature="0"
                 id="path10153-6"
                 d="m 1622.6216,288.38298 c -0.01,-10.22385 3.8733,-20.4896 11.6598,-28.30352 l 24.4483,-24.44822 c 2.2051,-2.20513 5.7839,-2.20876 7.9926,-3e-5 l 24.2603,24.26018 c 15.6187,15.61874 15.6205,41.18191 0,56.79511 -15.6206,15.62055 -41.0824,15.52469 -56.7012,-0.094 -7.7992,-7.79931 -11.6526,-17.98562 -11.6598,-28.20949 z"
                 style="fill:#ffffff;fill-opacity:1;stroke:none" />
              <path
                 inkscape:connector-curvature="0"
                 style="fill:#ffffff;fill-opacity:1;stroke:none"
                 d="m 1613.2612,244.88341 c 7.1795,0.005 14.3885,-2.72005 19.8757,-8.18802 l 17.1685,-17.16841 c 1.5485,-1.54851 1.5509,-4.06165 0,-5.61274 l -17.0364,-17.03637 c -10.968,-10.96799 -28.9194,-10.9693 -39.8836,1e-5 -10.9693,10.9693 -10.902,28.84951 0.066,39.81751 5.477,5.47696 12.6302,8.18288 19.8098,8.18802 z"
                 id="path10155-8" />
              <path
                 inkscape:connector-curvature="0"
                 id="path10157-8"
                 d="m 1702.6973,147.3905 c 0.01,10.22385 -3.8733,20.4896 -11.6599,28.30352 l -24.4482,24.44822 c -2.2051,2.20513 -5.7839,2.20876 -7.9926,3e-5 l -24.2603,-24.26018 c -15.6187,-15.61874 -15.6205,-41.18191 0,-56.79511 15.6206,-15.62055 41.0824,-15.52469 56.7011,0.094 7.7993,7.79931 11.6527,17.98562 11.6599,28.20949 z"
                 style="fill:#ffffff;fill-opacity:1;stroke:none" />
            </g>
            <g
               id="g10149-7-7"
               transform="matrix(-0.17009374,0.47039044,-0.47039044,-0.17009374,1496.7563,-605.71298)"
               inkscape:export-filename="/home/duffy/Resources/FedoraLogo.tar.gz_FILES/fudcon-logo-template.png"
               inkscape:export-xdpi="90"
               inkscape:export-ydpi="90"
               style="opacity:0.12107622;fill:#ffffff;fill-opacity:1">
              <path
                 inkscape:connector-curvature="0"
                 style="fill:#ffffff;fill-opacity:1;stroke:none"
                 d="m 1712.0577,188.6514 c -7.1795,-0.005 -14.3886,2.72004 -19.8757,8.18802 l -17.1685,17.16841 c -1.5485,1.54851 -1.5511,4.06164 0,5.61274 l 17.0364,17.03637 c 10.968,10.96799 28.9194,10.9693 39.8836,-1e-5 10.9693,-10.9693 10.902,-28.84951 -0.066,-39.81751 -5.4771,-5.47696 -12.6302,-8.18289 -19.8098,-8.18802 z"
                 id="path10151-8-7" />
              <path
                 inkscape:connector-curvature="0"
                 id="path10153-6-1"
                 d="m 1622.6216,288.38298 c -0.01,-10.22385 3.8733,-20.4896 11.6598,-28.30352 l 24.4483,-24.44822 c 2.2051,-2.20513 5.7839,-2.20876 7.9926,-3e-5 l 24.2603,24.26018 c 15.6187,15.61874 15.6205,41.18191 0,56.79511 -15.6206,15.62055 -41.0824,15.52469 -56.7012,-0.094 -7.7992,-7.79931 -11.6526,-17.98562 -11.6598,-28.20949 z"
                 style="fill:#ffffff;fill-opacity:1;stroke:none" />
              <path
                 inkscape:connector-curvature="0"
                 style="fill:#ffffff;fill-opacity:1;stroke:none"
                 d="m 1613.2612,244.88341 c 7.1795,0.005 14.3885,-2.72005 19.8757,-8.18802 l 17.1685,-17.16841 c 1.5485,-1.54851 1.5509,-4.06165 0,-5.61274 l -17.0364,-17.03637 c -10.968,-10.96799 -28.9194,-10.9693 -39.8836,1e-5 -10.9693,10.9693 -10.902,28.84951 0.066,39.81751 5.477,5.47696 12.6302,8.18288 19.8098,8.18802 z"
                 id="path10155-8-1" />
              <path
                 inkscape:connector-curvature="0"
                 id="path10157-8-5"
                 d="m 1702.6973,147.3905 c 0.01,10.22385 -3.8733,20.4896 -11.6599,28.30352 l -24.4482,24.44822 c -2.2051,2.20513 -5.7839,2.20876 -7.9926,3e-5 l -24.2603,-24.26018 c -15.6187,-15.61874 -15.6205,-41.18191 0,-56.79511 15.6206,-15.62055 41.0824,-15.52469 56.7011,0.094 7.7993,7.79931 11.6527,17.98562 11.6599,28.20949 z"
                 style="fill:#ffffff;fill-opacity:1;stroke:none" />
            </g>
            <g
               id="g10149-7-7-9"
               transform="matrix(0.18557564,0.22022249,-0.22022249,0.18557564,916.43792,-263.70651)"
               inkscape:export-filename="/home/duffy/Resources/FedoraLogo.tar.gz_FILES/fudcon-logo-template.png"
               inkscape:export-xdpi="90"
               inkscape:export-ydpi="90"
               style="opacity:0.103139;fill:#ffffff;fill-opacity:1">
              <path
                 inkscape:connector-curvature="0"
                 style="fill:#ffffff;fill-opacity:1;stroke:none"
                 d="m 1712.0577,188.6514 c -7.1795,-0.005 -14.3886,2.72004 -19.8757,8.18802 l -17.1685,17.16841 c -1.5485,1.54851 -1.5511,4.06164 0,5.61274 l 17.0364,17.03637 c 10.968,10.96799 28.9194,10.9693 39.8836,-1e-5 10.9693,-10.9693 10.902,-28.84951 -0.066,-39.81751 -5.4771,-5.47696 -12.6302,-8.18289 -19.8098,-8.18802 z"
                 id="path10151-8-7-7" />
              <path
                 inkscape:connector-curvature="0"
                 id="path10153-6-1-7"
                 d="m 1622.6216,288.38298 c -0.01,-10.22385 3.8733,-20.4896 11.6598,-28.30352 l 24.4483,-24.44822 c 2.2051,-2.20513 5.7839,-2.20876 7.9926,-3e-5 l 24.2603,24.26018 c 15.6187,15.61874 15.6205,41.18191 0,56.79511 -15.6206,15.62055 -41.0824,15.52469 -56.7012,-0.094 -7.7992,-7.79931 -11.6526,-17.98562 -11.6598,-28.20949 z"
                 style="fill:#ffffff;fill-opacity:1;stroke:none" />
              <path
                 inkscape:connector-curvature="0"
                 style="fill:#ffffff;fill-opacity:1;stroke:none"
                 d="m 1613.2612,244.88341 c 7.1795,0.005 14.3885,-2.72005 19.8757,-8.18802 l 17.1685,-17.16841 c 1.5485,-1.54851 1.5509,-4.06165 0,-5.61274 l -17.0364,-17.03637 c -10.968,-10.96799 -28.9194,-10.9693 -39.8836,1e-5 -10.9693,10.9693 -10.902,28.84951 0.066,39.81751 5.477,5.47696 12.6302,8.18288 19.8098,8.18802 z"
                 id="path10155-8-1-6" />
              <path
                 inkscape:connector-curvature="0"
                 id="path10157-8-5-7"
                 d="m 1702.6973,147.3905 c 0.01,10.22385 -3.8733,20.4896 -11.6599,28.30352 l -24.4482,24.44822 c -2.2051,2.20513 -5.7839,2.20876 -7.9926,3e-5 l -24.2603,-24.26018 c -15.6187,-15.61874 -15.6205,-41.18191 0,-56.79511 15.6206,-15.62055 41.0824,-15.52469 56.7011,0.094 7.7993,7.79931 11.6527,17.98562 11.6599,28.20949 z"
                 style="fill:#ffffff;fill-opacity:1;stroke:none" />
            </g>
            <g
               id="g10149-7-7-9-3"
               transform="matrix(-0.0809773,0.22394092,-0.22394092,-0.0809773,1405.1724,-213.56263)"
               inkscape:export-filename="/home/duffy/Resources/FedoraLogo.tar.gz_FILES/fudcon-logo-template.png"
               inkscape:export-xdpi="90"
               inkscape:export-ydpi="90"
               style="opacity:0.07623321;fill:#ffffff;fill-opacity:1">
              <path
                 inkscape:connector-curvature="0"
                 style="fill:#ffffff;fill-opacity:1;stroke:none"
                 d="m 1712.0577,188.6514 c -7.1795,-0.005 -14.3886,2.72004 -19.8757,8.18802 l -17.1685,17.16841 c -1.5485,1.54851 -1.5511,4.06164 0,5.61274 l 17.0364,17.03637 c 10.968,10.96799 28.9194,10.9693 39.8836,-1e-5 10.9693,-10.9693 10.902,-28.84951 -0.066,-39.81751 -5.4771,-5.47696 -12.6302,-8.18289 -19.8098,-8.18802 z"
                 id="path10151-8-7-7-1" />
              <path
                 inkscape:connector-curvature="0"
                 id="path10153-6-1-7-7"
                 d="m 1622.6216,288.38298 c -0.01,-10.22385 3.8733,-20.4896 11.6598,-28.30352 l 24.4483,-24.44822 c 2.2051,-2.20513 5.7839,-2.20876 7.9926,-3e-5 l 24.2603,24.26018 c 15.6187,15.61874 15.6205,41.18191 0,56.79511 -15.6206,15.62055 -41.0824,15.52469 -56.7012,-0.094 -7.7992,-7.79931 -11.6526,-17.98562 -11.6598,-28.20949 z"
                 style="fill:#ffffff;fill-opacity:1;stroke:none" />
              <path
                 inkscape:connector-curvature="0"
                 style="fill:#ffffff;fill-opacity:1;stroke:none"
                 d="m 1613.2612,244.88341 c 7.1795,0.005 14.3885,-2.72005 19.8757,-8.18802 l 17.1685,-17.16841 c 1.5485,-1.54851 1.5509,-4.06165 0,-5.61274 l -17.0364,-17.03637 c -10.968,-10.96799 -28.9194,-10.9693 -39.8836,1e-5 -10.9693,10.9693 -10.902,28.84951 0.066,39.81751 5.477,5.47696 12.6302,8.18288 19.8098,8.18802 z"
                 id="path10155-8-1-6-5" />
              <path
                 inkscape:connector-curvature="0"
                 id="path10157-8-5-7-9"
                 d="m 1702.6973,147.3905 c 0.01,10.22385 -3.8733,20.4896 -11.6599,28.30352 l -24.4482,24.44822 c -2.2051,2.20513 -5.7839,2.20876 -7.9926,3e-5 l -24.2603,-24.26018 c -15.6187,-15.61874 -15.6205,-41.18191 0,-56.79511 15.6206,-15.62055 41.0824,-15.52469 56.7011,0.094 7.7993,7.79931 11.6527,17.98562 11.6599,28.20949 z"
                 style="fill:#ffffff;fill-opacity:1;stroke:none" />
            </g>
            <g
               id="g10149-7-7-9-3-9"
               transform="matrix(0.02663737,0.23663751,-0.23663751,0.02663737,1286.5639,-252.64739)"
               inkscape:export-filename="/home/duffy/Resources/FedoraLogo.tar.gz_FILES/fudcon-logo-template.png"
               inkscape:export-xdpi="90"
               inkscape:export-ydpi="90"
               style="opacity:0.07623321;fill:#ffffff;fill-opacity:1">
              <path
                 inkscape:connector-curvature="0"
                 style="fill:#ffffff;fill-opacity:1;stroke:none"
                 d="m 1712.0577,188.6514 c -7.1795,-0.005 -14.3886,2.72004 -19.8757,8.18802 l -17.1685,17.16841 c -1.5485,1.54851 -1.5511,4.06164 0,5.61274 l 17.0364,17.03637 c 10.968,10.96799 28.9194,10.9693 39.8836,-1e-5 10.9693,-10.9693 10.902,-28.84951 -0.066,-39.81751 -5.4771,-5.47696 -12.6302,-8.18289 -19.8098,-8.18802 z"
                 id="path10151-8-7-7-1-6" />
              <path
                 inkscape:connector-curvature="0"
                 id="path10153-6-1-7-7-4"
                 d="m 1622.6216,288.38298 c -0.01,-10.22385 3.8733,-20.4896 11.6598,-28.30352 l 24.4483,-24.44822 c 2.2051,-2.20513 5.7839,-2.20876 7.9926,-3e-5 l 24.2603,24.26018 c 15.6187,15.61874 15.6205,41.18191 0,56.79511 -15.6206,15.62055 -41.0824,15.52469 -56.7012,-0.094 -7.7992,-7.79931 -11.6526,-17.98562 -11.6598,-28.20949 z"
                 style="fill:#ffffff;fill-opacity:1;stroke:none" />
              <path
                 inkscape:connector-curvature="0"
                 style="fill:#ffffff;fill-opacity:1;stroke:none"
                 d="m 1613.2612,244.88341 c 7.1795,0.005 14.3885,-2.72005 19.8757,-8.18802 l 17.1685,-17.16841 c 1.5485,-1.54851 1.5509,-4.06165 0,-5.61274 l -17.0364,-17.03637 c -10.968,-10.96799 -28.9194,-10.9693 -39.8836,1e-5 -10.9693,10.9693 -10.902,28.84951 0.066,39.81751 5.477,5.47696 12.6302,8.18288 19.8098,8.18802 z"
                 id="path10155-8-1-6-5-3" />
              <path
                 inkscape:connector-curvature="0"
                 id="path10157-8-5-7-9-3"
                 d="m 1702.6973,147.3905 c 0.01,10.22385 -3.8733,20.4896 -11.6599,28.30352 l -24.4482,24.44822 c -2.2051,2.20513 -5.7839,2.20876 -7.9926,3e-5 l -24.2603,-24.26018 c -15.6187,-15.61874 -15.6205,-41.18191 0,-56.79511 15.6206,-15.62055 41.0824,-15.52469 56.7011,0.094 7.7993,7.79931 11.6527,17.98562 11.6599,28.20949 z"
                 style="fill:#ffffff;fill-opacity:1;stroke:none" />
            </g>
          </g>
          <rect
             y="39.862"
             x="938.42676"
             height="48.260708"
             width="787.50006"
             id="rect2988-8"
             style="fill:#3c6eb4;fill-opacity:1;stroke:none" />
          <g
             transform="matrix(0.895747,0,0,0.895747,533.6772,2.0751487)"
             id="g3921">
            <text
               sodipodi:linespacing="125%"
               id="text3864-3"
               y="75.783913"
               x="772.328"
               style="font-size:16px;font-style:normal;font-variant:normal;font-weight:normal;font-stretch:normal;text-align:end;line-height:125%;letter-spacing:0px;word-spacing:0px;writing-mode:lr-tb;text-anchor:end;fill:#ffffff;fill-opacity:1;stroke:none;font-family:Comfortaa;-inkscape-font-specification:Comfortaa"
               xml:space="preserve"><tspan
                 y="75.783913"
                 x="772.328"
                 id="tspan3866-1"
                 sodipodi:role="line"
                 style="font-style:normal;font-variant:normal;font-weight:normal;font-stretch:normal;font-family:MgOpen Modata;-inkscape-font-specification:MgOpen Modata">PANAMA — <tspan
   style="font-style:normal;font-variant:normal;font-weight:normal;font-stretch:normal;font-family:Comfortaa;-inkscape-font-specification:Comfortaa"
   id="tspan3143">Mayo 26–28, 2011</tspan></tspan></text>
            <g
               id="g4574"
               transform="matrix(0.27401424,0,0,0.27401424,367.07316,24.787672)">
              <g
                 style="fill:#294172;fill-opacity:1"
                 inkscape:export-ydpi="90"
                 inkscape:export-xdpi="90"
                 inkscape:export-filename="/home/duffy/Resources/FedoraLogo.tar.gz_FILES/fudcon-logo-template.png"
                 transform="matrix(0.54261182,0.54261182,-0.54261182,0.54261182,-375.78941,-855.31619)"
                 id="g10149">
                <path
                   id="path10151"
                   d="m 1712.0577,188.6514 c -7.1795,-0.005 -14.3886,2.72004 -19.8757,8.18802 l -17.1685,17.16841 c -1.5485,1.54851 -1.5511,4.06164 0,5.61274 l 17.0364,17.03637 c 10.968,10.96799 28.9194,10.9693 39.8836,-1e-5 10.9693,-10.9693 10.902,-28.84951 -0.066,-39.81751 -5.4771,-5.47696 -12.6302,-8.18289 -19.8098,-8.18802 z"
                   style="fill:#294172;fill-opacity:1;stroke:none"
                   inkscape:connector-curvature="0" />
                <path
                   style="fill:#294172;fill-opacity:1;stroke:none"
                   d="m 1622.6216,288.38298 c -0.01,-10.22385 3.8733,-20.4896 11.6598,-28.30352 l 24.4483,-24.44822 c 2.2051,-2.20513 5.7839,-2.20876 7.9926,-3e-5 l 24.2603,24.26018 c 15.6187,15.61874 15.6205,41.18191 0,56.79511 -15.6206,15.62055 -41.0824,15.52469 -56.7012,-0.094 -7.7992,-7.79931 -11.6526,-17.98562 -11.6598,-28.20949 z"
                   id="path10153"
                   inkscape:connector-curvature="0" />
                <path
                   id="path10155"
                   d="m 1613.2612,244.88341 c 7.1795,0.005 14.3885,-2.72005 19.8757,-8.18802 l 17.1685,-17.16841 c 1.5485,-1.54851 1.5509,-4.06165 0,-5.61274 l -17.0364,-17.03637 c -10.968,-10.96799 -28.9194,-10.9693 -39.8836,1e-5 -10.9693,10.9693 -10.902,28.84951 0.066,39.81751 5.477,5.47696 12.6302,8.18288 19.8098,8.18802 z"
                   style="fill:#294172;fill-opacity:1;stroke:none"
                   inkscape:connector-curvature="0" />
                <path
                   style="fill:#294172;fill-opacity:1;stroke:none"
                   d="m 1702.6973,147.3905 c 0.01,10.22385 -3.8733,20.4896 -11.6599,28.30352 l -24.4482,24.44822 c -2.2051,2.20513 -5.7839,2.20876 -7.9926,3e-5 l -24.2603,-24.26018 c -15.6187,-15.61874 -15.6205,-41.18191 0,-56.79511 15.6206,-15.62055 41.0824,-15.52469 56.7011,0.094 7.7993,7.79931 11.6527,17.98562 11.6599,28.20949 z"
                   id="path10157"
                   inkscape:connector-curvature="0" />
              </g>
              <text
                 inkscape:export-ydpi="90"
                 inkscape:export-xdpi="90"
                 inkscape:export-filename="/home/duffy/Resources/FedoraLogo.tar.gz_FILES/fudcon-logo-template.png"
                 xml:space="preserve"
                 style="font-size:80.85561371px;font-style:normal;font-weight:normal;fill:#0a57a4;fill-opacity:1;stroke:none;font-family:Bitstream Vera Sans"
                 x="496.81644"
                 y="187.23965"
                 id="text10159"><tspan
                   sodipodi:role="line"
                   id="tspan10161"
                   x="496.81644"
                   y="187.23965"
                   style="font-weight:bold;letter-spacing:-2.43262696;fill:#ffffff;fill-opacity:1;font-family:MgOpen Modata">fud</tspan></text>
              <text
                 inkscape:export-ydpi="90"
                 inkscape:export-xdpi="90"
                 inkscape:export-filename="/home/duffy/Resources/FedoraLogo.tar.gz_FILES/fudcon-logo-template.png"
                 id="text10165"
                 y="187.23965"
                 x="604.94031"
                 style="font-size:80.85561371px;font-style:normal;font-weight:normal;fill:#0a57a4;fill-opacity:1;stroke:none;font-family:Bitstream Vera Sans"
                 xml:space="preserve"><tspan
                   style="letter-spacing:-2.43262696;fill:#ffffff;fill-opacity:1;font-family:MgOpen Modata"
                   y="187.23965"
                   x="604.94031"
                   id="tspan10167"
                   sodipodi:role="line"> con</tspan></text>
            </g>
          </g>
        </g>
      </g>
      <g
         id="g3799">
        <rect
           style="fill:#3c6eb4;fill-opacity:1;stroke:none;display:inline"
           id="rect2988-4"
           width="787.50006"
           height="34.327221"
           x="938.42676"
           y="1018.0348"
           transform="translate(-938.42681,-6.46e-4)" />
        <g
           id="g3098"
           transform="matrix(0.7207836,0,0,0.7207836,1659.3503,956.00872)">
          <g
             id="g3496"
             transform="translate(-1301.9536,-8.7783461e-4)">
            <path
               inkscape:connector-curvature="0"
               d="m 33.75,100.42314 c 0,-13.128343 10.642037,-23.771142 23.769925,-23.771142 13.121784,0 23.759637,10.634033 23.769145,23.754392 l 8.35e-4,-8.2e-4 0,18.39492 -8.35e-4,8.2e-4 c -0.0076,2.979 -2.423019,5.39069 -5.403832,5.39069 -0.0076,0 -0.01711,-5.5e-4 -0.02548,-5.5e-4 l -0.0014,5.5e-4 -18.347438,0 0,0 C 44.386851,124.186 33.750135,113.54768 33.750135,100.42314 l -1.33e-4,0 z"
               id="path3471-6"
               style="fill:#294172;fill-opacity:1" />
            <text
               xml:space="preserve"
               style="font-size:30.42560196px;font-style:normal;font-variant:normal;font-weight:bold;font-stretch:expanded;text-align:center;line-height:125%;letter-spacing:0px;word-spacing:0px;writing-mode:lr-tb;text-anchor:middle;fill:#ffffff;fill-opacity:1;stroke:none;font-family:Comfortaa;-inkscape-font-specification:Comfortaa Bold Expanded"
               x="57.757656"
               y="111.00707"
               id="text3860-8"
               sodipodi:linespacing="125%"><tspan
                 sodipodi:role="line"
                 id="tspan3862-8"
                 x="57.757656"
                 y="111.00707"
                 style="text-align:center;text-anchor:middle">7</tspan></text>
          </g>
        </g>
      </g>
    </g>
  </g>
</svg>
