<?xml version="1.0" encoding="UTF-8" standalone="no"?>
<!-- Created with Inkscape (http://www.inkscape.org/) -->

<svg
   xmlns:i="http://ns.adobe.com/AdobeIllustrator/10.0/"
   xmlns:dc="http://purl.org/dc/elements/1.1/"
   xmlns:cc="http://creativecommons.org/ns#"
   xmlns:rdf="http://www.w3.org/1999/02/22-rdf-syntax-ns#"
   xmlns:svg="http://www.w3.org/2000/svg"
   xmlns="http://www.w3.org/2000/svg"
   xmlns:xlink="http://www.w3.org/1999/xlink"
   xmlns:sodipodi="http://sodipodi.sourceforge.net/DTD/sodipodi-0.dtd"
   xmlns:inkscape="http://www.inkscape.org/namespaces/inkscape"
   width="787.5"
   height="1012.5"
   id="svg2"
   version="1.1"
   inkscape:version="0.48.1 r9760"
   sodipodi:docname="page12-back-cover.svg">
  <defs
     id="defs4">
    <foreignObject
       id="foreignObject2608"
       height="1"
       width="1"
       y="0"
       x="0"
       requiredExtensions="http://ns.adobe.com/AdobeIllustrator/10.0/">
      <i:pgfRef
         xlink:href="#adobe_illustrator_pgf" />
    </foreignObject>
    <foreignObject
       id="foreignObject2608-9"
       height="1"
       width="1"
       y="0"
       x="0"
       requiredExtensions="http://ns.adobe.com/AdobeIllustrator/10.0/">
      <i:pgfRef
         xlink:href="#adobe_illustrator_pgf" />
    </foreignObject>
    <foreignObject
       requiredExtensions="http://ns.adobe.com/AdobeIllustrator/10.0/"
       x="0"
       y="0"
       width="1"
       height="1"
       id="foreignObject2608-3">
      <i:pgfRef
         xlink:href="#adobe_illustrator_pgf" />
    </foreignObject>
  </defs>
  <sodipodi:namedview
     id="base"
     pagecolor="#ffffff"
     bordercolor="#666666"
     borderopacity="1.0"
     inkscape:pageopacity="0.0"
     inkscape:pageshadow="2"
     inkscape:zoom="0.5"
     inkscape:cx="635.79785"
     inkscape:cy="499.86455"
     inkscape:document-units="in"
     inkscape:current-layer="layer1"
     showgrid="false"
     units="in"
     inkscape:window-width="1022"
     inkscape:window-height="720"
     inkscape:window-x="0"
     inkscape:window-y="24"
     inkscape:window-maximized="0"
     inkscape:snap-page="true"
     inkscape:snap-global="true"
     showguides="true"
     inkscape:guide-bbox="true"
     inkscape:snap-bbox="true"
     inkscape:snap-nodes="true">
    <sodipodi:guide
       position="0,11.25"
       orientation="0,1"
       id="guide2985" />
    <sodipodi:guide
       position="776.25,0"
       orientation="1,0"
       id="guide2987" />
    <sodipodi:guide
       position="787.5,1001.25"
       orientation="0,1"
       id="guide2989" />
    <sodipodi:guide
       position="11.25,1012.5"
       orientation="1,0"
       id="guide2991" />
    <sodipodi:guide
       orientation="1,0"
       position="776.25,280.01429"
       id="guide4408" />
    <sodipodi:guide
       orientation="0,1"
       position="560,956.25"
       id="guide4410" />
    <sodipodi:guide
       orientation="1,0"
       position="731.25,585.48441"
       id="guide4412" />
    <sodipodi:guide
       orientation="0,1"
       position="827.31493,56.25"
       id="guide4418" />
    <sodipodi:guide
       orientation="1,0"
       position="56.25,-36.769553"
       id="guide4426" />
  </sodipodi:namedview>
  <metadata
     id="metadata7">
    <rdf:RDF>
      <cc:Work
         rdf:about="">
        <dc:format>image/svg+xml</dc:format>
        <dc:type
           rdf:resource="http://purl.org/dc/dcmitype/StillImage" />
        <dc:title />
      </cc:Work>
    </rdf:RDF>
  </metadata>
  <g
     inkscape:label="Layer 1"
     inkscape:groupmode="layer"
     id="layer1"
     transform="translate(0,-39.862)">
    <rect
       style="fill:#3c6eb4;fill-opacity:1"
       id="rect3012"
       width="787.5"
       height="1012.5"
       x="-3.5527137e-15"
       y="39.862" />
    <g
       id="g3921"
       transform="matrix(0.94078069,0,0,0.94865408,-28.01205,282.93269)">
      <g
         transform="matrix(0.27401424,0,0,0.27401424,367.07316,24.787672)"
         id="g4574" />
    </g>
    <g
       id="g10149"
       transform="matrix(0.58063195,0.58549121,-0.58063195,0.58549121,-445.13114,-553.36071)"
       inkscape:export-filename="/home/duffy/Resources/FedoraLogo.tar.gz_FILES/fudcon-logo-template.png"
       inkscape:export-xdpi="90"
       inkscape:export-ydpi="90"
       style="fill:#294172;fill-opacity:1">
      <path
         inkscape:connector-curvature="0"
         style="fill:#294172;fill-opacity:1;stroke:none"
         d="m 1712.0577,188.6514 c -7.1795,-0.005 -14.3886,2.72004 -19.8757,8.18802 l -17.1685,17.16841 c -1.5485,1.54851 -1.5511,4.06164 0,5.61274 l 17.0364,17.03637 c 10.968,10.96799 28.9194,10.9693 39.8836,-1e-5 10.9693,-10.9693 10.902,-28.84951 -0.066,-39.81751 -5.4771,-5.47696 -12.6302,-8.18289 -19.8098,-8.18802 z"
         id="path10151" />
      <path
         inkscape:connector-curvature="0"
         id="path10153"
         d="m 1622.6216,288.38298 c -0.01,-10.22385 3.8733,-20.4896 11.6598,-28.30352 l 24.4483,-24.44822 c 2.2051,-2.20513 5.7839,-2.20876 7.9926,-3e-5 l 24.2603,24.26018 c 15.6187,15.61874 15.6205,41.18191 0,56.79511 -15.6206,15.62055 -41.0824,15.52469 -56.7012,-0.094 -7.7992,-7.79931 -11.6526,-17.98562 -11.6598,-28.20949 z"
         style="fill:#294172;fill-opacity:1;stroke:none" />
      <path
         inkscape:connector-curvature="0"
         style="fill:#294172;fill-opacity:1;stroke:none"
         d="m 1613.2612,244.88341 c 7.1795,0.005 14.3885,-2.72005 19.8757,-8.18802 l 17.1685,-17.16841 c 1.5485,-1.54851 1.5509,-4.06165 0,-5.61274 l -17.0364,-17.03637 c -10.968,-10.96799 -28.9194,-10.9693 -39.8836,1e-5 -10.9693,10.9693 -10.902,28.84951 0.066,39.81751 5.477,5.47696 12.6302,8.18288 19.8098,8.18802 z"
         id="path10155" />
      <path
         inkscape:connector-curvature="0"
         id="path10157"
         d="m 1702.6973,147.3905 c 0.01,10.22385 -3.8733,20.4896 -11.6599,28.30352 l -24.4482,24.44822 c -2.2051,2.20513 -5.7839,2.20876 -7.9926,3e-5 l -24.2603,-24.26018 c -15.6187,-15.61874 -15.6205,-41.18191 0,-56.79511 15.6206,-15.62055 41.0824,-15.52469 56.7011,0.094 7.7993,7.79931 11.6527,17.98562 11.6599,28.20949 z"
         style="fill:#294172;fill-opacity:1;stroke:none" />
    </g>
  </g>
</svg>
