<?xml version="1.0" encoding="UTF-8" standalone="no"?>
<svg
   xmlns:dc="http://purl.org/dc/elements/1.1/"
   xmlns:cc="http://creativecommons.org/ns#"
   xmlns:rdf="http://www.w3.org/1999/02/22-rdf-syntax-ns#"
   xmlns:svg="http://www.w3.org/2000/svg"
   xmlns="http://www.w3.org/2000/svg"
   xml:space="preserve"
   enable-background="new 0 0 3483.449 2031.5"
   viewBox="0 0 3483.449 2031.5"
   height="2031.5px"
   width="3483.449px"
   y="0px"
   x="0px"
   id="Layer_1"
   version="1.1"><metadata
     id="metadata50417"><rdf:RDF><cc:Work
         rdf:about=""><dc:format>image/svg+xml</dc:format><dc:type
           rdf:resource="http://purl.org/dc/dcmitype/StillImage" /><dc:title></dc:title></cc:Work></rdf:RDF></metadata><defs
     id="defs50415" /><g
     display="none"
     id="Layer_1_3_"><g
       display="inline"
       id="Layer_2" /><text
       id="text49969"
       font-size="870.5526"
       font-family="'Evolution'"
       display="inline"
       transform="matrix(1 0 0 1 4838.1743 987.6553)">Floss</text>
<text
       id="text49971"
       font-size="870.5526"
       font-family="'MyriadPro-Regular'"
       display="inline"
       transform="matrix(1 0 0 1 6829.9536 987.6553)">-</text>
<text
       id="text49973"
       font-size="870.5526"
       font-family="'Evolution'"
       display="inline"
       transform="matrix(1 0 0 1 7097.2056 987.6553)">pa</text>
<text
       id="text49975"
       letter-spacing="-39"
       font-size="845.9993"
       font-family="'MuseoSans-500'"
       display="inline"
       transform="matrix(1 0 0 1 4838.1743 2442.3467)">Floss-pa</text>
<text
       id="text49977"
       letter-spacing="-2"
       font-size="116.7171"
       font-family="'MuseoSans-500'"
       display="inline"
       transform="matrix(1 0 0 1 2663.4409 99.0039)">museo sans 500</text>
<g
       id="g49979"
       display="inline"><g
         id="Layer_1_2_"><linearGradient
           gradientTransform="matrix(1 0 0 -1 0 5804)"
           y2="3640.1611"
           x2="6895.3921"
           y1="3640.1611"
           x1="6707.8677"
           gradientUnits="userSpaceOnUse"
           id="SVGID_1_"><stop
             id="stop49983"
             style="stop-color:#FFD752"
             offset="0" /><stop
             id="stop49985"
             style="stop-color:#FFF16E"
             offset="0.5" /><stop
             id="stop49987"
             style="stop-color:#FFFFFF"
             offset="1" /></linearGradient><path
           id="path49989"
           d="M6717.896,2148.617c-2.117,0.488-2.666,2.863-2.666,2.863     s-9.369,20.334-6.969,19.752c31.299,1.305,91.609-18.908,117.689,37.166c0,0,24.125-11.736,28.363-19.727     c3.307-6.23-26.896-25.919-23.477-28.362c3.424-2.444,64.555-20.051,64.555-20.051l-2.201-20.979     C6893.193,2119.283,6816.07,2166.066,6717.896,2148.617z"
           stroke-width="6"
           stroke="#000000"
           fill="url(#SVGID_1_)" /><g
           id="g49991"><path
             id="path49993"
             d="M6689.521,2148.4      c0,0-7.871,123.219-17.283,141.601c-7.674,14.981-34.006,12.649-50.238,1.293c-19.805-13.854-54.855-54.854-50.127-81.337      c4.729-38.773,38.213-87.432,41.141-101.303c0,0,11.688,27.771,27.588,36.043      C6658.521,2154.025,6681.955,2149.66,6689.521,2148.4z"
             stroke-linecap="round"
             stroke-width="7"
             stroke="#000000"
             fill="#221C11" /><path
             id="path49995"
             d="M6613.396,2117.65c0,0-5,10.457-7.582,15.25c3.666,5.666,41.125,40.354,77.791,46.688      c0,0,1.479-15,2.043-27.25C6669.896,2154.9,6634.396,2161.15,6613.396,2117.65z"
             fill="#FFFFFF" /><path
             id="path49997"
             d="M6676.927,2249.15l3.529-32.063c0,0-56.145-17.604-86.479-60.604      c-10.805,22.668-10.615,23.979-10.615,23.979S6616.925,2241.816,6676.927,2249.15z"
             fill="#FFFFFF" /><path
             id="path49999"
             d="M6576.146,2224.232c0,0,11.029,55.766,68.25,73.084c17.826,3.057,22.57-5.604,23.25-6.623      C6668.324,2289.675,6620.291,2300.979,6576.146,2224.232z"
             fill="#FFFFFF" /></g><g
           id="g50001"
           enable-background="new    "><path
             id="path50003"
             d="M6979.021,1775.474c-11.936,25.048-21.104,31.401-25.264,37.068      c-15.514,10.256-14.627,11.97-3.145,13.068c8.797,1.195,28.689-1.01,40.021-2.354c11.33-1.346,30.266-10.396,34.145-10.31      c5.973,0.138,11.281,1.224,14.355,10.915c3.77,9.667,5.033-12.75,5.615-17.214c0.684-5.997,3.297-29.272-12.369-45.396      c-10.734-9.504-50.252-25.591-56.443-27.001C6972.738,1734.255,6982.087,1766.895,6979.021,1775.474z"
             fill="#251F10" /><path
             id="path50005"
             d="M7041.658,1829.26c-2.869,0-4.088-3.128-4.547-4.307l-0.064-0.182c-2.539-8.004-6.395-8.705-11.563-8.824      c-1.203,0.024-6.18,1.857-10.174,3.332c-7.42,2.734-16.654,6.141-23.549,6.958c-9.838,1.167-24.053,2.718-33.879,2.718l0,0      c-2.775,0-5.02-0.119-6.842-0.363c-5.75-0.552-10.215-1.266-11.104-4.819c-0.939-3.773,2.912-7.087,12.498-13.445      c1.01-1.312,2.217-2.632,3.594-4.137c4.809-5.254,12.063-13.188,20.979-31.853c1.313-4.056-0.775-16.371-2.166-24.551      c-2.086-12.284-2.404-15.354-0.762-17.305c0.658-0.781,1.617-1.229,2.627-1.229h0.338l0.328,0.074      c6.375,1.451,46.42,17.635,57.77,27.681l0.164,0.155c7.611,7.832,16.082,22.488,13.195,47.823      c-0.094,0.718-0.191,1.806-0.318,3.13C7046.89,1823.72,7045.939,1829.26,7041.658,1829.26L7041.658,1829.26z M6951.669,1822.625      l0.117,0.014c1.543,0.21,3.594,0.316,6.094,0.316c9.508,0,23.484-1.527,33.172-2.676c6.189-0.733,15.057-4.003,22.182-6.629      c6.602-2.433,10.141-3.701,12.26-3.701l0.127,0.001c5.516,0.126,11.584,1.002,15.52,8.923c0.51-3.398,0.896-7.469,1.068-9.319      c0.135-1.414,0.244-2.575,0.34-3.291c2.604-22.862-4.777-35.907-11.467-42.834c-9.186-8.04-40.928-21.47-51.947-25.292      c0.277,2.734,1.268,38.181,1.268,38.181c-9.33,19.584-32.377,44.456-33.629,45.645      C6946.769,1821.96,6949.257,1822.395,6951.669,1822.625z" /></g><path
           id="path50007"
           d="M6793.896,1615.983c-4.166,7.167-5.813,45.694-5.813,45.694     s-19.805-10.765-29.188-34.86c-21,37,3,69.667,3,69.667s-31.666,34,0.107,65.056c-14.148,22.944-13.443,31.708,2.789,47.688     c-10.398,10.906-11.92,29.817,17.25,43.771c1.854,20.653,29.521,30.82,51.418,11.486c19.021,26.635,55.969,8.896,62.814-2.267     c5.721,11.334,16.396,10.932,16.396,10.932s18.721-1.666,25.055-14.999c4.166,5.5,17.822,16.498,17,12     c-1.041-5.667-2.502-27.227,9.166-45c0,0-21.875,0.5-21.996-0.958c-0.203-2.422,20.248-15.166,27.551-28.786     c7.307-13.62,17.74-19.332,7.945-61.922c-11.424-7.823-18.791-18.474-31.834-23.833c-12.068-4.96-77.492-25.354-85.332-28.5     C6832.396,1672.483,6793.896,1615.983,6793.896,1615.983z"
           stroke-width="5"
           stroke="#000000"
           fill="#7C756A" /><g
           id="g50009"><g
             id="g50011"
             enable-background="new    "><path
               id="path50013"
               d="M6973.853,1932.431l4.291-3.155c14.533,55.832,6.857,102.483-22.486,140.447       c-21.832,28.24-54.818,50.112-98.049,65.013c-37.646,12.973-81.178,19.827-125.895,19.827l0,0       c-11.354,0-22.711-0.455-33.746-1.354l-0.541-4.879c59.875-18.687,115.855-49.246,153.588-83.851       c29.473-27.026,62.896-66.658,51.918-115.823 M6711.265,2149.063c6.771,0.334,13.607,0.5,20.451,0.5       c97.621,0,179.857-30.988,219.984-82.896c27.857-36.04,35.309-81.189,22.15-134.232c-16.162,6.271-53.496,16.421-65.521,17.979       c7.697,39.934-11.26,78.612-53.938,117.752C6818.755,2100.852,6767.126,2129.955,6711.265,2149.063L6711.265,2149.063z" /><path
               id="path50015"
               d="M6904.775,1946.018c6.48-0.337,54.119-7.701,69.619-14.867       c41.084,170.834-131.428,226.75-270.1,218.438C6821.796,2112.924,6928.896,2030.9,6904.775,1946.018z"
               fill="#FFFFFF" /></g><g
             id="g50017"><path
               id="path50019"
               d="M6676.47,2156.253c-31.334,0-48.994-15.315-58.293-28.17c-10.029-13.864-12.633-27.57-12.738-28.146l-0.021-0.151       c-9.371-77.783,19.576-137.726,45.842-181.258c18.248-29.229,58.375-48.272,79.213-54.923       c14.361-4.583,27.006-24.892,27.133-25.097l1.801-2.922l2.23,2.609c0.053,0.059,5.605,6.411,18.127,13.081l0.91,0.484       l0.303,0.984c4.387,14.208,12.67,21.412,24.629,21.412c13.061,0,25.99-8.5,26.119-8.586l1.959-1.303l1.42,1.873       c5.408,7.142,13.398,10.763,23.752,10.762c14.623-0.001,29.666-7.238,35.23-12.13l1.758-1.543l1.654,1.647       c4.182,4.155,9.059,6.262,14.5,6.262c12.689,0,24.203-10.991,24.316-11.104l1.576-1.554l1.73,1.378       c5.379,4.279,16.584,9.925,16.695,9.98l0.896,0.452l20.957,59.267l-3.441,2.759c-3.666-5.25-66.152,16.991-67.811,17.517       c6.465,45.827-6.479,83.682-39.559,115.697c-32.186,31.15-80.947,54.734-128.852,75.579       C6715.423,2151.158,6694.548,2156.253,6676.47,2156.253L6676.47,2156.253z M6610.369,2099.096       c0.201,1.014,2.879,13.721,11.973,26.215c12.531,17.216,30.742,25.94,54.129,25.94c17.393,0,37.594-4.955,60.051-14.728       c47.473-20.656,95.758-43.99,127.365-74.588c32.49-31.45,44.555-67.116,37.963-112.245l-0.014-0.104       c-0.109-1.063,0.209-2.096,0.898-2.899c1.9-2.209,6.184-2.405,13.947-2.762c13.9-0.64,37.588-1.314,56.229-15.668       l-19.744-54.412c-2.563-1.319-9.932-5.209-14.973-8.808c-3.902,3.298-14.383,11.096-26.207,11.097       c-6.104,0-11.604-2.082-16.385-6.194c-7.146,5.27-22.191,11.957-36.76,11.958c-10.965,0-20.008-3.785-26.299-10.977       c-4.357,2.547-15.379,8.229-26.951,8.229c-9.746,0-22.625-4.188-29.094-23.954c-8.338-4.546-13.637-8.888-16.383-11.441       c-4.148,6.021-15.189,20.475-28.135,24.604c-20.189,6.442-59.016,24.81-76.475,52.774       C6629.693,1963.938,6601.208,2022.867,6610.369,2099.096L6610.369,2099.096z" /><path
               id="path50021"
               d="M6778.896,1855.275c-13.18-7.021-19.094-12.893-19.094-12.893s-13.063,21.241-28.5,26.167       c-15.436,4.927-58.455,22.795-77.832,53.833c-23.48,38.921-52.697,97.063-43.102,176.711c0,0,12.5,87.041,126.148,37.432       c104.838-45.765,179.93-86.807,165.604-184.873c-0.693-6.641,42.602,5.13,72.604-19.336l-19.461-57.674       c0,0-11.102-7.127-16.746-11.618c-2.689,2.652-25.451,21.955-42.625,4.875c-9.666,8.5-45.709,23.835-62.625,1.5       C6833.269,1869.4,6791.828,1897.192,6778.896,1855.275z"
               fill="#1E170D" /></g><g
             id="g50023"><path
               id="path50025"
               d="M6833.896,1909.983c41.834,10.167,62.881,36.116,63.426,65.159       c0.689,36.563-22.615,73.621-41.301,88.729c13.438,4.395,47.125-43.1,47.125-93.6c-2.832-46.667-44.311-58.326-61.25-60.465       L6833.896,1909.983z"
               fill="#020100" /><path
               id="path50027"
               d="M6886.728,2022.817c5.707-16.063,14-34.167,9.166-61.667c-6.875-46.125-64.822-52.584-62-51.167       c44.834,22.5,54.482,42.333,54.189,69.646c-0.521,48.854-34.555,84.232-32.064,84.243       C6865.021,2063.908,6876.269,2042.217,6886.728,2022.817z"
               fill="#FFFFFF" /></g></g><g
           id="g50029"><linearGradient
             gradientTransform="matrix(1 0 0 -1 0 5804)"
             y2="4009.2278"
             x2="6936.1543"
             y1="4046.3301"
             x1="6874.4058"
             gradientUnits="userSpaceOnUse"
             id="SVGID_2_"><stop
               id="stop50032"
               style="stop-color:#FFD752"
               offset="0" /><stop
               id="stop50034"
               style="stop-color:#FFF16E"
               offset="0.0606" /><stop
               id="stop50036"
               style="stop-color:#FFF27C"
               offset="0.0856" /><stop
               id="stop50038"
               style="stop-color:#FFF69F"
               offset="0.1599" /><stop
               id="stop50040"
               style="stop-color:#FFF9BD"
               offset="0.2416" /><stop
               id="stop50042"
               style="stop-color:#FFFBD5"
               offset="0.3312" /><stop
               id="stop50044"
               style="stop-color:#FFFDE8"
               offset="0.4317" /><stop
               id="stop50046"
               style="stop-color:#FFFEF5"
               offset="0.5494" /><stop
               id="stop50048"
               style="stop-color:#FFFFFD"
               offset="0.7003" /><stop
               id="stop50050"
               style="stop-color:#FFFFFF"
               offset="1" /></linearGradient><path
             id="path50052"
             d="M6942.175,1758.108c5.25,15.25,0.807,36.792-20.443,48.542      c-22.25,14.75-60.834-3.667-49.75-43.5C6876.146,1740.775,6939.8,1747.821,6942.175,1758.108z"
             stroke-width="5"
             stroke="#000000"
             fill="url(#SVGID_2_)" /><ellipse
             id="ellipse50054"
             ry="23.125"
             rx="24.045"
             cy="1774.025"
             cx="6909.273" /><path
             id="path50056"
             d="M6912.812,1767.873c0,5.395-4.477,9.765-10,9.765c-6.549,0.589-10.076-2.94-10-9.765      c0-5.395,4.48-9.766,10-9.766C6908.337,1758.108,6912.812,1762.479,6912.812,1767.873z"
             fill="#FFFFFF" /></g><linearGradient
           gradientTransform="matrix(1 0 0 -1 0 5804)"
           y2="3955.2666"
           x2="6789.1187"
           y1="4179.0996"
           x1="6789.1187"
           gradientUnits="userSpaceOnUse"
           id="SVGID_3_"><stop
             id="stop50059"
             style="stop-color:#3C3625"
             offset="0" /><stop
             id="stop50061"
             style="stop-color:#4C4636"
             offset="0.1693" /><stop
             id="stop50063"
             style="stop-color:#666053"
             offset="0.4991" /><stop
             id="stop50065"
             style="stop-color:#766F64"
             offset="0.7872" /><stop
             id="stop50067"
             style="stop-color:#7C756A"
             offset="1" /></linearGradient><path
           id="path50069"
           d="M6820.271,1657.9c0,0-7.625,10-4.625,22     c0,0-12.875-9.5-17.75-6.125c0,0-13.125,13.875-11.5,32.375c0,0-10-7.625-12.75,0s-12,54,29.75,81c-5,3.375-6.25,3.75-23.5-5.875     c-8.875,4.5,8.793,45.769,46.125,46.5l-44.25,20.958c0,0-35.25-15.708-12-39.333c-20.875-19.5-15.5-29.125-2.125-48     c0,0-16.512-21.773-15.375-33.5c1.293-13.333,8.098-23.952,15.766-30.952c-8.51-17.436-21.641-28.423-9.641-60.423     c16.25,22.375,30,32,32.25,30.625c0,0,2.99-38.063,5.125-42.25C6804.437,1636.9,6818.771,1657.067,6820.271,1657.9z"
           enable-background="new    "
           fill="url(#SVGID_3_)"
           opacity="0.28" /><path
           id="path50071"
           d="M6978.771,1763.4c0,0-12.125-13.875-35.75-16.125c-21.688-2.064-56.375-0.965-67.25-1.375     c-10.582-0.398-23.375,0.375-49.625-5.125c26.5,11.375,62.625,9.625,62.625,9.625s44.916,1.546,53,3.25     c32.625,6.875,36.625,19.125,36.625,19.125S6979.521,1767.775,6978.771,1763.4z" /></g><g
         id="Layer_3_1_" /></g><g
       id="g50074"
       display="inline"><g
         id="Layer_1_5_"><linearGradient
           gradientTransform="matrix(1 0 0 -1 0 5804)"
           y2="5073.1768"
           x2="7115.4995"
           y1="5073.1768"
           x1="6927.9771"
           gradientUnits="userSpaceOnUse"
           id="SVGID_4_"><stop
             id="stop50078"
             style="stop-color:#FFD752"
             offset="0" /><stop
             id="stop50080"
             style="stop-color:#FFF16E"
             offset="0.5" /><stop
             id="stop50082"
             style="stop-color:#FFFFFF"
             offset="1" /></linearGradient><path
           id="path50084"
           d="M6938.007,715.601c-2.119,0.488-2.666,2.864-2.666,2.864     s-9.371,20.334-6.971,19.751c31.299,1.306,91.609-18.909,117.689,37.166c0,0,24.125-11.735,28.361-19.725     c3.309-6.231-26.895-25.919-23.475-28.363c3.424-2.445,64.553-20.05,64.553-20.05l-2.201-20.979     C7113.306,686.265,7036.183,733.05,6938.007,715.601z"
           stroke-width="6"
           stroke="#000000"
           fill="url(#SVGID_4_)" /><g
           id="g50086"><path
             id="path50088"
             d="M6909.632,715.383      c0,0-7.873,123.221-17.285,141.602c-7.674,14.98-34.006,12.648-50.24,1.293c-19.803-13.854-54.854-54.854-50.125-81.337      c4.73-38.773,38.213-87.433,41.143-101.305c0,0,11.688,27.771,27.588,36.044      C6878.632,721.008,6902.064,716.644,6909.632,715.383z"
             stroke-linecap="round"
             stroke-width="7"
             stroke="#000000"
             fill="#221C11" /><path
             id="path50090"
             d="M6833.507,684.633c0,0-5,10.458-7.584,15.25c3.668,5.667,41.125,40.354,77.793,46.688      c0,0,1.479-15,2.041-27.25C6890.007,721.883,6854.507,728.133,6833.507,684.633z"
             fill="#FFFFFF" /><path
             id="path50092"
             d="M6897.039,816.133l3.529-32.063c0,0-56.146-17.604-86.479-60.604      c-10.805,22.667-10.615,23.979-10.615,23.979S6837.037,808.799,6897.039,816.133z"
             fill="#FFFFFF" /><path
             id="path50094"
             d="M6796.257,791.216c0,0,11.027,55.767,68.25,73.083c17.826,3.059,22.568-5.604,23.25-6.623      C6888.435,856.658,6840.402,867.961,6796.257,791.216z"
             fill="#FFFFFF" /></g><g
           id="g50096"
           enable-background="new    "><path
             id="path50098"
             d="M7199.132,342.457c-11.936,25.048-21.107,31.401-25.266,37.067      c-15.514,10.257-14.627,11.971-3.145,13.069c8.797,1.196,28.688-1.009,40.021-2.353c11.33-1.346,30.266-10.397,34.145-10.31      c5.973,0.137,11.279,1.223,14.355,10.915c3.771,9.667,5.033-12.75,5.615-17.214c0.684-5.997,3.297-29.273-12.369-45.394      c-10.734-9.504-50.252-25.591-56.443-27.001C7192.851,301.239,7202.197,333.878,7199.132,342.457z"
             fill="#251F10" /><path
             id="path50100"
             d="M7261.769,396.242c-2.869,0-4.088-3.128-4.547-4.307l-0.063-0.182c-2.539-8.003-6.396-8.705-11.564-8.824      c-1.203,0.025-6.176,1.858-10.172,3.332c-7.42,2.735-16.654,6.14-23.549,6.958c-9.838,1.167-24.053,2.717-33.879,2.717l0,0      c-2.775,0-5.02-0.119-6.842-0.362c-5.75-0.553-10.215-1.267-11.102-4.82c-0.941-3.774,2.912-7.086,12.498-13.446      c1.008-1.311,2.215-2.631,3.592-4.136c4.809-5.254,12.063-13.187,20.979-31.852c1.313-4.055-0.775-16.371-2.166-24.55      c-2.086-12.285-2.404-15.354-0.762-17.305c0.658-0.781,1.617-1.229,2.627-1.229h0.338l0.328,0.075      c6.375,1.451,46.42,17.634,57.77,27.68l0.164,0.155c7.611,7.833,16.082,22.489,13.195,47.824      c-0.096,0.718-0.191,1.805-0.318,3.13C7267.001,390.702,7266.052,396.242,7261.769,396.242L7261.769,396.242z M7171.779,389.607      l0.117,0.015c1.543,0.21,3.596,0.315,6.096,0.315c9.508,0,23.484-1.526,33.172-2.675c6.188-0.733,15.057-4.003,22.182-6.629      c6.6-2.432,10.141-3.701,12.258-3.701l0.125,0.001c5.518,0.126,11.586,1.002,15.521,8.923c0.51-3.398,0.895-7.469,1.066-9.319      c0.137-1.414,0.246-2.575,0.34-3.291c2.604-22.863-4.775-35.908-11.467-42.834c-9.184-8.04-40.924-21.47-51.945-25.292      c0.277,2.735,1.268,38.18,1.268,38.18c-9.33,19.584-32.377,44.456-33.629,45.645      C7166.88,388.942,7169.369,389.377,7171.779,389.607z" /></g><path
           id="path50102"
           d="M7014.007,182.966c-4.168,7.167-5.813,45.695-5.813,45.695     s-19.807-10.764-29.188-34.861c-21,37,3,69.667,3,69.667s-31.668,34,0.105,65.055c-14.148,22.945-13.441,31.708,2.791,47.688     c-10.398,10.907-11.922,29.817,17.25,43.771c1.852,20.653,29.52,30.82,51.418,11.486c19.021,26.634,55.969,8.896,62.814-2.266     c5.717,11.334,16.395,10.931,16.395,10.931s18.723-1.666,25.055-14.999c4.168,5.5,17.824,16.498,17,12     c-1.039-5.667-2.502-27.227,9.168-45c0,0-21.875,0.5-21.998-0.958c-0.203-2.421,20.25-15.166,27.553-28.786     c7.305-13.621,17.736-19.332,7.941-61.922c-11.424-7.824-18.791-18.473-31.834-23.833c-12.066-4.96-77.492-25.354-85.332-28.5     C7052.507,239.466,7014.007,182.966,7014.007,182.966z"
           stroke-width="5"
           stroke="#000000"
           fill="#7C756A" /><g
           id="g50104"><g
             id="g50106"
             enable-background="new    "><path
               id="path50108"
               d="M7193.964,499.415l4.293-3.156c14.531,55.832,6.855,102.485-22.49,140.448c-21.832,28.241-54.816,50.112-98.049,65.012       c-37.643,12.974-81.176,19.828-125.893,19.828l0,0c-11.355,0-22.711-0.456-33.746-1.354l-0.541-4.88       c59.875-18.686,115.857-49.245,153.588-83.851c29.471-27.026,62.896-66.658,51.92-115.823 M6931.376,716.046       c6.768,0.333,13.607,0.5,20.451,0.5c97.621,0,179.857-30.989,219.982-82.896c27.859-36.04,35.311-81.19,22.152-134.231       c-16.164,6.271-53.498,16.42-65.521,17.979c7.697,39.935-11.26,78.612-53.938,117.752       C7038.867,667.833,6987.236,696.939,6931.376,716.046L6931.376,716.046z" /><path
               id="path50110"
               d="M7124.888,513.001c6.48-0.337,54.119-7.701,69.619-14.868c41.086,170.834-131.426,226.75-270.1,218.439       C7041.908,679.907,7149.007,597.883,7124.888,513.001z"
               fill="#FFFFFF" /></g><g
             id="g50112"><path
               id="path50114"
               d="M6896.582,723.236c-31.334,0-48.994-15.316-58.293-28.17c-10.031-13.863-12.633-27.569-12.738-28.146l-0.021-0.152       c-9.371-77.78,19.576-137.725,45.842-181.257c18.248-29.228,58.375-48.271,79.213-54.923       c14.359-4.583,27.006-24.891,27.133-25.096l1.799-2.923l2.229,2.608c0.055,0.061,5.607,6.411,18.127,13.081l0.91,0.485       l0.307,0.984c4.385,14.207,12.67,21.411,24.629,21.411c13.057,0,25.99-8.5,26.119-8.586l1.957-1.302l1.422,1.873       c5.408,7.141,13.396,10.762,23.752,10.761c14.623-0.001,29.666-7.237,35.229-12.129l1.758-1.544l1.656,1.648       c4.18,4.154,9.059,6.263,14.5,6.263c12.688-0.001,24.203-10.993,24.314-11.104l1.578-1.554l1.73,1.378       c5.379,4.279,16.584,9.925,16.693,9.982l0.898,0.451l20.957,59.266l-3.443,2.759c-3.666-5.25-66.15,16.991-67.809,17.518       c6.465,45.827-6.48,83.681-39.561,115.696c-32.184,31.151-80.945,54.734-128.85,75.579       C6935.535,718.14,6914.66,723.236,6896.582,723.236L6896.582,723.236z M6830.48,666.079c0.201,1.012,2.879,13.72,11.975,26.214       c12.529,17.215,30.742,25.94,54.129,25.94c17.389,0,37.592-4.955,60.049-14.729c47.471-20.657,95.758-43.99,127.367-74.588       c32.49-31.45,44.553-67.116,37.963-112.244l-0.016-0.104c-0.109-1.063,0.209-2.096,0.898-2.898       c1.898-2.21,6.184-2.406,13.949-2.762c13.898-0.641,37.586-1.315,56.229-15.669l-19.746-54.411       c-2.563-1.32-9.932-5.209-14.973-8.81c-3.9,3.299-14.381,11.097-26.207,11.099c-6.102,0-11.604-2.082-16.383-6.195       c-7.146,5.269-22.191,11.957-36.76,11.958c-10.965,0-20.008-3.785-26.299-10.977c-4.355,2.546-15.379,8.229-26.951,8.229       c-9.746,0-22.625-4.188-29.094-23.954c-8.338-4.545-13.637-8.887-16.383-11.44c-4.146,6.021-15.189,20.475-28.133,24.604       c-20.189,6.443-59.016,24.81-76.477,52.774C6849.806,530.921,6821.32,589.849,6830.48,666.079L6830.48,666.079z" /><path
               id="path50116"
               d="M6999.007,422.258c-13.182-7.021-19.094-12.892-19.094-12.892s-13.063,21.24-28.5,26.167       s-58.455,22.795-77.832,53.833c-23.484,38.921-52.699,97.062-43.104,176.712c0,0,12.502,87.041,126.15,37.431       c104.838-45.764,179.93-86.806,165.604-184.873c-0.691-6.641,42.602,5.129,72.604-19.336l-19.461-57.674       c0,0-11.104-7.127-16.746-11.618c-2.689,2.652-25.451,21.955-42.625,4.875c-9.666,8.5-45.709,23.835-62.625,1.5       C7053.38,436.383,7011.939,464.175,6999.007,422.258z"
               fill="#1E170D" /></g><g
             id="g50118"><path
               id="path50120"
               d="M7054.007,476.966c41.832,10.167,62.879,36.117,63.424,65.159       c0.688,36.563-22.615,73.622-41.299,88.729c13.434,4.394,47.125-43.101,47.125-93.601       c-2.834-46.667-44.311-58.326-61.25-60.464L7054.007,476.966z"
               fill="#020100" /><path
               id="path50122"
               d="M7106.841,589.8c5.707-16.063,14-34.167,9.166-61.667c-6.875-46.125-64.826-52.584-62-51.167       c44.832,22.5,54.48,42.333,54.188,69.646c-0.521,48.854-34.555,84.231-32.063,84.243       C7085.132,630.891,7096.378,609.2,7106.841,589.8z"
               fill="#FFFFFF" /></g></g><g
           id="g50124"><linearGradient
             gradientTransform="matrix(1 0 0 -1 0 5804)"
             y2="5442.2446"
             x2="7156.2651"
             y1="5479.3477"
             x1="7094.5161"
             gradientUnits="userSpaceOnUse"
             id="SVGID_5_"><stop
               id="stop50127"
               style="stop-color:#FFD752"
               offset="0" /><stop
               id="stop50129"
               style="stop-color:#FFF16E"
               offset="0.0606" /><stop
               id="stop50131"
               style="stop-color:#FFF27C"
               offset="0.0856" /><stop
               id="stop50133"
               style="stop-color:#FFF69F"
               offset="0.1599" /><stop
               id="stop50135"
               style="stop-color:#FFF9BD"
               offset="0.2416" /><stop
               id="stop50137"
               style="stop-color:#FFFBD5"
               offset="0.3312" /><stop
               id="stop50139"
               style="stop-color:#FFFDE8"
               offset="0.4317" /><stop
               id="stop50141"
               style="stop-color:#FFFEF5"
               offset="0.5494" /><stop
               id="stop50143"
               style="stop-color:#FFFFFD"
               offset="0.7003" /><stop
               id="stop50145"
               style="stop-color:#FFFFFF"
               offset="1" /></linearGradient><path
             id="path50147"
             d="M7162.287,325.091c5.25,15.25,0.805,36.792-20.445,48.542      c-22.25,14.75-60.834-3.667-49.75-43.5C7096.257,307.758,7159.912,314.804,7162.287,325.091z"
             stroke-width="5"
             stroke="#000000"
             fill="url(#SVGID_5_)" /><ellipse
             id="ellipse50149"
             ry="23.125"
             rx="24.045"
             cy="341.008"
             cx="7129.386" /><path
             id="path50151"
             d="M7132.925,334.856c0,5.394-4.479,9.765-10,9.765c-6.551,0.588-10.078-2.941-10-9.765      c0-5.393,4.479-9.765,10-9.765S7132.925,329.463,7132.925,334.856z"
             fill="#FFFFFF" /></g><linearGradient
           gradientTransform="matrix(1 0 0 -1 0 5804)"
           y2="5388.2842"
           x2="7009.229"
           y1="5612.1172"
           x1="7009.229"
           gradientUnits="userSpaceOnUse"
           id="SVGID_6_"><stop
             id="stop50154"
             style="stop-color:#3C3625"
             offset="0" /><stop
             id="stop50156"
             style="stop-color:#4C4636"
             offset="0.1693" /><stop
             id="stop50158"
             style="stop-color:#666053"
             offset="0.4991" /><stop
             id="stop50160"
             style="stop-color:#766F64"
             offset="0.7872" /><stop
             id="stop50162"
             style="stop-color:#7C756A"
             offset="1" /></linearGradient><path
           id="path50164"
           d="M7040.382,224.883c0,0-7.625,10-4.625,22     c0,0-12.875-9.5-17.75-6.125c0,0-13.125,13.875-11.5,32.375c0,0-10-7.625-12.75,0s-12,54,29.75,81c-5,3.375-6.25,3.75-23.5-5.875     c-8.875,4.5,8.791,45.768,46.125,46.5l-44.25,20.958c0,0-35.25-15.708-12-39.333c-20.875-19.5-15.5-29.125-2.125-48     c0,0-16.514-21.774-15.375-33.5c1.291-13.333,8.096-23.952,15.762-30.952c-8.508-17.435-21.639-28.423-9.637-60.423     c16.25,22.375,30,32,32.25,30.625c0,0,2.99-38.064,5.125-42.25C7024.548,203.883,7038.882,224.05,7040.382,224.883z"
           enable-background="new    "
           fill="url(#SVGID_6_)"
           opacity="0.28" /><path
           id="path50166"
           d="M7198.882,330.383c0,0-12.125-13.875-35.75-16.125c-21.689-2.065-56.377-0.965-67.25-1.375     c-10.582-0.399-23.375,0.375-49.625-5.125c26.5,11.375,62.625,9.625,62.625,9.625s44.914,1.546,53,3.25     c32.625,6.875,36.625,19.125,36.625,19.125S7199.632,334.758,7198.882,330.383z" /></g><g
         id="Layer_3_4_" /></g><text
       id="text50169"
       font-size="300"
       font-family="'Evolution'"
       display="inline"
       transform="matrix(1 0 0 1 5243.8276 1252.8467)">evolution</text>
<path
       id="path50171"
       d="M5884.507,4090.169c0,0,157.129-0.024,171.512,0c46.529,0.082,114.961,13.192,114.771,120.634   l-0.248,141.816l-81.826,0.002c0,0,0.291-55.951-0.221-128.31c-0.479-67.692-82.873-61.39-82.873-61.39"
       display="inline" /><path
       id="path50173"
       d="M5159.857-1167.56l82.063,0.001v604.619c0,51.605,20.303,60.911,45.684,60.911   c7.613,0,1108.625,0.846,1108.625,0.846v72.756c0,0-1106.934,0-1121.314,0c-46.529,0-115.057-12.689-115.057-120.131V-1167.56   L5159.857-1167.56z"
       display="inline" /><path
       id="path50175"
       d="M5503.019-959.567c127.744,0,230.955,93.905,230.955,223.343c0,130.282-103.211,225.034-230.955,225.034   c-127.746,0-230.957-94.752-230.957-225.034C5272.062-865.662,5375.273-959.567,5503.019-959.567z M5503.019-582.253   c81.215,0,147.201-64.296,147.201-153.971c0-88.83-65.984-152.279-147.201-152.279c-80.371,0-147.203,63.449-147.203,152.279   C5355.816-646.549,5422.648-582.253,5503.019-582.253z"
       display="inline" /><path
       id="path50177"
       d="M5718.568-654.275c0,0,80.379,72.021,154.826,72.021c35.531,0,71.063-18.612,71.063-53.298   c0-78.678-219.957-62.604-219.957-202.192c0-77.831,69.371-121.823,154.814-121.823c93.906,0,137.898,47.376,137.898,47.376   l-32.994,61.757c0,0-38.07-38.069-105.75-38.069c-35.531,0-70.217,15.228-70.217,52.452c0,76.985,219.959,60.064,219.959,200.5   c0,71.063-60.912,124.361-154.818,124.361c-104.9,0-194.588-84.711-194.588-84.711L5718.568-654.275z"
       display="inline" /><path
       id="path50179"
       d="M6027.738-646.487c0,0,73.615,64.233,148.063,64.233c35.533,0,71.063-18.612,71.063-53.298   c0-78.678-219.957-62.604-219.957-202.192c0-77.831,69.371-121.823,154.816-121.823c93.904,0,137.896,47.376,137.896,47.376   l-32.994,61.757c0,0-38.068-38.069-105.75-38.069c-35.529,0-70.217,15.228-70.217,52.452c0,76.985,219.959,60.064,219.959,200.5   c0,71.063-60.912,124.361-154.816,124.361c-104.902,0-164.84-63.628-164.84-63.628L6027.738-646.487z"
       display="inline" /><path
       id="path50181"
       d="M6347.279-809.825h218.268c109.133,0,187.811,73.601,187.811,186.964   c0,113.363-78.678,189.503-187.811,189.503h-134.514v220.804h-83.754V-809.825z M6552.011-506.114   c71.91,0,115.9-44.838,115.9-116.747c0-71.909-43.99-114.209-115.055-114.209h-121.822v230.956H6552.011z"
       display="inline" /><text
       id="text50183"
       letter-spacing="-39"
       font-size="845.9993"
       font-family="'MuseoSans-500'"
       display="inline"
       transform="matrix(1 0 0 1 6657.9116 -212.5537)">A</text>
<path
       id="path50185"
       d="M5928.222,3764.882c0,0,108.445-0.011,122.826,0.015c46.529,0.082,114.961,13.193,114.773,120.636   l-0.25,141.815l-81.824,0.002c0,0,0.291-55.951-0.221-128.31c-0.479-67.692-114.305-61.462-114.305-61.462"
       display="inline" /><path
       id="path50187"
       d="M6060.046,3649.254v-22.302c0-95.29-82.668-114.505-120.176-114.505c-15.205,0-27.279-0.229-27.279-0.229   v-72.587c0,0,15.479-0.001,37.779-0.001c64.879,0,192.336,16.003,192.336,185.294v24.329"
       display="inline" /><path
       id="path50189"
       d="M5365.683,3633.002v-24.328c0-169.291,127.457-185.295,192.336-185.295   c22.301,0,37.777,0.002,37.777,0.002v72.587c0,0-12.072,0.229-27.277,0.229c-37.508,0-120.176,19.215-120.176,114.505v22.301"
       display="inline" /><text
       id="text50191"
       letter-spacing="-48"
       font-size="1034.7927"
       font-family="'MuseoSans-500'"
       display="inline"
       transform="matrix(1 0 0 1 4768.9038 -428.4512)">f</text>
<g
       id="g50193"
       display="inline"><g
         id="Layer_1_1_"><linearGradient
           gradientTransform="matrix(1 0 0 -1 0 5804)"
           y2="6598.3672"
           x2="6745.5347"
           y1="6598.3672"
           x1="6558.0122"
           gradientUnits="userSpaceOnUse"
           id="SVGID_7_"><stop
             id="stop50197"
             style="stop-color:#FFD752"
             offset="0" /><stop
             id="stop50199"
             style="stop-color:#FFF16E"
             offset="0.5" /><stop
             id="stop50201"
             style="stop-color:#FFFFFF"
             offset="1" /></linearGradient><path
           id="path50203"
           d="M6568.041-809.589c-2.117,0.488-2.666,2.864-2.666,2.864     s-9.369,20.334-6.969,19.751c31.299,1.305,91.611-18.909,117.691,37.166c0,0,24.125-11.735,28.361-19.726     c3.309-6.229-26.895-25.919-23.477-28.363c3.424-2.445,64.553-20.05,64.553-20.05l-2.199-20.979     C6743.339-838.923,6666.216-792.139,6568.041-809.589z"
           stroke-width="6"
           stroke="#000000"
           fill="url(#SVGID_7_)" /><g
           id="g50205"><path
             id="path50207"
             d="M6539.666-809.806      c0,0-7.871,123.22-17.283,141.601c-7.674,14.981-34.006,12.649-50.24,1.293c-19.803-13.854-54.855-54.854-50.125-81.337      c4.729-38.773,38.213-87.432,41.139-101.302c0,0,11.689,27.77,27.588,36.043      C6508.666-804.181,6532.099-808.545,6539.666-809.806z"
             stroke-linecap="round"
             stroke-width="7"
             stroke="#000000"
             fill="#221C11" /><path
             id="path50209"
             d="M6463.541-840.556c0,0-5,10.458-7.582,15.25c3.666,5.667,41.125,40.354,77.791,46.688      c0,0,1.479-15,2.043-27.25C6520.041-803.306,6484.541-797.056,6463.541-840.556z"
             fill="#FFFFFF" /><path
             id="path50211"
             d="M6527.072-709.056l3.531-32.063c0,0-56.146-17.604-86.48-60.604      c-10.805,22.667-10.615,23.979-10.615,23.979S6467.07-716.39,6527.072-709.056z"
             fill="#FFFFFF" /><path
             id="path50213"
             d="M6426.291-733.973c0,0,11.029,55.765,68.25,73.083c17.826,3.058,22.57-5.604,23.25-6.623      C6518.468-668.532,6470.435-657.228,6426.291-733.973z"
             fill="#FFFFFF" /></g><g
           id="g50215"
           enable-background="new    "><path
             id="path50217"
             d="M6829.166-1182.733c-11.936,25.048-21.105,31.401-25.264,37.068      c-15.512,10.256-14.627,11.97-3.143,13.069c8.797,1.196,28.688-1.009,40.02-2.353c11.33-1.345,30.266-10.397,34.145-10.309      c5.973,0.137,11.281,1.223,14.355,10.915c3.771,9.667,5.033-12.75,5.615-17.213c0.684-5.997,3.297-29.273-12.369-45.395      c-10.734-9.504-50.252-25.591-56.443-27C6822.884-1223.952,6832.232-1191.313,6829.166-1182.733z"
             fill="#251F10" /><path
             id="path50219"
             d="M6891.802-1128.947c-2.869,0-4.088-3.128-4.547-4.305l-0.063-0.183c-2.539-8.003-6.396-8.705-11.564-8.824      c-1.203,0.025-6.18,1.858-10.174,3.332c-7.422,2.735-16.652,6.14-23.549,6.958c-9.838,1.167-24.053,2.717-33.879,2.717h-0.002      c-2.771,0-5.018-0.119-6.842-0.363c-5.75-0.552-10.213-1.266-11.102-4.821c-0.939-3.774,2.912-7.086,12.498-13.446      c1.01-1.312,2.217-2.631,3.594-4.136c4.811-5.254,12.064-13.187,20.979-31.852c1.313-4.055-0.773-16.371-2.166-24.55      c-2.086-12.285-2.404-15.354-0.76-17.305c0.658-0.781,1.617-1.229,2.627-1.229h0.338l0.328,0.074      c6.375,1.451,46.42,17.634,57.77,27.68l0.164,0.155c7.611,7.833,16.082,22.489,13.195,47.824      c-0.096,0.718-0.191,1.805-0.318,3.13C6897.035-1134.487,6896.085-1128.947,6891.802-1128.947L6891.802-1128.947z       M6801.814-1135.581l0.117,0.013c1.543,0.21,3.594,0.316,6.094,0.316c9.508,0,23.484-1.527,33.172-2.675      c6.189-0.733,15.057-4.003,22.182-6.629c6.602-2.432,10.143-3.701,12.26-3.701l0.125,0.001      c5.518,0.126,11.586,1.002,15.521,8.923c0.51-3.399,0.896-7.469,1.066-9.32c0.137-1.414,0.246-2.576,0.34-3.291      c2.605-22.863-4.775-35.908-11.467-42.834c-9.184-8.04-40.926-21.47-51.947-25.292c0.279,2.735,1.268,38.18,1.268,38.18      c-9.33,19.584-32.377,44.456-33.629,45.644C6796.914-1136.247,6799.402-1135.813,6801.814-1135.581z" /></g><path
           id="path50221"
           d="M6644.041-1342.223c-4.166,7.167-5.813,45.695-5.813,45.695     s-19.803-10.765-29.188-34.861c-21,37,3,69.667,3,69.667s-31.666,34,0.105,65.055c-14.146,22.945-13.441,31.708,2.789,47.688     c-10.396,10.908-11.92,29.819,17.25,43.771c1.855,20.653,29.521,30.82,51.418,11.486c19.023,26.635,55.971,8.896,62.816-2.266     c5.719,11.334,16.396,10.931,16.396,10.931s18.719-1.666,25.053-14.999c4.166,5.5,17.824,16.498,17,12     c-1.041-5.667-2.502-27.225,9.166-45c0,0-21.875,0.5-21.996-0.958c-0.201-2.421,20.25-15.166,27.553-28.786     c7.307-13.621,17.738-19.332,7.943-61.922c-11.424-7.824-18.791-18.473-31.834-23.833c-12.066-4.96-77.49-25.354-85.332-28.5     C6682.541-1285.723,6644.041-1342.223,6644.041-1342.223z"
           stroke-width="5"
           stroke="#000000"
           fill="#7C756A" /><g
           id="g50223"><g
             id="g50225"
             enable-background="new    "><path
               id="path50227"
               d="M6824-1025.776l4.291-3.156c14.531,55.832,6.855,102.484-22.488,140.448c-21.832,28.24-54.816,50.112-98.049,65.012       c-37.645,12.973-81.178,19.828-125.895,19.828l0,0c-11.354,0-22.711-0.456-33.746-1.355l-0.541-4.879       c59.875-18.686,115.857-49.246,153.59-83.851c29.471-27.026,62.896-66.658,51.918-115.822 M6561.41-809.143       c6.77,0.333,13.607,0.5,20.451,0.5c97.621,0,179.857-30.989,219.984-82.897c27.857-36.04,35.309-81.191,22.15-134.232       c-16.162,6.271-53.496,16.419-65.521,17.979c7.697,39.934-11.26,78.612-53.938,117.752       C6668.9-857.356,6617.271-828.25,6561.41-809.143L6561.41-809.143z" /><path
               id="path50229"
               d="M6754.921-1012.189c6.479-0.336,54.117-7.701,69.617-14.868       c41.084,170.834-131.426,226.75-270.1,218.438C6671.941-845.283,6779.041-927.306,6754.921-1012.189z"
               fill="#FFFFFF" /></g><g
             id="g50231"><path
               id="path50233"
               d="M6526.615-801.954c-31.334,0-48.994-15.316-58.293-28.17c-10.029-13.864-12.633-27.57-12.738-28.146l-0.02-0.151       c-9.373-77.783,19.576-137.726,45.84-181.258c18.248-29.228,58.377-48.272,79.215-54.923       c14.359-4.583,27.004-24.891,27.133-25.096l1.801-2.922l2.229,2.608c0.053,0.06,5.607,6.411,18.127,13.081l0.91,0.485       l0.303,0.985c4.387,14.208,12.67,21.412,24.629,21.412c13.059,0,25.99-8.5,26.119-8.586l1.959-1.302l1.42,1.873       c5.408,7.141,13.398,10.762,23.752,10.762c14.623-0.001,29.666-7.238,35.23-12.129l1.758-1.544l1.656,1.649       c4.18,4.154,9.057,6.261,14.5,6.261c12.688,0,24.203-10.993,24.313-11.103l1.578-1.555l1.73,1.378       c5.379,4.279,16.584,9.924,16.695,9.982l0.898,0.452l20.957,59.264l-3.443,2.759c-3.666-5.25-66.152,16.991-67.811,17.518       c6.467,45.827-6.48,83.679-39.561,115.696c-32.184,31.15-80.943,54.734-128.85,75.579       C6565.568-807.048,6544.693-801.954,6526.615-801.954L6526.615-801.954z M6460.513-859.111       c0.201,1.013,2.879,13.721,11.975,26.214c12.529,17.215,30.742,25.941,54.129,25.941c17.393,0,37.594-4.955,60.051-14.728       c47.473-20.656,95.758-43.989,127.365-74.588c32.49-31.45,44.555-67.116,37.963-112.245l-0.016-0.103       c-0.107-1.064,0.209-2.095,0.9-2.899c1.898-2.21,6.182-2.405,13.947-2.762c13.9-0.639,37.586-1.315,56.229-15.668       l-19.744-54.412c-2.564-1.32-9.932-5.208-14.973-8.808c-3.902,3.298-14.383,11.096-26.207,11.097       c-6.102,0-11.604-2.082-16.385-6.195c-7.145,5.27-22.191,11.957-36.76,11.958c-10.965,0-20.008-3.785-26.299-10.976       c-4.357,2.546-15.379,8.229-26.951,8.229c-9.746,0-22.625-4.188-29.094-23.954c-8.338-4.545-13.635-8.887-16.383-11.44       c-4.148,6.021-15.189,20.474-28.135,24.604c-20.189,6.443-59.016,24.81-76.477,52.775       C6479.839-994.269,6451.353-935.339,6460.513-859.111L6460.513-859.111z" /><path
               id="path50235"
               d="M6629.041-1102.931c-13.18-7.021-19.094-12.892-19.094-12.892s-13.063,21.242-28.5,26.167       c-15.436,4.926-58.455,22.795-77.832,53.833c-23.482,38.921-52.697,97.063-43.102,176.711c0,0,12.5,87.041,126.146,37.433       c104.84-45.766,179.932-86.808,165.605-184.873c-0.693-6.64,42.6,5.13,72.604-19.336l-19.463-57.674       c0,0-11.102-7.126-16.744-11.618c-2.689,2.652-25.451,21.955-42.625,4.875c-9.666,8.5-45.709,23.835-62.625,1.5       C6683.416-1088.806,6641.972-1061.014,6629.041-1102.931z"
               fill="#1E170D" /></g><g
             id="g50237"><path
               id="path50239"
               d="M6684.041-1048.223c41.834,10.167,62.881,36.116,63.426,65.158       c0.688,36.564-22.615,73.623-41.301,88.73c13.436,4.393,47.125-43.101,47.125-93.601c-2.832-46.667-44.311-58.326-61.25-60.464       L6684.041-1048.223z"
               fill="#020100" /><path
               id="path50241"
               d="M6736.875-935.389c5.707-16.063,14-34.167,9.166-61.667c-6.875-46.125-64.824-52.583-62-51.167       c44.834,22.5,54.482,42.333,54.189,69.646c-0.521,48.854-34.555,84.232-32.064,84.243       C6715.166-894.298,6726.414-915.989,6736.875-935.389z"
               fill="#FFFFFF" /></g></g><g
           id="g50243"><linearGradient
             gradientTransform="matrix(1 0 0 -1 0 5804)"
             y2="6967.4355"
             x2="6786.3003"
             y1="7004.5381"
             x1="6724.5513"
             gradientUnits="userSpaceOnUse"
             id="SVGID_8_"><stop
               id="stop50246"
               style="stop-color:#FFD752"
               offset="0" /><stop
               id="stop50248"
               style="stop-color:#FFF16E"
               offset="0.0606" /><stop
               id="stop50250"
               style="stop-color:#FFF27C"
               offset="0.0856" /><stop
               id="stop50252"
               style="stop-color:#FFF69F"
               offset="0.1599" /><stop
               id="stop50254"
               style="stop-color:#FFF9BD"
               offset="0.2416" /><stop
               id="stop50256"
               style="stop-color:#FFFBD5"
               offset="0.3312" /><stop
               id="stop50258"
               style="stop-color:#FFFDE8"
               offset="0.4317" /><stop
               id="stop50260"
               style="stop-color:#FFFEF5"
               offset="0.5494" /><stop
               id="stop50262"
               style="stop-color:#FFFFFD"
               offset="0.7003" /><stop
               id="stop50264"
               style="stop-color:#FFFFFF"
               offset="1" /></linearGradient><path
             id="path50266"
             d="M6792.32-1200.098c5.25,15.25,0.807,36.792-20.443,48.542      c-22.25,14.75-60.834-3.667-49.75-43.5C6726.291-1217.431,6789.945-1210.385,6792.32-1200.098z"
             stroke-width="5"
             stroke="#000000"
             fill="url(#SVGID_8_)" /><ellipse
             id="ellipse50268"
             ry="23.125"
             rx="24.045"
             cy="-1184.181"
             cx="6759.419" /><path
             id="path50270"
             d="M6762.958-1190.334c0,5.395-4.479,9.766-10,9.766c-6.551,0.587-10.076-2.941-10-9.766      c0-5.393,4.479-9.765,10-9.765C6758.482-1200.098,6762.958-1195.727,6762.958-1190.334z"
             fill="#FFFFFF" /></g><linearGradient
           gradientTransform="matrix(1 0 0 -1 0 5804)"
           y2="6913.4727"
           x2="6639.2622"
           y1="7137.3057"
           x1="6639.2622"
           gradientUnits="userSpaceOnUse"
           id="SVGID_9_"><stop
             id="stop50273"
             style="stop-color:#3C3625"
             offset="0" /><stop
             id="stop50275"
             style="stop-color:#4C4636"
             offset="0.1693" /><stop
             id="stop50277"
             style="stop-color:#666053"
             offset="0.4991" /><stop
             id="stop50279"
             style="stop-color:#766F64"
             offset="0.7872" /><stop
             id="stop50281"
             style="stop-color:#7C756A"
             offset="1" /></linearGradient><path
           id="path50283"
           d="M6670.416-1300.306c0,0-7.625,10-4.625,22     c0,0-12.875-9.5-17.75-6.125c0,0-13.125,13.875-11.5,32.375c0,0-10-7.625-12.75,0s-12,54,29.75,81c-5,3.375-6.25,3.75-23.5-5.875     c-8.875,4.5,8.793,45.768,46.125,46.5l-44.25,20.958c0,0-35.25-15.708-12-39.333c-20.875-19.5-15.5-29.125-2.125-48     c0,0-16.512-21.774-15.375-33.5c1.293-13.333,8.098-23.952,15.764-30.952c-8.508-17.436-21.639-28.423-9.639-60.423     c16.25,22.375,30,32,32.25,30.625c0,0,2.99-38.064,5.125-42.25C6654.582-1321.306,6668.916-1301.139,6670.416-1300.306z"
           enable-background="new    "
           fill="url(#SVGID_9_)"
           opacity="0.28" /><path
           id="path50285"
           d="M6828.916-1194.806c0,0-12.125-13.875-35.75-16.125c-21.688-2.065-56.375-0.966-67.25-1.375     c-10.582-0.399-23.375,0.375-49.625-5.125c26.5,11.375,62.625,9.625,62.625,9.625s44.916,1.546,53,3.25     c32.625,6.875,36.625,19.125,36.625,19.125S6829.666-1190.431,6828.916-1194.806z" /></g><g
         id="Layer_3" /></g></g><g
     transform="translate(-209.75607,-112.36932)"
     id="Layer_3_3_" /><g
     id="g50588"><path
       id="path50289"
       d="m 184.80393,447.29068 h 334.196 v 72.754 h -250.443 v 196.271 h 208.961 v 72.754 h -208.961 v 380.14502 h -83.753 V 447.29068 z" /><path
       id="path50291"
       d="m 555.97993,447.28868 82.062,0.002 v 587.41002 c 0,51.605 20.304,60.912 45.684,60.912 7.613,0 1050.44597,0.846 1050.44597,0.846 v 72.757 c 0,0 -1048.75397,0 -1063.13597,0 -46.529,0 -115.055,-12.689 -115.055,-120.132 V 447.28868 z" /><path
       id="path50293"
       d="m 892.65693,638.07568 c 127.74397,0 230.95597,93.905 230.95597,223.344 0,130.281 -103.212,225.03302 -230.95597,225.03302 -127.745,0 -230.956,-94.75202 -230.956,-225.03302 0,-129.438 103.21,-223.344 230.956,-223.344 z m 0,377.31402 c 81.215,0 147.20197,-64.29602 147.20197,-153.97102 0,-88.83 -65.98697,-152.279 -147.20197,-152.279 -80.37,0 -147.203,63.449 -147.203,152.279 -10e-4,89.675 66.832,153.97102 147.203,153.97102 z" /><path
       id="path50295"
       d="m 1108.2049,943.36868 c 0,0 80.379,72.02102 154.827,72.02102 35.533,0 71.063,-18.61202 71.063,-53.29802 0,-78.678 -219.957,-62.604 -219.957,-202.192 0,-77.831 69.37,-121.823 154.815,-121.823 93.906,0 137.898,47.377 137.898,47.377 l -32.994,61.757 c 0,0 -38.07,-38.069 -105.75,-38.069 -35.531,0 -70.218,15.229 -70.218,52.452 0,76.985 219.959,60.064 219.959,200.5 0,71.06302 -60.911,124.36002 -154.817,124.36002 -104.902,0 -194.588,-84.711 -194.588,-84.711 l 39.762,-58.37402 z" /><path
       id="path50297"
       d="m 1417.3749,951.15568 c 0,0 73.617,64.23302 148.064,64.23302 35.531,0 71.063,-18.61202 71.063,-53.29802 0,-78.679 -219.957,-62.604 -219.957,-202.192 0,-77.831 69.371,-121.823 154.816,-121.823 93.904,0 137.896,47.376 137.896,47.376 l -32.994,61.757 c 0,0 -38.068,-38.068 -105.748,-38.068 -35.531,0 -70.217,15.228 -70.217,52.451 0,76.985 219.957,60.065 219.957,200.5 0,71.06302 -60.912,124.36002 -154.816,124.36002 -104.902,0 -164.84,-63.628 -164.84,-63.628 l 16.776,-71.66802 z" /><path
       id="path50299"
       d="m 1734.1709,787.81768 h 218.268 c 109.133,0 187.811,73.603 187.811,186.966 0,113.36202 -78.678,189.50202 -187.811,189.50202 h -134.514 v 220.805 h -83.754 V 787.81768 l 0,0 z m 204.733,303.71002 c 71.908,0 115.898,-44.838 115.898,-116.74602 0,-71.909 -43.99,-114.209 -115.055,-114.209 h -121.822 v 230.95502 h 120.979 z" /><text
       style="font-size:845.99932861px;letter-spacing:-39;font-family:MuseoSans-500"
       id="text50301"
       letter-spacing="-39"
       font-size="845.9993"
       x="2109.804"
       y="1225.0018">a</text>
<g
       id="g50304"
       transform="translate(-209.75607,-112.36932)"><g
         id="Layer_1_7_"><polygon
           style="fill:#ffffff;stroke:#000000;stroke-width:6"
           id="polygon50307"
           points="2133.291,842.756 2094.791,850.673 2097.363,873.367 2125.976,872.799 " /><g
           id="g50309"><linearGradient
             gradientTransform="matrix(1,0,0,-1,0,5804)"
             y2="4899.5605"
             x2="2233.3198"
             y1="4899.5605"
             x1="2040.9419"
             gradientUnits="userSpaceOnUse"
             id="SVGID_10_"><stop
               id="stop50312"
               style="stop-color:#FFD752"
               offset="0" /><stop
               id="stop50314"
               style="stop-color:#FFF16E"
               offset="0.5" /><stop
               id="stop50316"
               style="stop-color:#FFFFFF"
               offset="1" /></linearGradient><path
             style="fill:url(#SVGID_10_);stroke:#000000;stroke-width:6"
             id="path50318"
             d="m 2050.97,879.147 c -2.117,0.488 -2.666,2.863 -2.666,2.863 0,0 -9.369,20.334 -6.969,19.752 31.299,1.305 91.611,-18.91 117.689,37.166 0,0 8.906,-4.332 16.848,-9.524 5.127,-3.354 9.854,-7.065 11.518,-10.201 3.307,-6.23 -26.896,-25.918 -23.477,-28.361 7.836,-8.329 69.406,15.979 69.406,15.979 l -2.32,-23.058 c -12.175,-8.445 -80.64,-23.73 -180.029,-4.616 z" /><path
             id="path50320"
             d="m 2157.625,942.949 c 0,0 32.75,12.188 39.32,37.972 6.598,-38.95 -6.939,-66.444 -6.939,-66.444" /><path
             id="path50322"
             d="m 2040.941,904.792 c 0,0 -17.463,-15.185 -35.16,28.333 -7.742,-44 44.668,-57.333 44.668,-57.333" /><path
             id="path50324"
             d="m 2231.562,909.23 c 11.971,5.906 21.889,3.309 32.889,20.995 4.125,-33.438 -34.867,-50.191 -34.867,-50.191" /></g><g
           id="g50326"><path
             style="fill:#515151;stroke:#000000;stroke-width:7;stroke-linecap:round"
             id="path50328"
             d="m 2020.457,858.338 c 0,0 -20.287,42.795 -29.699,61.176 -7.674,14.982 -37.547,103.768 -53.781,92.41 -13.211,-16.875 -14.521,-73.791 -10.107,-100.465 6.408,-38.161 12.33,-75.998 15.256,-89.871 0,0 19.268,26.082 35.166,34.355 17.918,9.329 35.598,3.655 43.165,2.395 z" /><path
             style="fill:#ffffff"
             id="path50330"
             d="m 1944.101,829.798 c 0,0 -2.813,15.938 -3.75,21.438 8.75,12.125 44.361,31.018 62.939,34.604 0,0 6.225,-11.053 11.063,-22.729 -32.127,5.562 -47.752,-5.813 -70.252,-33.313 z" /><path
             style="fill:#ffffff"
             id="path50332"
             d="m 1990.123,911.923 6.795,-12.671 c 0,0 -47.527,-15.275 -59.527,-29.959 -2.643,15.631 -2.291,14.353 -2.291,14.353 0,0 25.021,22.812 55.023,28.277 z" /><path
             style="fill:#ffffff"
             id="path50334"
             d="m 1978.347,940.087 5.221,-14.831 c 0,0 -33.344,-9.666 -51.09,-26.004 -1.385,8.165 -2.336,16.338 -2.336,16.338 0,0 20.082,18.333 48.205,24.497 z" /><path
             style="fill:#ffffff"
             id="path50336"
             d="m 1966.882,967.592 5.547,-12.98 c 0,0 -27.58,-12.305 -43.904,-25.108 -0.762,8.546 -0.508,19.045 -0.508,19.045 0,0 21.49,14.419 38.865,19.043 z" /><path
             style="fill:#ffffff"
             id="path50338"
             d="m 1928.808,964.848 c 0,0 1.951,33.2 10.482,44.355 6.156,3.531 20.83,-27.115 20.83,-27.115 -0.124,-0.844 -21.663,-3.165 -31.312,-17.24 z" /></g><g
           id="g50340"
           enable-background="new    "><path
             id="path50342"
             d="m 2305.013,372.201 c -11.936,25.049 -21.105,31.4 -25.264,37.068 -15.512,10.256 -14.627,11.971 -3.145,13.068 8.799,1.196 29.346,1.544 40.678,0.2 11.33,-1.345 29.607,-12.95 33.486,-12.862 5.975,0.138 11.281,1.225 14.355,10.915 3.771,9.667 5.033,-12.749 5.615,-17.214 0.684,-5.996 3.297,-29.272 -12.369,-45.396 -10.734,-9.504 -50.252,-25.592 -56.443,-27.001 -3.194,0.004 6.154,32.644 3.087,41.222 z" /><path
             id="path50344"
             d="m 2367.65,425.988 c -2.869,0 -4.088,-3.127 -4.547,-4.306 l -0.064,-0.183 c -2.539,-8.003 -6.395,-8.704 -11.563,-8.823 -1.203,0.024 -5.551,5.36 -9.545,6.835 -7.422,2.734 -12.432,11.056 -24.211,10.902 -9.838,1.167 -24.02,-4.73 -33.846,-4.73 0,0 0,0 0,0 -2.773,0 -5.018,-0.119 -6.842,-0.363 -5.75,-0.552 -10.213,-1.266 -11.102,-4.819 -0.939,-3.774 2.912,-7.086 12.498,-13.446 1.01,-1.311 2.217,-2.631 3.594,-4.136 4.809,-5.254 12.063,-13.188 20.977,-31.853 1.314,-4.056 -0.773,-16.371 -2.166,-24.55 -2.086,-12.285 -2.404,-15.354 -0.76,-17.305 0.658,-0.781 1.617,-1.229 2.627,-1.229 h 0.338 l 0.328,0.075 c 6.375,1.451 46.42,17.634 57.77,27.68 l 0.164,0.154 c 7.611,7.834 16.082,22.49 13.195,47.824 -0.094,0.719 -0.191,1.805 -0.318,3.131 -1.293,13.603 -2.242,19.142 -6.525,19.142 l 0,0 z m -89.988,-6.634 0.117,0.014 c 1.543,0.211 3.594,0.316 6.094,0.316 9.508,0 23.662,3.378 33.348,2.23 6.189,-0.734 14.881,-8.909 22.006,-11.534 6.6,-2.434 10.141,-3.701 12.26,-3.701 h 0.125 c 5.516,0.127 14.174,-7.437 18.109,0.485 0.51,-3.399 -1.691,0.97 -1.521,-0.883 0.137,-1.414 0.246,-2.574 0.34,-3.291 2.605,-22.862 -4.775,-35.907 -11.467,-42.834 -9.184,-8.039 -40.926,-21.47 -51.947,-25.291 0.279,2.734 1.268,38.181 1.268,38.181 -9.33,19.584 -32.377,44.455 -33.629,45.644 0,-0.002 2.485,0.432 4.897,0.664 z" /><path
             style="fill:#ffffff"
             id="path50346"
             d="m 2365.615,425.361 c 0,0 -5.162,-15.08 -14.115,-23.516 -11.5,-10.834 -33.25,-3.334 -33.25,-3.334 0,0 13.596,22.652 39.846,22.902" /></g><g
           id="g50348"><g
             id="g50350"
             enable-background="new    "><path
               id="path50352"
               d="m 2298.082,554.339 4.291,-4.472 c 14.531,79.076 6.855,145.149 -22.488,198.918 -21.832,39.996 -54.818,70.975 -98.049,92.076 -37.645,18.373 -81.178,28.082 -125.895,28.082 l 0,0 c -11.354,0 -22.711,-0.646 -33.746,-1.919 l -0.541,-6.909 c 59.875,-26.466 115.857,-69.748 153.59,-118.76 29.471,-38.275 62.896,-94.406 51.918,-164.04 m -191.67,283.841 c 6.77,0.474 13.607,0.707 20.451,0.707 97.621,0 179.857,-43.89 219.984,-117.406 27.855,-51.043 35.309,-114.989 22.148,-190.112 -16.162,8.882 -53.496,23.256 -65.52,25.464 7.697,56.559 -11.26,111.34 -53.939,166.772 -35.634,46.291 -87.263,87.513 -143.124,114.575 l 0,0 z" /><path
               style="fill:#ffffff"
               id="path50354"
               d="m 2229.003,573.583 c 6.479,-0.479 54.117,-10.907 69.617,-21.06 41.084,241.951 -131.426,321.146 -270.1,309.375 117.503,-51.927 224.603,-168.096 200.483,-288.315 z" /></g><g
             id="g50356"><path
               id="path50358"
               d="m 2000.697,871.338 c -31.334,0 -48.994,-21.692 -58.293,-39.897 -10.029,-19.636 -12.633,-39.048 -12.738,-39.862 l -0.021,-0.216 c -9.373,-110.163 19.576,-195.06 45.842,-256.715 18.248,-41.394 58.377,-68.367 79.215,-77.787 14.359,-6.49 27.004,-35.252 27.133,-35.542 l 1.801,-4.139 2.229,3.693 c 0.053,0.084 5.607,9.08 18.127,18.527 l 0.91,0.688 0.303,1.396 c 4.387,20.123 12.67,30.325 24.629,30.325 13.059,0 25.99,-12.04 26.119,-12.16 l 1.959,-1.844 1.42,2.652 c 5.408,10.111 13.398,15.24 23.752,15.24 14.623,-0.002 29.666,-10.25 35.23,-17.179 l 1.758,-2.187 1.656,2.335 c 4.18,5.884 9.057,8.868 14.5,8.868 12.688,0 24.203,-15.568 24.313,-15.726 l 1.578,-2.202 1.73,1.952 c 5.379,6.06 16.584,14.056 16.695,14.137 l 0.898,0.642 20.957,83.937 -3.443,3.907 c -3.666,-7.436 -66.152,24.064 -67.811,24.811 6.467,64.904 -6.48,118.516 -39.561,163.859 -32.184,44.119 -80.945,77.521 -128.85,107.044 -23.084,14.228 -43.959,21.443 -62.037,21.443 l 0,0 z m -66.102,-80.951 c 0.201,1.436 2.879,19.432 11.975,37.129 12.529,24.381 30.74,36.738 54.129,36.738 17.393,0 37.594,-7.02 60.051,-20.857 47.473,-29.257 95.758,-62.303 127.365,-105.641 32.488,-44.543 44.555,-95.057 37.963,-158.973 l -0.016,-0.146 c -0.107,-1.507 0.209,-2.967 0.9,-4.106 1.898,-3.129 6.182,-3.406 13.947,-3.912 13.9,-0.903 37.586,-1.861 56.229,-22.188 l -19.744,-77.063 c -2.563,-1.869 -9.932,-7.377 -14.973,-12.475 -3.902,4.671 -14.383,15.715 -26.207,15.717 -6.102,0 -11.604,-2.949 -16.385,-8.774 -7.145,7.464 -22.191,16.936 -36.76,16.937 -10.965,0 -20.008,-5.359 -26.299,-15.545 -4.357,3.605 -15.379,11.654 -26.951,11.654 -9.746,0 -22.625,-5.931 -29.094,-33.926 -8.338,-6.438 -13.635,-12.587 -16.383,-16.203 -4.148,8.525 -15.189,28.996 -28.135,34.848 -20.189,9.125 -59.014,35.139 -76.475,74.745 -25.811,60.616 -54.297,144.078 -45.137,252.041 l 0,0 z" /><path
               style="fill:#141414"
               id="path50360"
               d="m 2102.652,445.066 c -13.18,-9.943 -19.094,-18.259 -19.094,-18.259 0,0 -13.063,30.084 -28.5,37.062 -15.436,6.978 -58.455,32.283 -77.832,76.242 -23.482,55.123 -52.697,137.469 -43.102,250.275 0,0 12.5,123.275 126.146,53.015 104.842,-64.817 181.426,-122.998 167.102,-261.89 -0.693,-9.405 41.104,7.318 71.107,-27.332 l -19.463,-81.684 c 0,0 -11.102,-10.094 -16.742,-16.454 -2.691,3.756 -25.451,31.095 -42.625,6.904 -9.666,12.038 -45.709,33.758 -62.625,2.124 0,0.003 -41.441,39.364 -54.372,-20.003 z" /></g><path
             style="fill:#141414;stroke:#000000;stroke-width:3"
             id="path50362"
             d="m 2126.5,736.845 c 0,0 -11.133,87.667 -53.068,108.981 -7.58,3.854 -43,20.5 -23.75,-28" /><path
             style="fill:#141414;stroke:#000000;stroke-width:3"
             id="path50364"
             d="m 2081,754.845 c 0,0 -11.715,87.911 -47.717,110.465 -7.205,4.515 -43,20.5 -23.75,-28" /><path
             style="fill:#141414;stroke:#000000;stroke-width:3"
             id="path50366"
             d="m 2048.333,758.345 c 0,0 -20.609,88.667 -56.051,104.571 -7.756,3.479 -43,20.5 -23.75,-28" /><path
             style="fill:#141414;stroke:#000000;stroke-width:3"
             id="path50368"
             d="m 2005.595,750.445 c 0,0 -15.049,78.507 -45.475,91.939 -34.094,15.054 -31.869,-48.873 -12.621,-97.373" /><g
             id="g50370"><path
               style="fill:#020100"
               id="path50372"
               d="m 2158.123,522.548 c 41.834,14.398 62.881,51.151 63.426,92.284 0.689,51.783 -22.615,104.271 -41.301,125.666 13.436,6.223 47.125,-61.043 47.125,-132.564 -2.832,-66.095 -44.311,-82.607 -61.25,-85.636 l -8,0.25 z" /><path
               style="fill:#ffffff"
               id="path50374"
               d="m 2215.654,684.096 c 7.982,-21.527 12.096,-43.251 9.18,-88.251 -6.875,-65.327 -69.535,-75.305 -66.711,-73.297 44.834,31.866 54.482,59.956 54.189,98.64 -0.521,69.19 -28.984,114.398 -95.318,185.065 78.839,-55.808 88.197,-94.681 98.66,-122.157 z" /></g></g><g
           id="g50376"><path
             style="fill:#515151;stroke:#000000;stroke-width:5"
             id="path50378"
             d="m 2067.5,214.512 c -4.166,7.168 32.047,45.561 32.047,45.561 0,0 -39.713,8.537 -49.098,-15.561 -21,37 35.594,48.72 35.594,48.72 0,0 -36.066,30.977 -4.293,62.03 -21.18,12.249 -29.25,15.222 -5,44.75 -29.582,17.168 0.27,35.78 29.438,49.732 1.855,20.652 29.313,32.434 51.936,4.434 10.377,38 50.711,20.667 63.377,-2 0.334,16.334 15.32,17.718 15.32,17.718 0,0 23.346,3.616 25.053,-14.999 4.166,5.5 17.824,16.498 17,12 -1.041,-5.667 -2.502,-27.226 9.166,-45 0,0 -21.875,0.5 -21.996,-0.958 -0.201,-2.421 20.25,-15.166 27.553,-28.784 7.305,-13.621 17.738,-19.332 7.943,-61.923 -11.424,-7.823 -18.791,-18.474 -31.834,-23.834 -12.066,-4.96 -77.49,-25.354 -85.332,-28.5 -27.832,-8.669 -116.874,-63.386 -116.874,-63.386 z" /></g><g
           id="g50380"><linearGradient
             gradientTransform="matrix(1,0,0,-1,0,5804)"
             y2="5416.4707"
             x2="2253.491"
             y1="5450.0586"
             x1="2197.5913"
             gradientUnits="userSpaceOnUse"
             id="SVGID_11_"><stop
               id="stop50383"
               style="stop-color:#FFD752"
               offset="0" /><stop
               id="stop50385"
               style="stop-color:#FFF16E"
               offset="0.0606" /><stop
               id="stop50387"
               style="stop-color:#FFF27C"
               offset="0.0856" /><stop
               id="stop50389"
               style="stop-color:#FFF69F"
               offset="0.1599" /><stop
               id="stop50391"
               style="stop-color:#FFF9BD"
               offset="0.2416" /><stop
               id="stop50393"
               style="stop-color:#FFFBD5"
               offset="0.3312" /><stop
               id="stop50395"
               style="stop-color:#FFFDE8"
               offset="0.4317" /><stop
               id="stop50397"
               style="stop-color:#FFFEF5"
               offset="0.5494" /><stop
               id="stop50399"
               style="stop-color:#FFFFFD"
               offset="0.7003" /><stop
               id="stop50401"
               style="stop-color:#FFFFFF"
               offset="1" /></linearGradient><path
             style="fill:url(#SVGID_11_);stroke:#000000;stroke-width:5"
             id="path50403"
             d="m 2258.941,354.339 c 4.752,13.806 0.73,33.308 -18.508,43.944 -20.141,13.354 -55.07,-3.32 -45.037,-39.379 3.771,-20.255 61.395,-13.878 63.545,-4.565 z" /><ellipse
             id="ellipse50405"
             ry="22.85"
             rx="23.76"
             cy="368.56799"
             cx="2231.1479" /><path
             style="fill:#ffffff"
             id="path50407"
             d="m 2241.738,361.585 c 0,4.884 -4.057,8.841 -9.055,8.841 -5.93,0.532 -9.121,-2.663 -9.053,-8.841 0,-4.882 4.055,-8.841 9.053,-8.841 5.002,0.002 9.055,3.959 9.055,8.841 z" /></g><path
           id="path50409"
           d="m 2306.125,358.98 c 0,0 -12.125,-13.875 -35.75,-16.125 -21.688,-2.064 -56.375,-0.966 -67.25,-1.375 -10.582,-0.398 -28.875,-4.998 -55.125,-10.498 26.5,11.375 68.125,14.998 68.125,14.998 0,0 44.916,1.545 53,3.25 32.625,6.875 36.625,19.125 36.625,19.125 0,0 1.125,-5 0.375,-9.375 z" /></g></g></g></svg>