<?xml version="1.0" encoding="UTF-8" standalone="no"?>
<!-- Created with Inkscape (http://www.inkscape.org/) -->

<svg
   xmlns:dc="http://purl.org/dc/elements/1.1/"
   xmlns:cc="http://creativecommons.org/ns#"
   xmlns:rdf="http://www.w3.org/1999/02/22-rdf-syntax-ns#"
   xmlns:svg="http://www.w3.org/2000/svg"
   xmlns="http://www.w3.org/2000/svg"
   xmlns:xlink="http://www.w3.org/1999/xlink"
   xmlns:sodipodi="http://sodipodi.sourceforge.net/DTD/sodipodi-0.dtd"
   xmlns:inkscape="http://www.inkscape.org/namespaces/inkscape"
   width="744.09448819"
   height="1052.3622047"
   id="svg7203"
   version="1.1"
   inkscape:version="0.48.3.1 r9886"
   sodipodi:docname="Documento nuevo 2">
  <defs
     id="defs7205">
    <linearGradient
       inkscape:collect="always"
       xlink:href="#SVGID_10_"
       id="linearGradient7631"
       gradientUnits="userSpaceOnUse"
       gradientTransform="matrix(1,0,0,-1,0,5804)"
       x1="2040.9419"
       y1="4899.5605"
       x2="2233.3198"
       y2="4899.5605" />
    <linearGradient
       gradientTransform="matrix(1,0,0,-1,0,5804)"
       y2="4899.5605"
       x2="2233.3198"
       y1="4899.5605"
       x1="2040.9419"
       gradientUnits="userSpaceOnUse"
       id="SVGID_10_">
      <stop
         id="stop3659"
         style="stop-color:#FFD752"
         offset="0" />
      <stop
         id="stop3661"
         style="stop-color:#FFF16E"
         offset="0.5" />
      <stop
         id="stop3663"
         style="stop-color:#FFFFFF"
         offset="1" />
    </linearGradient>
    <linearGradient
       inkscape:collect="always"
       xlink:href="#SVGID_11_"
       id="linearGradient7633"
       gradientUnits="userSpaceOnUse"
       gradientTransform="matrix(1,0,0,-1,0,5804)"
       x1="2197.5913"
       y1="5450.0586"
       x2="2253.491"
       y2="5416.4707" />
    <linearGradient
       gradientTransform="matrix(1,0,0,-1,0,5804)"
       y2="5416.4707"
       x2="2253.491"
       y1="5450.0586"
       x1="2197.5913"
       gradientUnits="userSpaceOnUse"
       id="SVGID_11_">
      <stop
         id="stop3730"
         style="stop-color:#FFD752"
         offset="0" />
      <stop
         id="stop3732"
         style="stop-color:#FFF16E"
         offset="0.0606" />
      <stop
         id="stop3734"
         style="stop-color:#FFF27C"
         offset="0.0856" />
      <stop
         id="stop3736"
         style="stop-color:#FFF69F"
         offset="0.1599" />
      <stop
         id="stop3738"
         style="stop-color:#FFF9BD"
         offset="0.2416" />
      <stop
         id="stop3740"
         style="stop-color:#FFFBD5"
         offset="0.3312" />
      <stop
         id="stop3742"
         style="stop-color:#FFFDE8"
         offset="0.4317" />
      <stop
         id="stop3744"
         style="stop-color:#FFFEF5"
         offset="0.5494" />
      <stop
         id="stop3746"
         style="stop-color:#FFFFFD"
         offset="0.7003" />
      <stop
         id="stop3748"
         style="stop-color:#FFFFFF"
         offset="1" />
    </linearGradient>
  </defs>
  <sodipodi:namedview
     id="base"
     pagecolor="#ffffff"
     bordercolor="#000000"
     borderopacity="1.0"
     inkscape:pageopacity="1.0"
     inkscape:pageshadow="0"
     inkscape:zoom="0.34"
     inkscape:cx="350"
     inkscape:cy="520"
     inkscape:document-units="px"
     inkscape:current-layer="layer1"
     showgrid="false"
     inkscape:window-width="588"
     inkscape:window-height="435"
     inkscape:window-x="3"
     inkscape:window-y="155"
     inkscape:window-maximized="0" />
  <metadata
     id="metadata7208">
    <rdf:RDF>
      <cc:Work
         rdf:about="">
        <dc:format>image/svg+xml</dc:format>
        <dc:type
           rdf:resource="http://purl.org/dc/dcmitype/StillImage" />
        <dc:title></dc:title>
      </cc:Work>
    </rdf:RDF>
  </metadata>
  <g
     inkscape:label="Layer 1"
     inkscape:groupmode="layer"
     id="layer1">
    <g
       style="display:inline"
       inkscape:export-ydpi="90"
       inkscape:export-xdpi="90"
       inkscape:export-filename="/home/david/Downloads/flosspa.png"
       id="Layer_2_1_"
       transform="matrix(0.21636069,0,0,0.21636069,95.379053,207.67116)">
      <path
         id="path3636"
         d="m 394.56,559.66 h 334.196 v 72.754 H 478.313 v 196.271 h 208.961 v 72.754 H 478.313 v 380.145 H 394.56 V 559.66 z"
         inkscape:connector-curvature="0" />
      <path
         id="path3638"
         d="m 765.736,559.658 82.062,0.002 v 587.41 c 0,51.605 20.304,60.912 45.684,60.912 7.613,0 1050.446,0.846 1050.446,0.846 v 72.757 c 0,0 -1048.754,0 -1063.136,0 -46.529,0 -115.055,-12.689 -115.055,-120.132 V 559.658 z"
         inkscape:connector-curvature="0" />
      <path
         id="path3640"
         d="m 1102.413,750.445 c 127.744,0 230.956,93.905 230.956,223.344 0,130.281 -103.212,225.033 -230.956,225.033 -127.745,0 -230.956,-94.752 -230.956,-225.033 0,-129.438 103.21,-223.344 230.956,-223.344 z m 0,377.314 c 81.215,0 147.202,-64.296 147.202,-153.971 0,-88.83 -65.987,-152.279 -147.202,-152.279 -80.37,0 -147.203,63.449 -147.203,152.279 -0.001,89.675 66.832,153.971 147.203,153.971 z"
         inkscape:connector-curvature="0" />
      <path
         id="path3642"
         d="m 1317.961,1055.738 c 0,0 80.379,72.021 154.827,72.021 35.533,0 71.063,-18.612 71.063,-53.298 0,-78.678 -219.957,-62.604 -219.957,-202.192 0,-77.831 69.37,-121.823 154.815,-121.823 93.906,0 137.898,47.377 137.898,47.377 l -32.994,61.757 c 0,0 -38.07,-38.069 -105.75,-38.069 -35.531,0 -70.218,15.229 -70.218,52.452 0,76.985 219.959,60.064 219.959,200.5 0,71.063 -60.911,124.36 -154.817,124.36 -104.902,0 -194.588,-84.711 -194.588,-84.711 l 39.762,-58.374 z"
         inkscape:connector-curvature="0" />
      <path
         id="path3644"
         d="m 1627.131,1063.525 c 0,0 73.617,64.233 148.064,64.233 35.531,0 71.063,-18.612 71.063,-53.298 0,-78.679 -219.957,-62.604 -219.957,-202.192 0,-77.831 69.371,-121.823 154.816,-121.823 93.904,0 137.896,47.376 137.896,47.376 l -32.994,61.757 c 0,0 -38.068,-38.068 -105.748,-38.068 -35.531,0 -70.217,15.228 -70.217,52.451 0,76.985 219.957,60.065 219.957,200.5 0,71.063 -60.912,124.36 -154.816,124.36 -104.902,0 -164.84,-63.628 -164.84,-63.628 l 16.776,-71.668 z"
         inkscape:connector-curvature="0" />
      <path
         id="path3646"
         d="m 1943.927,900.187 h 218.268 c 109.133,0 187.811,73.603 187.811,186.966 0,113.362 -78.678,189.502 -187.811,189.502 h -134.514 v 220.805 h -83.754 V 900.187 l 0,0 z m 204.733,303.71 c 71.908,0 115.898,-44.838 115.898,-116.746 0,-71.909 -43.99,-114.209 -115.055,-114.209 h -121.822 v 230.955 h 120.979 z"
         inkscape:connector-curvature="0" />
      <text
         id="text3648"
         letter-spacing="-39"
         font-size="845.9993"
         transform="translate(2319.5601,1337.3711)"
         style="font-size:845.99932861px;letter-spacing:-39;font-family:MuseoSans-500">a</text>
      <g
         id="g3651">
        <g
           id="Layer_1_7_">
          <polygon
             id="polygon3654"
             points="2125.976,872.799 2133.291,842.756 2094.791,850.673 2097.363,873.367 "
             style="fill:#ffffff;stroke:#000000;stroke-width:6" />
          <g
             id="g3656">
            <linearGradient
               gradientTransform="matrix(1,0,0,-1,0,5804)"
               y2="4899.5605"
               x2="2233.3198"
               y1="4899.5605"
               x1="2040.9419"
               gradientUnits="userSpaceOnUse"
               id="linearGradient7137">
              <stop
                 id="stop7139"
                 style="stop-color:#FFD752"
                 offset="0" />
              <stop
                 id="stop7141"
                 style="stop-color:#FFF16E"
                 offset="0.5" />
              <stop
                 id="stop7143"
                 style="stop-color:#FFFFFF"
                 offset="1" />
            </linearGradient>
            <path
               id="path3665"
               d="m 2050.97,879.147 c -2.117,0.488 -2.666,2.863 -2.666,2.863 0,0 -9.369,20.334 -6.969,19.752 31.299,1.305 91.611,-18.91 117.689,37.166 0,0 8.906,-4.332 16.848,-9.524 5.127,-3.354 9.854,-7.065 11.518,-10.201 3.307,-6.23 -26.896,-25.918 -23.477,-28.361 7.836,-8.329 69.406,15.979 69.406,15.979 l -2.32,-23.058 c -12.175,-8.445 -80.64,-23.73 -180.029,-4.616 z"
               inkscape:connector-curvature="0"
               style="fill:url(#linearGradient7631);stroke:#000000;stroke-width:6" />
            <path
               id="path3667"
               d="m 2157.625,942.949 c 0,0 32.75,12.188 39.32,37.972 6.598,-38.95 -6.939,-66.444 -6.939,-66.444"
               inkscape:connector-curvature="0" />
            <path
               id="path3669"
               d="m 2040.941,904.792 c 0,0 -17.463,-15.185 -35.16,28.333 -7.742,-44 44.668,-57.333 44.668,-57.333"
               inkscape:connector-curvature="0" />
            <path
               id="path3671"
               d="m 2231.562,909.23 c 11.971,5.906 21.889,3.309 32.889,20.995 4.125,-33.438 -34.867,-50.191 -34.867,-50.191"
               inkscape:connector-curvature="0" />
          </g>
          <g
             id="g3673">
            <path
               id="path3675"
               d="m 2020.457,858.338 c 0,0 -20.287,42.795 -29.699,61.176 -7.674,14.982 -37.547,103.768 -53.781,92.41 -13.211,-16.875 -14.521,-73.791 -10.107,-100.465 6.408,-38.161 12.33,-75.998 15.256,-89.871 0,0 19.268,26.082 35.166,34.355 17.918,9.329 35.598,3.655 43.165,2.395 z"
               inkscape:connector-curvature="0"
               style="fill:#515151;stroke:#000000;stroke-width:7;stroke-linecap:round" />
            <path
               id="path3677"
               d="m 1944.101,829.798 c 0,0 -2.813,15.938 -3.75,21.438 8.75,12.125 44.361,31.018 62.939,34.604 0,0 6.225,-11.053 11.063,-22.729 -32.127,5.562 -47.752,-5.813 -70.252,-33.313 z"
               inkscape:connector-curvature="0"
               style="fill:#ffffff" />
            <path
               id="path3679"
               d="m 1990.123,911.923 6.795,-12.671 c 0,0 -47.527,-15.275 -59.527,-29.959 -2.643,15.631 -2.291,14.353 -2.291,14.353 0,0 25.021,22.812 55.023,28.277 z"
               inkscape:connector-curvature="0"
               style="fill:#ffffff" />
            <path
               id="path3681"
               d="m 1978.347,940.087 5.221,-14.831 c 0,0 -33.344,-9.666 -51.09,-26.004 -1.385,8.165 -2.336,16.338 -2.336,16.338 0,0 20.082,18.333 48.205,24.497 z"
               inkscape:connector-curvature="0"
               style="fill:#ffffff" />
            <path
               id="path3683"
               d="m 1966.882,967.592 5.547,-12.98 c 0,0 -27.58,-12.305 -43.904,-25.108 -0.762,8.546 -0.508,19.045 -0.508,19.045 0,0 21.49,14.419 38.865,19.043 z"
               inkscape:connector-curvature="0"
               style="fill:#ffffff" />
            <path
               id="path3685"
               d="m 1928.808,964.848 c 0,0 1.951,33.2 10.482,44.355 6.156,3.531 20.83,-27.115 20.83,-27.115 -0.124,-0.844 -21.663,-3.165 -31.312,-17.24 z"
               inkscape:connector-curvature="0"
               style="fill:#ffffff" />
          </g>
          <g
             id="g3687"
             enable-background="new    ">
            <path
               id="path3689"
               d="m 2305.013,372.201 c -11.936,25.049 -21.105,31.4 -25.264,37.068 -15.512,10.256 -14.627,11.971 -3.145,13.068 8.799,1.196 29.346,1.544 40.678,0.2 11.33,-1.345 29.607,-12.95 33.486,-12.862 5.975,0.138 11.281,1.225 14.355,10.915 3.771,9.667 5.033,-12.749 5.615,-17.214 0.684,-5.996 3.297,-29.272 -12.369,-45.396 -10.734,-9.504 -50.252,-25.592 -56.443,-27.001 -3.194,0.004 6.154,32.644 3.087,41.222 z"
               inkscape:connector-curvature="0" />
            <path
               id="path3691"
               d="m 2367.65,425.988 c -2.869,0 -4.088,-3.127 -4.547,-4.306 l -0.064,-0.183 c -2.539,-8.003 -6.395,-8.704 -11.563,-8.823 -1.203,0.024 -5.551,5.36 -9.545,6.835 -7.422,2.734 -12.432,11.056 -24.211,10.902 -9.838,1.167 -24.02,-4.73 -33.846,-4.73 0,0 0,0 0,0 -2.773,0 -5.018,-0.119 -6.842,-0.363 -5.75,-0.552 -10.213,-1.266 -11.102,-4.819 -0.939,-3.774 2.912,-7.086 12.498,-13.446 1.01,-1.311 2.217,-2.631 3.594,-4.136 4.809,-5.254 12.063,-13.188 20.977,-31.853 1.314,-4.056 -0.773,-16.371 -2.166,-24.55 -2.086,-12.285 -2.404,-15.354 -0.76,-17.305 0.658,-0.781 1.617,-1.229 2.627,-1.229 h 0.338 l 0.328,0.075 c 6.375,1.451 46.42,17.634 57.77,27.68 l 0.164,0.154 c 7.611,7.834 16.082,22.49 13.195,47.824 -0.094,0.719 -0.191,1.805 -0.318,3.131 -1.293,13.603 -2.242,19.142 -6.525,19.142 l 0,0 z m -89.988,-6.634 0.117,0.014 c 1.543,0.211 3.594,0.316 6.094,0.316 9.508,0 23.662,3.378 33.348,2.23 6.189,-0.734 14.881,-8.909 22.006,-11.534 6.6,-2.434 10.141,-3.701 12.26,-3.701 h 0.125 c 5.516,0.127 14.174,-7.437 18.109,0.485 0.51,-3.399 -1.691,0.97 -1.521,-0.883 0.137,-1.414 0.246,-2.574 0.34,-3.291 2.605,-22.862 -4.775,-35.907 -11.467,-42.834 -9.184,-8.039 -40.926,-21.47 -51.947,-25.291 0.279,2.734 1.268,38.181 1.268,38.181 -9.33,19.584 -32.377,44.455 -33.629,45.644 0,-0.002 2.485,0.432 4.897,0.664 z"
               inkscape:connector-curvature="0" />
            <path
               id="path3693"
               d="m 2365.615,425.361 c 0,0 -5.162,-15.08 -14.115,-23.516 -11.5,-10.834 -33.25,-3.334 -33.25,-3.334 0,0 13.596,22.652 39.846,22.902"
               inkscape:connector-curvature="0"
               style="fill:#ffffff" />
          </g>
          <g
             id="g3695">
            <g
               id="g3697"
               enable-background="new    ">
              <path
                 id="path3699"
                 d="m 2298.082,554.339 4.291,-4.472 c 14.531,79.076 6.855,145.149 -22.488,198.918 -21.832,39.996 -54.818,70.975 -98.049,92.076 -37.645,18.373 -81.178,28.082 -125.895,28.082 l 0,0 c -11.354,0 -22.711,-0.646 -33.746,-1.919 l -0.541,-6.909 c 59.875,-26.466 115.857,-69.748 153.59,-118.76 29.471,-38.275 62.896,-94.406 51.918,-164.04 m -191.67,283.841 c 6.77,0.474 13.607,0.707 20.451,0.707 97.621,0 179.857,-43.89 219.984,-117.406 27.855,-51.043 35.309,-114.989 22.148,-190.112 -16.162,8.882 -53.496,23.256 -65.52,25.464 7.697,56.559 -11.26,111.34 -53.939,166.772 -35.634,46.291 -87.263,87.513 -143.124,114.575 l 0,0 z"
                 inkscape:connector-curvature="0" />
              <path
                 id="path3701"
                 d="m 2229.003,573.583 c 6.479,-0.479 54.117,-10.907 69.617,-21.06 41.084,241.951 -131.426,321.146 -270.1,309.375 117.503,-51.927 224.603,-168.096 200.483,-288.315 z"
                 inkscape:connector-curvature="0"
                 style="fill:#ffffff" />
            </g>
            <g
               id="g3703">
              <path
                 id="path3705"
                 d="m 2000.697,871.338 c -31.334,0 -48.994,-21.692 -58.293,-39.897 -10.029,-19.636 -12.633,-39.048 -12.738,-39.862 l -0.021,-0.216 c -9.373,-110.163 19.576,-195.06 45.842,-256.715 18.248,-41.394 58.377,-68.367 79.215,-77.787 14.359,-6.49 27.004,-35.252 27.133,-35.542 l 1.801,-4.139 2.229,3.693 c 0.053,0.084 5.607,9.08 18.127,18.527 l 0.91,0.688 0.303,1.396 c 4.387,20.123 12.67,30.325 24.629,30.325 13.059,0 25.99,-12.04 26.119,-12.16 l 1.959,-1.844 1.42,2.652 c 5.408,10.111 13.398,15.24 23.752,15.24 14.623,-0.002 29.666,-10.25 35.23,-17.179 l 1.758,-2.187 1.656,2.335 c 4.18,5.884 9.057,8.868 14.5,8.868 12.688,0 24.203,-15.568 24.313,-15.726 l 1.578,-2.202 1.73,1.952 c 5.379,6.06 16.584,14.056 16.695,14.137 l 0.898,0.642 20.957,83.937 -3.443,3.907 c -3.666,-7.436 -66.152,24.064 -67.811,24.811 6.467,64.904 -6.48,118.516 -39.561,163.859 -32.184,44.119 -80.945,77.521 -128.85,107.044 -23.084,14.228 -43.959,21.443 -62.037,21.443 l 0,0 z m -66.102,-80.951 c 0.201,1.436 2.879,19.432 11.975,37.129 12.529,24.381 30.74,36.738 54.129,36.738 17.393,0 37.594,-7.02 60.051,-20.857 47.473,-29.257 95.758,-62.303 127.365,-105.641 32.488,-44.543 44.555,-95.057 37.963,-158.973 l -0.016,-0.146 c -0.107,-1.507 0.209,-2.967 0.9,-4.106 1.898,-3.129 6.182,-3.406 13.947,-3.912 13.9,-0.903 37.586,-1.861 56.229,-22.188 l -19.744,-77.063 c -2.563,-1.869 -9.932,-7.377 -14.973,-12.475 -3.902,4.671 -14.383,15.715 -26.207,15.717 -6.102,0 -11.604,-2.949 -16.385,-8.774 -7.145,7.464 -22.191,16.936 -36.76,16.937 -10.965,0 -20.008,-5.359 -26.299,-15.545 -4.357,3.605 -15.379,11.654 -26.951,11.654 -9.746,0 -22.625,-5.931 -29.094,-33.926 -8.338,-6.438 -13.635,-12.587 -16.383,-16.203 -4.148,8.525 -15.189,28.996 -28.135,34.848 -20.189,9.125 -59.014,35.139 -76.475,74.745 -25.811,60.616 -54.297,144.078 -45.137,252.041 l 0,0 z"
                 inkscape:connector-curvature="0" />
              <path
                 id="path3707"
                 d="m 2102.652,445.066 c -13.18,-9.943 -19.094,-18.259 -19.094,-18.259 0,0 -13.063,30.084 -28.5,37.062 -15.436,6.978 -58.455,32.283 -77.832,76.242 -23.482,55.123 -52.697,137.469 -43.102,250.275 0,0 12.5,123.275 126.146,53.015 104.842,-64.817 181.426,-122.998 167.102,-261.89 -0.693,-9.405 41.104,7.318 71.107,-27.332 l -19.463,-81.684 c 0,0 -11.102,-10.094 -16.742,-16.454 -2.691,3.756 -25.451,31.095 -42.625,6.904 -9.666,12.038 -45.709,33.758 -62.625,2.124 0,0.003 -41.441,39.364 -54.372,-20.003 z"
                 inkscape:connector-curvature="0"
                 style="fill:#141414" />
            </g>
            <path
               id="path3709"
               d="m 2126.5,736.845 c 0,0 -11.133,87.667 -53.068,108.981 -7.58,3.854 -43,20.5 -23.75,-28"
               inkscape:connector-curvature="0"
               style="fill:#141414;stroke:#000000;stroke-width:3" />
            <path
               id="path3711"
               d="m 2081,754.845 c 0,0 -11.715,87.911 -47.717,110.465 -7.205,4.515 -43,20.5 -23.75,-28"
               inkscape:connector-curvature="0"
               style="fill:#141414;stroke:#000000;stroke-width:3" />
            <path
               id="path3713"
               d="m 2048.333,758.345 c 0,0 -20.609,88.667 -56.051,104.571 -7.756,3.479 -43,20.5 -23.75,-28"
               inkscape:connector-curvature="0"
               style="fill:#141414;stroke:#000000;stroke-width:3" />
            <path
               id="path3715"
               d="m 2005.595,750.445 c 0,0 -15.049,78.507 -45.475,91.939 -34.094,15.054 -31.869,-48.873 -12.621,-97.373"
               inkscape:connector-curvature="0"
               style="fill:#141414;stroke:#000000;stroke-width:3" />
            <g
               id="g3717">
              <path
                 id="path3719"
                 d="m 2158.123,522.548 c 41.834,14.398 62.881,51.151 63.426,92.284 0.689,51.783 -22.615,104.271 -41.301,125.666 13.436,6.223 47.125,-61.043 47.125,-132.564 -2.832,-66.095 -44.311,-82.607 -61.25,-85.636 l -8,0.25 z"
                 inkscape:connector-curvature="0"
                 style="fill:#020100" />
              <path
                 id="path3721"
                 d="m 2215.654,684.096 c 7.982,-21.527 12.096,-43.251 9.18,-88.251 -6.875,-65.327 -69.535,-75.305 -66.711,-73.297 44.834,31.866 54.482,59.956 54.189,98.64 -0.521,69.19 -28.984,114.398 -95.318,185.065 78.839,-55.808 88.197,-94.681 98.66,-122.157 z"
                 inkscape:connector-curvature="0"
                 style="fill:#ffffff" />
            </g>
          </g>
          <g
             id="g3723">
            <path
               id="path3725"
               d="m 2067.5,214.512 c -4.166,7.168 32.047,45.561 32.047,45.561 0,0 -39.713,8.537 -49.098,-15.561 -21,37 35.594,48.72 35.594,48.72 0,0 -36.066,30.977 -4.293,62.03 -21.18,12.249 -29.25,15.222 -5,44.75 -29.582,17.168 0.27,35.78 29.438,49.732 1.855,20.652 29.313,32.434 51.936,4.434 10.377,38 50.711,20.667 63.377,-2 0.334,16.334 15.32,17.718 15.32,17.718 0,0 23.346,3.616 25.053,-14.999 4.166,5.5 17.824,16.498 17,12 -1.041,-5.667 -2.502,-27.226 9.166,-45 0,0 -21.875,0.5 -21.996,-0.958 -0.201,-2.421 20.25,-15.166 27.553,-28.784 7.305,-13.621 17.738,-19.332 7.943,-61.923 -11.424,-7.823 -18.791,-18.474 -31.834,-23.834 -12.066,-4.96 -77.49,-25.354 -85.332,-28.5 -27.832,-8.669 -116.874,-63.386 -116.874,-63.386 z"
               inkscape:connector-curvature="0"
               style="fill:#515151;stroke:#000000;stroke-width:5" />
          </g>
          <g
             id="g3727">
            <linearGradient
               gradientTransform="matrix(1,0,0,-1,0,5804)"
               y2="5416.4707"
               x2="2253.491"
               y1="5450.0586"
               x1="2197.5913"
               gradientUnits="userSpaceOnUse"
               id="linearGradient7177">
              <stop
                 id="stop7179"
                 style="stop-color:#FFD752"
                 offset="0" />
              <stop
                 id="stop7181"
                 style="stop-color:#FFF16E"
                 offset="0.0606" />
              <stop
                 id="stop7183"
                 style="stop-color:#FFF27C"
                 offset="0.0856" />
              <stop
                 id="stop7185"
                 style="stop-color:#FFF69F"
                 offset="0.1599" />
              <stop
                 id="stop7187"
                 style="stop-color:#FFF9BD"
                 offset="0.2416" />
              <stop
                 id="stop7189"
                 style="stop-color:#FFFBD5"
                 offset="0.3312" />
              <stop
                 id="stop7191"
                 style="stop-color:#FFFDE8"
                 offset="0.4317" />
              <stop
                 id="stop7193"
                 style="stop-color:#FFFEF5"
                 offset="0.5494" />
              <stop
                 id="stop7195"
                 style="stop-color:#FFFFFD"
                 offset="0.7003" />
              <stop
                 id="stop7197"
                 style="stop-color:#FFFFFF"
                 offset="1" />
            </linearGradient>
            <path
               id="path3750"
               d="m 2258.941,354.339 c 4.752,13.806 0.73,33.308 -18.508,43.944 -20.141,13.354 -55.07,-3.32 -45.037,-39.379 3.771,-20.255 61.395,-13.878 63.545,-4.565 z"
               inkscape:connector-curvature="0"
               style="fill:url(#linearGradient7633);stroke:#000000;stroke-width:5" />
            <ellipse
               id="ellipse3752"
               ry="22.85"
               rx="23.76"
               cy="368.56799"
               cx="2231.1479"
               sodipodi:cx="2231.1479"
               sodipodi:cy="368.56799"
               sodipodi:rx="23.76"
               sodipodi:ry="22.85"
               d="m 2254.9079,368.56799 c 0,12.61971 -10.6377,22.85 -23.76,22.85 -13.1222,0 -23.76,-10.23029 -23.76,-22.85 0,-12.6197 10.6378,-22.85 23.76,-22.85 13.1223,0 23.76,10.2303 23.76,22.85 z" />
            <path
               id="path3754"
               d="m 2241.738,361.585 c 0,4.884 -4.057,8.841 -9.055,8.841 -5.93,0.532 -9.121,-2.663 -9.053,-8.841 0,-4.882 4.055,-8.841 9.053,-8.841 5.002,0.002 9.055,3.959 9.055,8.841 z"
               inkscape:connector-curvature="0"
               style="fill:#ffffff" />
          </g>
          <path
             id="path3756"
             d="m 2306.125,358.98 c 0,0 -12.125,-13.875 -35.75,-16.125 -21.688,-2.064 -56.375,-0.966 -67.25,-1.375 -10.582,-0.398 -28.875,-4.998 -55.125,-10.498 26.5,11.375 68.125,14.998 68.125,14.998 0,0 44.916,1.545 53,3.25 32.625,6.875 36.625,19.125 36.625,19.125 0,0 1.125,-5 0.375,-9.375 z"
             inkscape:connector-curvature="0" />
        </g>
      </g>
    </g>
  </g>
</svg>
